<?xml version="1.0" encoding="utf-8"?>
<!-- Generator: Adobe Illustrator 22.1.0, SVG Export Plug-In . SVG Version: 6.00 Build 0)  -->
<svg version="1.1" id="Capa_1" xmlns="http://www.w3.org/2000/svg" xmlns:xlink="http://www.w3.org/1999/xlink" x="0px" y="0px"
	 viewBox="0 0 355 320.8" style="enable-background:new 0 0 355 320.8;" xml:space="preserve">
<style type="text/css">
	.st0{fill:#00DFC3;}
</style>
<polygon id="XMLID_358_" class="st0" points="299.3,26.8 221.9,187.7 131,0 0,278.1 55.8,295.8 132.4,133.8 223.4,320.8 355,44.4 
	"/>
</svg>
