<?xml version="1.0" encoding="utf-8"?>
<!-- Generator: Adobe Illustrator 19.0.0, SVG Export Plug-In . SVG Version: 6.00 Build 0)  -->
<svg version="1.1" id="Layer_1" xmlns="http://www.w3.org/2000/svg" xmlns:xlink="http://www.w3.org/1999/xlink" x="0px" y="0px"
	 width="400px" height="400px" viewBox="0 0 400 400" style="enable-background:new 0 0 400 400;" xml:space="preserve">
<style type="text/css">
	.st0{fill:#7DDDC2;}
	.st1{fill:#FFFFFF;}
</style>
<g id="XMLID_54_">
	<g id="XMLID_109_">
		<g id="XMLID_110_">
			<rect id="XMLID_111_" x="126.151" y="94.059" class="st0" width="143.275" height="62.288"/>
		</g>
	</g>
	<g id="XMLID_106_">
		<g id="XMLID_107_">
			<path id="XMLID_108_" d="M160.585,224.24H42.573c-5.868,0-10.642-4.774-10.642-10.642V36.867c0-5.868,4.774-10.642,10.642-10.642
				h118.012c5.868,0,10.642,4.774,10.642,10.642v35.889h-7.982V36.867c0-1.442-1.219-2.661-2.661-2.661H42.573
				c-1.442,0-2.661,1.218-2.661,2.661v176.73c0,1.442,1.219,2.661,2.661,2.661h118.012c1.442,0,2.661-1.219,2.661-2.661v-55.438
				h7.982v55.438C171.227,219.465,166.453,224.24,160.585,224.24z"/>
		</g>
	</g>
	<g id="XMLID_103_">
		<g id="XMLID_104_">
			<rect id="XMLID_105_" x="35.922" y="51.806" width="131.315" height="7.982"/>
		</g>
	</g>
	<g id="XMLID_100_">
		<g id="XMLID_101_">
			<rect id="XMLID_102_" x="36.072" y="177.982" width="131.314" height="7.982"/>
		</g>
	</g>
	<g id="XMLID_97_">
		<g id="XMLID_98_">
			<path id="XMLID_99_" d="M102.833,206.595h-2.207c-3.907,0-7.103-3.197-7.103-7.103v-2.207c0-3.907,3.197-7.103,7.103-7.103h2.207
				c3.907,0,7.103,3.197,7.103,7.103v2.207C109.937,203.398,106.74,206.595,102.833,206.595z"/>
		</g>
	</g>
	<g id="XMLID_94_">
		<g id="XMLID_95_">
			<path id="XMLID_96_" d="M363.973,367.442H245.962c-5.868,0-10.642-4.774-10.642-10.642v-67.55h7.982v67.55
				c0,1.442,1.219,2.661,2.661,2.661h118.011c1.442,0,2.661-1.219,2.661-2.661V180.07c0-1.442-1.219-2.661-2.661-2.661H245.962
				c-1.442,0-2.661,1.218-2.661,2.661v49.68h-7.982v-49.68c0-5.868,4.774-10.642,10.642-10.642h118.011
				c5.868,0,10.642,4.774,10.642,10.642V356.8C374.615,362.668,369.841,367.442,363.973,367.442z"/>
		</g>
	</g>
	<g id="XMLID_91_">
		<g id="XMLID_92_">
			<rect id="XMLID_93_" x="239.31" y="195.008" width="131.314" height="7.982"/>
		</g>
	</g>
	<g id="XMLID_88_">
		<g id="XMLID_89_">
			<rect id="XMLID_90_" x="239.46" y="321.185" width="131.315" height="7.982"/>
		</g>
	</g>
	<g id="XMLID_85_">
		<g id="XMLID_86_">
			<path id="XMLID_87_" d="M306.221,349.798h-2.207c-3.907,0-7.103-3.197-7.103-7.103v-2.207c0-3.907,3.197-7.103,7.103-7.103h2.207
				c3.907,0,7.103,3.197,7.103,7.103v2.207C313.325,346.601,310.128,349.798,306.221,349.798z"/>
		</g>
	</g>
	<g id="XMLID_82_">
		<g id="XMLID_83_">
			<polygon id="XMLID_84_" points="269.231,292.12 182.286,292.12 168.304,256.06 168.304,227.526 259.838,227.526 259.838,235.508 
				176.286,235.508 176.286,254.568 187.752,284.138 262.78,284.138 278.463,211.111 314.552,211.111 314.552,219.093 
				284.913,219.093 			"/>
		</g>
	</g>
	<g id="XMLID_79_">
		<g id="XMLID_80_">
			<rect id="XMLID_81_" x="175.74" y="251.545" width="95.934" height="7.982"/>
		</g>
	</g>
	<g id="XMLID_74_">
		<g id="XMLID_75_">
			<path id="XMLID_76_" d="M187.352,307.162c-5.819,0-10.553-4.734-10.553-10.553c0-5.819,4.734-10.553,10.553-10.553
				c5.819,0,10.553,4.734,10.553,10.553C197.904,302.428,193.17,307.162,187.352,307.162z M187.352,292.443
				c-2.297,0-4.166,1.869-4.166,4.166c0,2.297,1.869,4.165,4.166,4.165c2.297,0,4.165-1.868,4.165-4.165
				C191.517,294.312,189.649,292.443,187.352,292.443z"/>
		</g>
	</g>
	<g id="XMLID_69_">
		<g id="XMLID_70_">
			<path id="XMLID_71_" d="M260.66,307.162c-5.819,0-10.553-4.734-10.553-10.553c0-5.819,4.734-10.553,10.553-10.553
				s10.553,4.734,10.553,10.553C271.214,302.428,266.48,307.162,260.66,307.162z M260.66,292.443c-2.297,0-4.166,1.869-4.166,4.166
				c0,2.297,1.869,4.165,4.166,4.165c2.297,0,4.166-1.868,4.166-4.165C264.826,294.312,262.957,292.443,260.66,292.443z"/>
		</g>
	</g>
	<g id="XMLID_64_">
		<g id="XMLID_65_">
			<path id="XMLID_66_" d="M264.884,161.353H133.029c-5.429,0-9.845-4.417-9.845-9.845v-72.1c0-5.429,4.416-9.845,9.845-9.845
				h131.855c5.429,0,9.845,4.417,9.845,9.845v72.1C274.729,156.937,270.313,161.353,264.884,161.353z M133.029,75.95
				c-1.906,0-3.458,1.551-3.458,3.458v72.1c0,1.906,1.551,3.458,3.458,3.458h131.855c1.906,0,3.458-1.551,3.458-3.458v-72.1
				c0-1.906-1.551-3.458-3.458-3.458H133.029z"/>
		</g>
	</g>
	<g id="XMLID_62_">
		<circle id="XMLID_63_" class="st1" cx="231.371" cy="133.833" r="11.256"/>
	</g>
	<g id="XMLID_60_">
		<circle id="XMLID_61_" class="st1" cx="246.763" cy="135.056" r="13.231"/>
	</g>
	<g id="XMLID_55_">
		<g id="XMLID_56_">
			<path id="XMLID_57_" d="M246.714,150.61c-2.615,0-5.137-0.646-7.404-1.884c-2.267,1.238-4.789,1.884-7.404,1.884
				c-8.577,0-15.554-6.978-15.554-15.555s6.978-15.554,15.554-15.554c2.615,0,5.137,0.646,7.404,1.884
				c2.267-1.238,4.789-1.884,7.404-1.884c8.577,0,15.554,6.978,15.554,15.554S255.291,150.61,246.714,150.61z M239.31,140.944
				l1.917,1.439c1.604,1.204,3.501,1.84,5.487,1.84c5.054,0,9.167-4.112,9.167-9.167c0-5.055-4.112-9.167-9.167-9.167
				c-1.986,0-3.883,0.636-5.487,1.84l-1.917,1.439l-1.917-1.439c-1.604-1.204-3.501-1.84-5.487-1.84
				c-5.054,0-9.167,4.112-9.167,9.167c0,5.055,4.112,9.167,9.167,9.167c1.986,0,3.883-0.636,5.487-1.84L239.31,140.944z"/>
		</g>
	</g>
</g>
</svg>
