<?xml version="1.0" encoding="utf-8"?>
<!-- Generator: Adobe Illustrator 22.0.1, SVG Export Plug-In . SVG Version: 6.00 Build 0)  -->
<svg version="1.1" id="Capa_1" xmlns="http://www.w3.org/2000/svg" xmlns:xlink="http://www.w3.org/1999/xlink" x="0px" y="0px"
	 width="400px" height="400px" viewBox="0 0 400 400" enable-background="new 0 0 400 400" xml:space="preserve">
<path fill="#00DFC3" d="M302.23,187.014l-16.846,7.1c-1.603,0.677-2.875,1.959-3.54,3.566l-8.899,21.484
	c-0.66,1.609-0.66,3.413,0,5.022l6.895,16.998l-15.351,15.344l-16.965-6.908c-1.611-0.662-3.417-0.662-5.029,0l-21.491,8.893
	c-1.61,0.667-2.891,1.941-3.566,3.547l-7.086,16.839h-21.703l-7.086-16.846c-0.677-1.607-1.961-2.882-3.573-3.547l-21.498-8.899
	c-1.609-0.66-3.413-0.66-5.022,0l-16.972,6.908l-15.337-15.331l6.895-16.998c0.66-1.609,0.66-3.413,0-5.022l-8.899-21.484
	c-0.665-1.608-1.937-2.889-3.54-3.566l-16.846-7.1v-21.703l16.846-7.086c1.603-0.677,2.875-1.959,3.54-3.566l8.899-21.484
	c0.662-1.611,0.662-3.418,0-5.029l-6.914-16.972l15.351-15.344l16.965,6.908c1.609,0.675,3.42,0.675,5.029,0l21.491-8.906
	c1.61-0.667,2.891-1.941,3.566-3.547l7.086-16.839h21.703l7.086,16.839c0.676,1.605,1.957,2.88,3.566,3.547l21.524,8.893
	c1.606,0.675,3.416,0.675,5.022,0l16.972-6.908l15.351,15.344l-6.908,16.985c-0.662,1.611-0.662,3.418,0,5.029l8.899,21.484
	c0.665,1.608,1.937,2.889,3.54,3.566l16.846,7.093V187.014z"/>
<g>
	<g>
		<path d="M398,106.867V93.633h-33.083V67.167c0-1.755-0.698-3.437-1.939-4.678l-26.467-26.467
			c-1.241-1.241-2.923-1.939-4.678-1.939h-26.467V1h-13.233v33.083h-19.85V1H259.05v33.083H239.2V1h-13.233v33.083h-19.85V1h-13.233
			v33.083h-19.85V1H159.8v33.083h-19.85V1h-13.233v33.083h-19.85V1H93.633v33.083H67.167c-1.755,0-3.437,0.698-4.678,1.939
			L36.022,62.489c-1.241,1.241-1.939,2.923-1.939,4.678v26.467H1v13.233h33.083v19.85H1v13.233h33.083v19.85H1v13.233h33.083v19.85
			H1v13.233h33.083v19.85H1V239.2h33.083v19.85H1v13.233h33.083v19.85H1v13.233h33.083v26.467c0,1.755,0.698,3.437,1.939,4.678
			l26.467,26.467c1.241,1.241,2.923,1.939,4.678,1.939h26.467V398h13.233v-33.083h19.85V398h13.233v-33.083h19.85v-13.233H69.906
			l-22.589-22.589V69.906l22.589-22.589h259.188l22.589,22.589v259.188l-22.589,22.589H239.2v13.233h19.85V398h13.233v-33.083h19.85
			V398h13.233v-33.083h26.467c1.755,0,3.437-0.698,4.678-1.939l26.467-26.467c1.241-1.241,1.939-2.923,1.939-4.678v-26.467H398
			v-13.233h-33.083v-19.85H398V259.05h-33.083V239.2H398v-13.233h-33.083v-19.85H398v-13.233h-33.083v-19.85H398V159.8h-33.083
			v-19.85H398v-13.233h-33.083v-19.85H398z"/>
	</g>
</g>
<g>
	<g>
		<path d="M80.4,73.783c-3.654,0-6.617,2.963-6.617,6.617v26.467h13.233v-19.85h19.85V73.783H80.4z"/>
	</g>
</g>
<g>
	<g>
		<path d="M87.017,311.983v-19.85H73.783V318.6c0,3.654,2.963,6.617,6.617,6.617h26.467v-13.233H87.017z"/>
	</g>
</g>
<g>
	<g>
		<path d="M311.983,292.133v19.85h-19.85v13.233H318.6c3.654,0,6.617-2.963,6.617-6.617v-26.467H311.983z"/>
	</g>
</g>
<g>
	<g>
		<path d="M318.6,73.783h-26.467v13.233h19.85v19.85h13.233V80.4C325.217,76.746,322.254,73.783,318.6,73.783z"/>
	</g>
</g>
<g>
	<g>
		<path d="M311.408,154.824l-18.394-7.742l-6.835-16.462l7.543-18.527c1.003-2.465,0.433-5.291-1.449-7.172l-21.55-21.564
			c-1.883-1.884-4.713-2.456-7.179-1.449l-18.527,7.543l-16.403-6.815l-7.741-18.381c-1.031-2.457-3.436-4.056-6.101-4.056h-30.49
			c-2.665,0-5.069,1.599-6.101,4.056l-7.794,18.381l-16.462,6.822l-18.527-7.543c-2.466-1.006-5.296-0.435-7.179,1.449
			l-21.557,21.564c-1.882,1.882-2.452,4.708-1.449,7.172l7.543,18.527l-6.822,16.456l-18.394,7.742
			c-2.452,1.036-4.044,3.439-4.043,6.101v30.49c-0.002,2.662,1.59,5.065,4.043,6.101l18.394,7.742l6.888,16.456l-7.543,18.527
			c-1.003,2.465-0.433,5.291,1.449,7.172l21.524,21.564c1.885,1.882,4.714,2.451,7.179,1.442l18.527-7.543l16.462,6.815
			l7.742,18.394c1.036,2.461,3.45,4.059,6.12,4.049h8.602v19.85H179.65c-3.654,0-6.617,2.963-6.617,6.617v52.933
			c0,14.617,11.85,26.467,26.467,26.467s26.467-11.85,26.467-26.467V318.6c0-3.654-2.963-6.617-6.617-6.617h-13.233v-19.85h8.602
			c2.663,0.001,5.068-1.595,6.101-4.049l7.742-18.388l16.462-6.822l18.527,7.543c2.466,1.006,5.296,0.435,7.179-1.449l21.557-21.564
			c1.882-1.882,2.452-4.708,1.449-7.172l-7.543-18.527l6.822-16.462l18.394-7.742c2.452-1.036,4.044-3.439,4.043-6.101v-30.476
			C315.452,158.263,313.859,155.86,311.408,154.824z M212.733,371.533c0,7.309-5.924,13.233-13.233,13.233
			s-13.233-5.924-13.233-13.233v-6.617h26.467V371.533z M212.733,325.217v26.467h-26.467v-26.467H212.733z M302.23,187.014
			l-16.846,7.1c-1.603,0.677-2.875,1.959-3.54,3.566l-8.899,21.484c-0.66,1.609-0.66,3.413,0,5.022l6.895,16.998l-15.351,15.344
			l-16.965-6.908c-1.611-0.662-3.417-0.662-5.029,0l-21.491,8.893c-1.61,0.667-2.891,1.941-3.566,3.547l-7.086,16.839h-21.703
			l-7.086-16.846c-0.677-1.607-1.961-2.882-3.573-3.547l-21.498-8.899c-1.609-0.66-3.413-0.66-5.022,0l-16.972,6.908l-15.337-15.331
			l6.895-16.998c0.66-1.609,0.66-3.413,0-5.022l-8.899-21.484c-0.665-1.608-1.937-2.889-3.54-3.566l-16.846-7.1v-21.703
			l16.846-7.086c1.603-0.677,2.875-1.959,3.54-3.566l8.899-21.484c0.662-1.611,0.662-3.418,0-5.029l-6.914-16.972l15.351-15.344
			l16.965,6.908c1.609,0.675,3.42,0.675,5.029,0l21.491-8.906c1.61-0.667,2.891-1.941,3.566-3.547l7.086-16.839h21.703l7.086,16.839
			c0.676,1.605,1.957,2.88,3.566,3.547l21.524,8.893c1.606,0.675,3.416,0.675,5.022,0l16.972-6.908l15.351,15.344l-6.908,16.985
			c-0.662,1.611-0.662,3.418,0,5.029l8.899,21.484c0.665,1.608,1.937,2.889,3.54,3.566l16.846,7.093V187.014z"/>
	</g>
</g>
<g>
	<g>
		<path d="M199.5,110.003c-36.543,0-66.167,29.624-66.167,66.167c0.044,36.525,29.642,66.123,66.167,66.167
			c36.543,0,66.167-29.624,66.167-66.167S236.043,110.003,199.5,110.003z M199.5,229.103c-29.234,0-52.933-23.699-52.933-52.933
			c0.033-29.221,23.712-52.9,52.933-52.933c29.234,0,52.933,23.699,52.933,52.933S228.734,229.103,199.5,229.103z"/>
	</g>
</g>
<g>
	<g>
		<rect x="192.883" y="169.553" width="13.233" height="13.233"/>
	</g>
</g>
<g>
	<g>
		<rect x="166.417" y="169.553" width="13.233" height="13.233"/>
	</g>
</g>
<g>
	<g>
		<rect x="219.35" y="169.553" width="13.233" height="13.233"/>
	</g>
</g>
</svg>
