<?xml version="1.0" encoding="UTF-8"?>
<svg width="271px" height="212px" viewBox="0 0 271 212" version="1.1" xmlns="http://www.w3.org/2000/svg" xmlns:xlink="http://www.w3.org/1999/xlink">
    <!-- Generator: Sketch 50.2 (55047) - http://www.bohemiancoding.com/sketch -->
    <title>icono-vision-conjunta</title>
    <desc>Created with Sketch.</desc>
    <defs></defs>
    <g id="Page-1" stroke="none" stroke-width="1" fill="none" fill-rule="evenodd">
        <g id="AN_investor_relations_desktop" transform="translate(-269.000000, -718.000000)">
            <g id="INNOVEMOS" transform="translate(165.000000, 560.000000)">
                <g id="icono-vision-conjunta" transform="translate(103.000000, 145.000000)">
                    <rect id="Path" x="0" y="0" width="274" height="235"></rect>
                    <path d="M206.049505,139.20955 C210.151325,138.56603 214.240905,139.420561 217.272389,141.554269 C217.523993,141.729894 217.764717,141.913382 218,142.100802 L208.39282,148.653958 L198.15323,152 C198.15323,152 191.712176,144.860992 192.01002,144.781043 C193.900448,144.269897 204.118277,139.512306 206.049505,139.20955" id="Fill-1" fill="#FFFFFF"></path>
                    <path d="M42.8022687,216.112601 L42.8022687,216.115282 C42.8022687,217.711796 41.6657117,218.781501 39.9729673,218.781501 L39.9701223,218.781501 L30,219 L30,200 L40.0412461,200.009383 C40.8534789,200.010724 41.6315723,200.315013 42.2147868,200.865952 C42.7980012,201.418231 43.0014151,202.143432 42.9999926,202.907507 L42.8022687,216.112601 Z" id="Fill-3" fill="#FFFFFF"></path>
                    <path d="M74.3438571,213 L45.8023446,213 L45.8023446,210.33819 L74.0836372,210.33819 L178.614775,190.44648 L237.612856,154.912642 C229.80897,148.045171 220.313655,146.77948 211.922919,151.585379 L174.975763,169.080128 L111.58105,169.080128 L111.58105,166.418318 L136.404942,166.418318 C147.095642,166.418318 155.567697,158.808202 156.267038,148.858354 L90.3555114,149.11655 C84.7065715,149.11655 79.1647013,151.376427 75.1516229,155.317237 L46.9150557,183.018698 L45,181.136798 L73.235212,153.435337 C77.7524664,148.99943 83.9909669,146.454739 90.3528007,146.454739 L159.025097,146.185897 L159.025097,147.522125 C159.025097,155.759098 154.411616,162.780954 147.457511,166.418318 L174.356385,166.418318 L210.651637,149.238993 C220.538637,143.571999 231.837872,145.412641 240.785641,154.200608 L242,155.39443 L179.612284,192.967215 L179.372394,193.011135 L74.3438571,213 Z" id="Fill-5" fill="#41464B"></path>
                    <path d="M209.374657,153 C208.91823,153 208.474213,152.791119 208.209457,152.410293 C207.801292,151.815492 207.990206,151.029641 208.634169,150.651363 L222.640013,142.415849 C221.700958,141.330687 220.601947,140.357607 219.354011,139.518262 C215.687422,137.044806 210.785308,136.04498 205.903878,136.782431 C203.006735,137.216751 200.188192,138.020433 197.528226,139.168005 L189.963388,142.427312 C189.272541,142.724076 188.452075,142.448964 188.130783,141.812132 C187.806733,141.174026 188.105962,140.416196 188.79543,140.119432 L196.361647,136.858851 C199.250516,135.614481 202.313131,134.742021 205.461239,134.266944 C211.072126,133.427599 216.724382,134.587907 220.981154,137.461294 C222.87719,138.741327 224.487786,140.287556 225.768817,142.055402 C225.972899,142.341976 226.047362,142.69096 225.970141,143.025934 C225.892921,143.362181 225.67367,143.653851 225.362031,143.838532 L210.113767,152.801308 C209.884863,152.935043 209.62976,153 209.374657,153" id="Fill-7" fill="#475059"></path>
                    <path d="M26.669917,222.263385 L38.6792034,222.275645 L38.6858782,222.275645 C41.7536128,222.275645 44.2513201,219.737908 44.255325,216.614434 L44.255325,216.613072 L44.3300827,174.414171 C44.3300827,171.290698 41.8350453,168.744788 38.7659757,168.742064 L26.669917,168.728442 L26.669917,222.263385 Z M38.6858782,225 L38.6765335,225 L24,224.985016 L24,166 L38.7686457,166.017708 C43.3101744,166.023157 47.0013346,169.79094 46.9999996,174.418258 L46.925242,216.615797 C46.9199021,221.241752 43.2234021,225 38.6858782,225 Z" id="Fill-9" fill="#41464B"></path>
                    <path d="M112,166 L144.128047,166 C149.044151,164.625 152.722663,160.5 154,155 L147.433774,155 C144.561136,157.75 141.005972,157.75 137.099951,157.75 L120.223201,157.75 C115.681253,157.75 112,161.44325 112,166" id="Fill-11" fill="#FFFFFF"></path>
                    <path d="M224.725317,153 L180.001891,180.955644 L76.6165172,201.349188 L53.0175497,201.349188 L53,211 L76.6165172,211 L180.001891,190.624379 L235,156.239915 C231.734403,154.072619 228.23391,153 224.725317,153" id="Fill-13" fill="#FFFFFF"></path>
                    <polygon id="Fill-15" fill="#48515A" points="36 135 38 135 38 131 36 131"></polygon>
                    <polygon id="Fill-17" fill="#48515A" points="36 147 38 147 38 143 36 143"></polygon>
                    <polygon id="Fill-18" fill="#48515A" points="42 141 46 141 46 139 42 139"></polygon>
                    <polygon id="Fill-19" fill="#48515A" points="29 141 33 141 33 139 29 139"></polygon>
                    <polygon id="Fill-20" fill="#48515A" points="250 127 252 127 252 123 250 123"></polygon>
                    <polygon id="Fill-21" fill="#48515A" points="250 141 252 141 252 137 250 137"></polygon>
                    <polygon id="Fill-22" fill="#48515A" points="255 131 259 131 259 129 255 129"></polygon>
                    <polygon id="Fill-23" fill="#48515A" points="242 131 246 131 246 129 242 129"></polygon>
                    <path d="M196.569026,159 L195.440697,156.626277 C185.100612,141.053547 167.954071,131.760144 149.552179,131.760144 C135.789272,131.760144 122.593907,136.947833 112.397059,146.369583 L108.817487,149.691416 L107,147.64615 L110.582275,144.324317 C121.277749,134.441623 135.11768,129 149.552179,129 C168.885111,129 186.896479,138.780569 197.732488,155.1634 L197.82843,155.333149 L199,157.795197 L196.569026,159 Z" id="Fill-24" fill="#41464B"></path>
                    <path d="M102.998676,99.5013437 C106.013665,105.481941 112.225791,109.312695 118.99932,109.312695 C125.772849,109.312695 131.986335,105.480598 135.001324,99.5 C131.986335,93.5194023 125.774209,89.6873052 118.99932,89.6873052 C112.227151,89.6873052 106.013665,93.520746 102.998676,99.5013437 M118.99932,112 C110.95618,112 103.59814,107.310652 100.255554,100.057616 L100,99.5013437 L100.255554,98.9450715 C103.59814,91.6906912 110.95618,87 118.99932,87 C127.04382,87 134.40186,91.6893475 137.744446,98.9437278 L138,99.5 L137.744446,100.056272 C134.40186,107.310652 127.04382,112 118.99932,112" id="Fill-25" fill="#41464B"></path>
                    <polygon id="Fill-26" fill="#41464B" points="134 101 139 101 139 99 134 99"></polygon>
                    <path d="M161.998676,116.5 C165.012305,122.480598 171.225791,126.312695 177.99932,126.312695 C184.772849,126.312695 190.986335,122.481941 194.001324,116.501344 C190.986335,110.520746 184.772849,106.687305 177.99932,106.687305 C171.225791,106.687305 165.013665,110.519402 161.998676,116.5 M177.99932,129 C169.95618,129 162.59814,124.309309 159.255554,117.056272 L159,116.5 L159.255554,115.943728 C162.59814,108.689348 169.95618,104 177.99932,104 C186.042461,104 193.40186,108.690691 196.744446,115.945071 L197,116.501344 L196.744446,117.057616 C193.400501,124.310652 186.042461,129 177.99932,129" id="Fill-27" fill="#41464B"></path>
                    <polygon id="Fill-28" fill="#41464B" points="154 116 162 116 162 114 154 114"></polygon>
                    <path d="M151.089168,132 L148.578588,130.904142 L152.198211,121.290612 C154.130572,116.161064 152.624766,110.22711 148.535255,106.865216 C142.467343,101.87265 141.190387,92.4092178 145.690202,85.7670363 L154.856392,73 L157,74.7793119 L147.855476,87.5186603 C144.238561,92.8580532 145.271772,100.511572 150.180539,104.548176 C155.235552,108.70719 157.097498,116.041569 154.707437,122.387927 L151.089168,132 Z" id="Fill-29" fill="#41464B"></path>
                    <g id="Group-2" transform="translate(224.000000, 43.000000)">
                        <path d="M47.97573,24.3528676 C47.97573,11.1877595 37.2369134,0.51502973 23.9932611,0.51502973 C10.7482764,0.51502973 0.010792111,11.1877595 0.010792111,24.3528676 C0.010792111,37.5179757 10.7482764,48.1907054 23.9932611,48.1907054 C37.2369134,48.1907054 47.97573,37.5179757 47.97573,24.3528676" id="Fill-30" fill="#FFFFFF"></path>
                        <path d="M23.9932611,44.2170703 L23.970611,44.2170703 C18.6318469,44.2104486 13.6155138,42.1392054 9.84493674,38.3834216 C6.07435968,34.6263135 4.00254083,29.6349351 4.00787027,24.3296919 C4.02119386,13.3841514 12.9853078,4.48734054 23.9932611,4.48734054 L24.0172435,4.48734054 C26.0224444,4.48998919 28.0023305,4.78796216 29.9022749,5.37066486 L31.2466256,5.92423243 C31.9247965,6.20763784 32.2445627,6.98369189 31.9594378,7.65777297 C31.6743129,8.33052973 30.8948827,8.65234054 30.2153794,8.36628649 L28.9936058,7.85642162 C27.4693867,7.39555676 25.7533078,7.13863784 24.0132465,7.13598919 L23.9932611,7.13598919 C14.4522355,7.13598919 6.68458028,14.8462054 6.67258904,24.3323405 C6.66725961,28.9317189 8.46461242,33.2569622 11.7315576,36.5121514 C14.9998352,39.7673405 19.3473239,41.5631243 23.9732757,41.5684216 L23.9932611,41.5684216 C33.535619,41.5684216 41.3032742,33.8595297 41.3139331,24.3733946 C41.3179302,20.3832054 39.9189528,16.4910162 37.372814,13.4172595 C36.9038235,12.851773 36.9850974,12.018773 37.5540149,11.5526108 C38.1229324,11.0864486 38.9609864,11.1698811 39.4286446,11.7340432 C42.3691617,15.2819081 43.9839813,19.7713676 43.9786519,24.3760432 C43.9666606,35.3202595 35.0025467,44.2170703 23.9932611,44.2170703" id="Fill-31" fill="#475059"></path>
                        <path d="M27.3149663,33.6224757 L19.9083804,33.6224757 C17.5647603,33.6224757 15.658154,31.7101514 15.658154,29.356827 C15.658154,28.6258 16.255051,28.0325027 16.9905134,28.0325027 C17.7259757,28.0325027 18.3228728,28.6258 18.3228728,29.356827 C18.3228728,30.2335297 19.0490086,30.973827 19.9083804,30.973827 L27.3149663,30.973827 C28.4061686,30.973827 29.2948523,30.0534216 29.2948523,28.9211243 L29.2948523,27.6630162 C29.2948523,26.5492595 28.4248216,25.6765297 27.3149663,25.6765297 L20.0123045,25.6765297 C17.5954045,25.6765297 15.9712584,23.8052595 15.9712584,21.0202054 L15.9712584,19.7594486 C15.9712584,16.9624757 17.5954045,15.0819351 20.0123045,15.0819351 L27.862566,15.0819351 C29.8957464,15.0819351 31.5492044,16.7373405 31.5492044,18.7715027 C31.5492044,19.5038541 30.950975,20.095827 30.216845,20.095827 C29.4800503,20.095827 28.8844856,19.5038541 28.8844856,18.7715027 C28.8844856,18.2073405 28.4168275,17.7305838 27.862566,17.7305838 L20.0123045,17.7305838 C18.8158457,17.7305838 18.6359772,19.0019351 18.6359772,19.7594486 L18.6359772,21.0202054 C18.6359772,21.9366378 18.8758019,23.0278811 20.0123045,23.0278811 L27.3149663,23.0278811 C29.875761,23.0278811 31.9595711,25.1070703 31.9595711,27.6630162 L31.9595711,28.9211243 C31.9595711,31.512827 29.875761,33.6224757 27.3149663,33.6224757" id="Fill-32" fill="#475059"></path>
                        <path d="M23.9658145,37.5954486 C23.2303521,37.5954486 22.6334551,37.0034757 22.6334551,36.2711243 L22.6334551,12.4332865 C22.6334551,11.7009351 23.2303521,11.1089622 23.9658145,11.1089622 C24.7012768,11.1089622 25.2981738,11.7009351 25.2981738,12.4332865 L25.2981738,36.2711243 C25.2981738,37.0034757 24.7012768,37.5954486 23.9658145,37.5954486" id="Fill-33" fill="#475059"></path>
                        <path d="M34.6637277,11.1244568 C34.3173142,11.1244568 33.9709008,10.9801054 33.7324085,10.7271595 C33.5978402,10.6079703 33.5059074,10.4622946 33.437957,10.3047 C33.3713391,10.1457811 33.3313683,9.97361892 33.3313683,9.80013243 C33.3313683,9.62797027 33.3713391,9.45580811 33.437957,9.29688919 C33.5059074,9.12472703 33.5978402,8.98037568 33.7324085,8.85986216 C33.8523208,8.74067297 33.997548,8.63472703 34.1574311,8.56851081 C34.490521,8.4374027 34.8515904,8.4374027 35.1846802,8.56851081 C35.3445633,8.63472703 35.4897905,8.74067297 35.6097028,8.85986216 C35.7309476,8.98037568 35.8375363,9.12472703 35.9041543,9.29688919 C35.9694399,9.45580811 35.9960871,9.62797027 35.9960871,9.80013243 C35.9960871,9.97361892 35.9694399,10.1457811 35.9041543,10.3047 C35.8375363,10.4622946 35.7442711,10.6079703 35.6097028,10.7271595 C35.3578869,10.9801054 35.0247971,11.1244568 34.6637277,11.1244568" id="Fill-34" fill="#475059"></path>
                    </g>
                    <polygon id="Fill-35" fill="#FFFFFF" points="113 75 113 35.0519861 197 35 197 75"></polygon>
                    <path d="M159.365164,67 L151.500371,67 C149.061795,67 147,64.9547857 147,62.535 L149.801351,62.535 C149.801351,63.466 150.594134,64.2857143 151.500371,64.2857143 L159.365164,64.2857143 C160.555739,64.2857143 161.198649,63.1172143 161.198649,62.0179286 L161.198649,60.7150714 C161.198649,59.5343571 160.529126,58.8571429 159.365164,58.8571429 L151.609623,58.8571429 C149.050589,58.8571429 147.191893,56.7467857 147.191893,53.8397857 L147.191893,52.5355714 C147.191893,49.8226429 148.966549,48 151.609623,48 L159.945044,48 C162.1343,48 163.845926,49.6204286 163.845926,51.6914286 L161.044574,51.6914286 C161.044574,51.0495 160.492708,50.7142857 159.945044,50.7142857 L151.609623,50.7142857 C151.165609,50.7142857 149.993244,50.7142857 149.993244,52.5355714 L149.993244,53.8397857 C149.993244,54.6961429 150.333608,56.1428571 151.609623,56.1428571 L159.365164,56.1428571 C162.09228,56.1428571 164,58.0238571 164,60.7150714 L164,62.0179286 C164,64.8122857 161.962017,67 159.365164,67" id="Fill-36" fill="#48515A"></path>
                    <polygon id="Fill-37" fill="#48515A" points="154 71 156 71 156 46 154 46"></polygon>
                    <polygon id="Fill-38" fill="#48515A" points="168 58 176 58 176 56 168 56"></polygon>
                    <polygon id="Fill-39" fill="#48515A" points="168 64 176 64 176 62 168 62"></polygon>
                    <polygon id="Fill-40" fill="#48515A" points="168 53 176 53 176 51 168 51"></polygon>
                    <polygon id="Fill-41" fill="#48515A" points="131 58 139 58 139 56 131 56"></polygon>
                    <polygon id="Fill-42" fill="#48515A" points="131 53 139 53 139 51 131 51"></polygon>
                    <polygon id="Fill-43" fill="#48515A" points="131 64 139 64 139 62 131 62"></polygon>
                    <path d="M117.689655,69.3076923 L190.310345,69.3076923 L190.310345,39.6923077 L117.689655,39.6923077 L117.689655,69.3076923 Z M115,72 L193,72 L193,37 L115,37 L115,72 Z" id="Fill-44" fill="#41464B"></path>
                    <polygon id="Fill-45" fill="#48515A" points="9 68 11 68 11 64 9 64"></polygon>
                    <polygon id="Fill-46" fill="#48515A" points="9 82 11 82 11 78 9 78"></polygon>
                    <polygon id="Fill-47" fill="#48515A" points="14 74 18 74 18 72 14 72"></polygon>
                    <polygon id="Fill-48" fill="#48515A" points="1 74 5 74 5 72 1 72"></polygon>
                    <path d="M88,86 C88,72.7466667 77.2533333,62 64,62 C50.7453333,62 40,72.7466667 40,86 C40,99.2546667 50.7453333,110 64,110 C77.2533333,110 88,99.2546667 88,86" id="Fill-49" fill="#FFFFFF"></path>
                    <path d="M64.4999985,107 L64.4767652,107 C59.0005351,106.993333 53.8550381,104.908 49.9873737,101.126667 C46.1197093,97.344 43.9945439,92.3186667 44.0000105,86.9746667 C44.0136772,75.9493333 53.1881051,67.032 64.5245985,67 C66.5855306,67.0026667 68.6177628,67.3026667 70.5625283,67.8893333 L71.9387608,68.444 C72.6357604,68.7293333 72.9637602,69.5106667 72.6712937,70.1893333 C72.3815606,70.868 71.5847944,71.1906667 70.8836948,70.9053333 L69.6304622,70.3933333 C68.0697298,69.9266667 66.3094641,69.6693333 64.5204985,69.6666667 L64.4999985,69.6666667 C54.7133042,69.6666667 46.7456422,77.4266667 46.7333423,86.9773333 C46.7278756,91.6093333 48.5715078,95.9653333 51.9225725,99.2426667 C55.2750039,102.52 59.7344346,104.328 64.4794985,104.333333 L64.4999985,104.333333 C74.2880595,104.333333 82.2557215,96.5706667 82.2666548,87.02 C82.2721214,83.0026667 80.8357556,79.084 78.2240571,75.9906667 C77.7443574,75.42 77.827724,74.5826667 78.4099237,74.1133333 C78.9948567,73.6466667 79.8531229,73.7266667 80.3341892,74.296 C83.3490541,77.8653333 85.0054532,82.388 84.9999865,87.0226667 C84.9876865,98.0426667 75.7927586,107 64.4999985,107" id="Fill-50" fill="#475059"></path>
                    <path d="M68.1563547,96 L60.4323662,96 C57.9897017,96 56,94.0402857 56,91.6272857 C56,90.8795 56.6224765,90.2701429 57.3894565,90.2701429 C58.1578259,90.2701429 58.778913,90.8795 58.778913,91.6272857 C58.778913,92.5257143 59.5361667,93.2857143 60.4323662,93.2857143 L68.1563547,93.2857143 C69.2943196,93.2857143 70.221087,92.3425 70.221087,91.1821429 L70.221087,89.8928571 C70.221087,88.7515 69.313772,87.8571429 68.1563547,87.8571429 L60.5407438,87.8571429 C58.0202697,87.8571429 56.3265223,85.9395 56.3265223,83.0827143 L56.3265223,81.7934286 C56.3265223,78.9271429 58.0202697,77 60.5407438,77 L68.7274213,77 C70.8477319,77 72.5720474,78.6964286 72.5720474,80.781 C72.5720474,81.5315 71.9495709,82.1381429 71.1825909,82.1381429 C70.4142215,82.1381429 69.7931345,81.5315 69.7931345,80.781 C69.7931345,80.2015 69.3054352,79.7142857 68.7274213,79.7142857 L60.5407438,79.7142857 C59.2930119,79.7142857 59.1054352,81.0171429 59.1054352,81.7934286 L59.1054352,83.0827143 C59.1054352,84.0232143 59.3555374,85.1428571 60.5407438,85.1428571 L68.1563547,85.1428571 C70.8268901,85.1428571 73,87.2722143 73,89.8928571 L73,91.1821429 C73,93.8380714 70.8268901,96 68.1563547,96" id="Fill-51" fill="#475059"></path>
                    <path d="M64,101 C63.448,101 63,100.3742 63,99.6 L63,74.4 C63,73.6258 63.448,73 64,73 C64.552,73 65,73.6258 65,74.4 L65,99.6 C65,100.3742 64.552,101 64,101" id="Fill-52" fill="#475059"></path>
                    <path d="M75,73 C74.74,73 74.49,72.8972292 74.301,72.7078086 C74.11,72.5163728 74,72.2644836 74,71.9924433 C74,71.7304786 74.11,71.4675063 74.301,71.2871537 C74.671,70.9042821 75.341,70.9042821 75.711,71.2871537 C75.801,71.3778338 75.881,71.488665 75.931,71.6095718 C75.98,71.7304786 76,71.861461 76,71.9924433 C76,72.2644836 75.9,72.5163728 75.711,72.7078086 C75.521,72.8972292 75.271,73 75,73" id="Fill-53" fill="#475059"></path>
                    <path d="M163,15.5 C163,16.881 161.881,18 160.5,18 C159.119,18 158,16.881 158,15.5 C158,14.119 159.119,13 160.5,13 C161.881,13 163,14.119 163,15.5" id="Fill-55" fill="#41464B"></path>
                    <path d="M210,94.5 C210,95.881 208.882,97 207.5,97 C206.119,97 205,95.881 205,94.5 C205,93.119 206.119,92 207.5,92 C208.882,92 210,93.119 210,94.5" id="Fill-56" fill="#41464B"></path>
                    <path d="M97,48 C97,49.1049831 96.1049831,50 95.0009676,50 C93.8959845,50 93,49.1049831 93,48 C93,46.8950169 93.8959845,46 95.0009676,46 C96.1049831,46 97,46.8950169 97,48" id="Fill-57" fill="#41464B"></path>
                    <path d="M45,33 C45,36.866242 41.8659569,40 37.999363,40 C34.1340431,40 31,36.866242 31,33 C31,29.133758 34.1340431,26 37.999363,26 C41.8659569,26 45,29.133758 45,33" id="Fill-59" fill="#41464B"></path>
                    <path d="M223,29 C223,32.866242 219.864968,36 216,36 C212.133758,36 209,32.866242 209,29 C209,25.133758 212.133758,22 216,22 C219.864968,22 223,25.133758 223,29" id="Fill-60" fill="#41464B"></path>
                    <path d="M24,117 C24,120.866242 20.8649682,124 17,124 C13.133758,124 10,120.866242 10,117 C10,113.133758 13.133758,110 17,110 C20.8649682,110 24,113.133758 24,117" id="Fill-61" fill="#41464B"></path>
                </g>
            </g>
        </g>
    </g>
</svg>