<?xml version="1.0" encoding="utf-8"?>
<!-- Generator: Adobe Illustrator 19.0.0, SVG Export Plug-In . SVG Version: 6.00 Build 0)  -->
<svg version="1.1" id="Layer_1" xmlns="http://www.w3.org/2000/svg" xmlns:xlink="http://www.w3.org/1999/xlink" x="0px" y="0px"
	 width="400px" height="400px" viewBox="0 0 400 400" style="enable-background:new 0 0 400 400;" xml:space="preserve">
<style type="text/css">
	.st0{fill:#20262C;}
	.st1{fill:#7DDDC2;}
	.st2{fill:#20272C;}
</style>
<g id="XMLID_15_">
	<g id="XMLID_44_">
		<g id="XMLID_56_">
			<path id="XMLID_57_" d="M381.665,288.126h-31.413V94.388c0-1.924-1.558-3.485-3.483-3.485H54.384
				c-1.924,0-3.485,1.561-3.485,3.485v193.738H19.485c-1.924,0-3.485,1.557-3.485,3.483v6.758c0,18.305,14.892,33.195,33.194,33.195
				h302.759c18.305,0,33.195-14.89,33.195-33.195v-6.758C385.148,289.683,383.591,288.126,381.665,288.126z M343.286,97.873v190.253
				h-72.444H130.308H57.869V97.873H343.286z M378.182,298.367c0,14.461-11.767,26.229-26.228,26.229H49.194
				c-14.459,0-26.224-11.767-26.224-26.229v-3.275h31.413h75.924h140.534h75.927h31.413V298.367z"/>
		</g>
		<g id="XMLID_52_">
			<path id="XMLID_53_" class="st0" d="M200.669,242.387c11.883,0,23.31-4.06,32.63-11.687c10.69-8.74,17.332-21.12,18.709-34.856
				c2.842-28.36-17.921-53.748-46.279-56.591c-28.388-2.812-53.748,17.921-56.588,46.279c-2.843,28.36,17.919,53.744,46.279,56.59
				C197.178,242.299,198.928,242.387,200.669,242.387z M156.076,186.229c1.191-11.887,6.94-22.597,16.187-30.16
				c8.066-6.596,17.949-10.109,28.23-10.109c1.505,0,3.023,0.076,4.54,0.228c24.539,2.46,42.499,24.425,40.041,48.959
				c-2.455,24.539-24.399,42.528-48.957,40.041C171.58,232.727,153.618,210.762,156.076,186.229z"/>
		</g>
		<g id="XMLID_50_">
			<path id="XMLID_51_" class="st0" d="M197.09,224.067c0,1.926,1.558,3.483,3.483,3.483s3.483-1.558,3.483-3.483v-6.954
				c0.423-0.036,0.848-0.026,1.269-0.081c5.033-0.649,9.849-3.719,12.572-8.015c2.382-3.756,2.971-8.063,1.658-12.124
				c-2.795-8.646-10.678-9.947-17.012-10.99c-4.212-0.695-8.192-1.351-10.354-3.792c-1.117-1.262-1.65-2.891-1.501-4.582
				c0.148-1.682,0.949-3.175,2.254-4.206c2.426-1.916,6.446-2.68,10.213-1.942c2.494,0.484,5.937,1.561,8.187,3.953
				c1.33,1.399,3.527,1.464,4.929,0.146c1.401-1.319,1.465-3.525,0.148-4.927c-3.527-3.741-8.436-5.337-11.935-6.016
				c-0.142-0.028-0.286-0.015-0.428-0.04v-7.187c0-1.924-1.558-3.485-3.483-3.485s-3.483,1.562-3.483,3.485v7.148
				c-3.193,0.481-6.175,1.589-8.464,3.394c-2.787,2.198-4.564,5.501-4.88,9.059c-0.316,3.569,0.861,7.148,3.229,9.821
				c3.801,4.292,9.451,5.223,14.431,6.046c6.406,1.055,10.097,1.868,11.519,6.26c0.849,2.63-0.028,4.848-0.913,6.246
				c-1.617,2.554-4.592,4.452-7.575,4.837c-6.59,0.833-13.317-1.141-17.61-5.185c-1.401-1.317-3.609-1.253-4.925,0.148
				c-1.319,1.401-1.253,3.607,0.148,4.928c3.923,3.694,9.305,6.091,15.04,6.918V224.067z"/>
		</g>
		<g id="XMLID_45_">
			<g id="XMLID_46_">
				<path id="XMLID_47_" class="st1" d="M73.86,112.072v157.59h253.16v-157.59H73.86z M200.636,241.348
					c-27.67,0-50.101-22.431-50.101-50.101c0-27.67,22.431-50.101,50.101-50.101c27.67,0,50.101,22.431,50.101,50.101
					C250.737,218.917,228.306,241.348,200.636,241.348z"/>
			</g>
		</g>
	</g>
	<g id="XMLID_16_">
		<g id="XMLID_39_">
			<g id="XMLID_42_">
				<path id="XMLID_43_" class="st2" d="M364.859,131.014c-0.487,0.487-0.487,1.278,0,1.766l7.806,7.806
					c0.487,0.487,1.278,0.487,1.766,0c0.487-0.487,0.487-1.278,0-1.765l-7.806-7.806
					C366.137,130.527,365.347,130.527,364.859,131.014z"/>
			</g>
			<g id="XMLID_40_">
				<path id="XMLID_41_" d="M371.662,141.59l-7.806-7.806c-1.04-1.04-1.04-2.733,0-3.774c1.04-1.04,2.733-1.04,3.773,0l7.806,7.806
					c1.04,1.04,1.04,2.733,0,3.773C374.394,142.63,372.702,142.63,371.662,141.59z"/>
			</g>
		</g>
		<g id="XMLID_34_">
			<g id="XMLID_37_">
				<path id="XMLID_38_" class="st2" d="M390.979,100.671c0-0.69-0.559-1.248-1.248-1.248l-11.043,0
					c-0.69,0-1.248,0.559-1.248,1.248c0,0.345,0.139,0.657,0.366,0.883c0.226,0.226,0.538,0.366,0.883,0.366l11.043,0
					C390.42,101.919,390.979,101.361,390.979,100.671z"/>
			</g>
			<g id="XMLID_35_">
				<path id="XMLID_36_" d="M376.8,102.557c-0.503-0.503-0.781-1.173-0.781-1.885c0.001-1.473,1.198-2.669,2.667-2.67l11.044,0
					c1.429,0.001,2.669,1.246,2.668,2.669c0,0.712-0.277,1.382-0.781,1.886c-0.504,0.504-1.174,0.782-1.887,0.781l-11.043,0
					C377.975,103.339,377.305,103.062,376.8,102.557z"/>
			</g>
		</g>
		<g id="XMLID_29_">
			<g id="XMLID_32_">
				<path id="XMLID_33_" class="st2" d="M366.626,70.328l7.807-7.807c0.487-0.487,0.487-1.278,0-1.766
					c-0.487-0.487-1.278-0.487-1.766,0l-7.807,7.807c-0.487,0.487-0.487,1.278,0,1.766S366.139,70.816,366.626,70.328z"/>
			</g>
			<g id="XMLID_30_">
				<path id="XMLID_31_" d="M363.857,71.332c-1.04-1.04-1.04-2.733,0-3.773l7.807-7.807c1.04-1.04,2.733-1.04,3.773,0
					s1.041,2.734,0.001,3.774l-7.807,7.807C366.59,72.373,364.897,72.372,363.857,71.332z"/>
			</g>
		</g>
		<g id="XMLID_22_">
			<g id="XMLID_27_">
				<path id="XMLID_28_" class="st2" d="M335.767,45.459c-0.001-0.689-0.558-1.249-1.248-1.248c-0.69,0-1.248,0.559-1.248,1.248
					l-0.001,11.042c0,0.345,0.139,0.657,0.366,0.883c0.226,0.226,0.538,0.366,0.883,0.366c0.69,0,1.248-0.559,1.248-1.248
					L335.767,45.459z"/>
			</g>
			<g id="XMLID_23_">
				<path id="XMLID_24_" d="M332.631,58.388c-0.503-0.503-0.781-1.173-0.781-1.885l0.001-11.043
					c0.001-1.472,1.198-2.668,2.668-2.668c1.469-0.001,2.667,1.194,2.668,2.667l0,11.044c0,1.471-1.196,2.668-2.668,2.668
					C333.804,59.169,333.134,58.892,332.631,58.388z M334.347,45.46c0,0,0,0.001,0,0.001V45.46z"/>
			</g>
		</g>
		<g id="XMLID_17_">
			<g id="XMLID_20_">
				<path id="XMLID_21_" class="st2" d="M294.603,62.523l7.806,7.806c0.487,0.487,1.278,0.487,1.766,0
					c0.487-0.487,0.487-1.278,0-1.766l-7.806-7.806c-0.487-0.487-1.278-0.487-1.766,0C294.116,61.245,294.115,62.036,294.603,62.523
					z"/>
			</g>
			<g id="XMLID_18_">
				<path id="XMLID_19_" d="M301.405,71.333l-7.806-7.806c-1.04-1.04-1.04-2.733,0-3.773c1.04-1.04,2.733-1.04,3.773,0l7.806,7.806
					c1.04,1.04,1.04,2.733,0,3.773C304.138,72.374,302.445,72.374,301.405,71.333z"/>
			</g>
		</g>
	</g>
</g>
</svg>
