<?xml version="1.0" encoding="utf-8"?>
<!-- Generator: Adobe Illustrator 19.0.0, SVG Export Plug-In . SVG Version: 6.00 Build 0)  -->
<svg version="1.1" id="Layer_1" xmlns="http://www.w3.org/2000/svg" xmlns:xlink="http://www.w3.org/1999/xlink" x="0px" y="0px"
	 width="400px" height="400px" viewBox="0 0 400 400" style="enable-background:new 0 0 400 400;" xml:space="preserve">
<style type="text/css">
	.st0{fill:#7DDDC2;}
</style>
<g id="XMLID_351_">
	<polygon id="XMLID_352_" class="st0" points="280.575,319.638 170.506,319.622 170.444,251.271 280.513,251.288 	"/>
</g>
<g id="XMLID_120_">
	<g id="XMLID_343_">
		<g id="XMLID_344_">
			<g id="XMLID_345_">
				<g id="XMLID_346_">
					<path id="XMLID_350_" d="M324.396,259.528h-35.521v-5.472h30.878c0.18-1.493,0.271-2.982,0.271-4.449
						c0-20.714-16.851-37.566-37.565-37.566c-6.533,0-12.977,1.713-18.636,4.954l-3.178,1.82l-0.845-3.562
						c-7.087-29.851-33.483-50.7-64.193-50.7c-35.643,0-65.232,28.991-65.96,64.627l-0.085,4.17l-3.79-1.738
						c-3.003-1.378-6.204-2.075-9.518-2.075c-12.617,0-22.882,10.264-22.882,22.881c0,0.541,0.02,1.088,0.061,1.638h81.451v5.472
						H88.709l-0.39-2.273c-0.278-1.618-0.419-3.245-0.419-4.838c0-15.634,12.72-28.353,28.355-28.353
						c2.774,0,5.485,0.395,8.101,1.177c1.268-17.332,8.718-33.443,21.218-45.71c13.435-13.187,31.204-20.45,50.034-20.45
						c32.086,0,59.828,21.022,68.631,51.537c5.684-2.657,11.916-4.049,18.219-4.049c23.731,0,43.037,19.308,43.037,43.038
						c0,2.529-0.234,5.111-0.695,7.67L324.396,259.528z"/>
					<path id="XMLID_347_" d="M325.475,260.82h-37.891v-8.055h31.007c0.094-1.06,0.142-2.118,0.142-3.157
						c0-20.002-16.273-36.275-36.274-36.275c-6.308,0-12.53,1.654-17.993,4.783l-4.677,2.678l-1.244-5.242
						c-6.948-29.267-32.829-49.707-62.937-49.707c-34.945,0-63.955,28.424-64.668,63.362l-0.125,6.137l-5.58-2.558
						c-2.831-1.299-5.852-1.958-8.98-1.958c-11.905,0-21.59,9.685-21.59,21.59c0,0.115,0.001,0.231,0.003,0.347h81.508v8.055H87.621
						l-0.574-3.345c-0.291-1.687-0.438-3.388-0.438-5.056c0-16.346,13.299-29.644,29.646-29.644c2.353,0,4.682,0.275,6.944,0.819
						c1.614-17.019,9.202-32.942,21.47-44.983c13.679-13.426,31.769-20.819,50.939-20.819c15.996,0,31.151,5.043,43.823,14.585
						c12.242,9.217,21.078,21.801,25.624,36.465c5.474-2.334,11.459-3.562,17.403-3.562c24.443,0,44.329,19.886,44.329,44.329
						c0,2.606-0.241,5.263-0.715,7.899L325.475,260.82z M290.166,258.237h33.15l0.214-1.188c0.448-2.485,0.675-4.989,0.675-7.441
						c0-23.019-18.727-41.747-41.747-41.747c-6.066,0-12.177,1.358-17.673,3.927l-1.369,0.64l-0.419-1.452
						c-4.249-14.73-12.936-27.364-25.121-36.538c-12.222-9.202-26.839-14.066-42.27-14.066c-18.489,0-35.937,7.131-49.129,20.08
						c-12.194,11.967-19.593,27.907-20.834,44.883l-0.117,1.603l-1.54-0.46c-2.495-0.745-5.096-1.122-7.732-1.122
						c-14.922,0-27.063,12.14-27.063,27.062c0,1.522,0.135,3.075,0.4,4.618l0.206,1.201h83.795v-2.89H92.234l-0.088-1.197
						c-0.043-0.579-0.064-1.161-0.064-1.733c0-13.329,10.844-24.173,24.173-24.173c3.502,0,6.885,0.738,10.057,2.193l2.001,0.917
						l0.045-2.202c0.742-36.333,30.91-65.892,67.251-65.892c31.31,0,58.223,21.257,65.45,51.693l0.446,1.881l1.678-0.961
						c5.854-3.353,12.52-5.125,19.277-5.125c21.426,0,38.857,17.431,38.857,38.857c0,1.512-0.094,3.062-0.28,4.603l-0.137,1.137
						h-30.732V258.237z"/>
				</g>
			</g>
		</g>
	</g>
	<g id="XMLID_314_">
		<g id="XMLID_333_">
			<g id="XMLID_334_">
				<g id="XMLID_335_">
					<g id="XMLID_336_">
						<g id="XMLID_337_">
							<g id="XMLID_338_">
								
									<rect id="XMLID_342_" x="99.046" y="228.792" transform="matrix(0.4999 0.8661 -0.8661 0.4999 297.5612 54.2781)" width="5.473" height="111.999"/>
								<path id="XMLID_339_" d="M54.181,316.926l-4.026-6.977l99.229-57.291l4.027,6.978L54.181,316.926z M53.682,310.895
									l1.445,2.503l94.757-54.708l-1.446-2.504L53.682,310.895z"/>
							</g>
						</g>
					</g>
				</g>
			</g>
		</g>
		<g id="XMLID_315_">
			<g id="XMLID_316_">
				<g id="XMLID_325_">
					<g id="XMLID_326_">
						<g id="XMLID_327_">
							<g id="XMLID_328_">
								
									<rect id="XMLID_332_" x="270.813" y="289.563" transform="matrix(0.866 0.5 -0.5 0.866 188.0861 -117.3326)" width="84.341" height="5.473"/>
								<path id="XMLID_329_" d="M348.609,317.519l-75.278-43.463l4.027-6.977l75.277,43.463L348.609,317.519z M276.859,273.111
									l70.804,40.88l1.445-2.503l-70.804-40.88L276.859,273.111z"/>
							</g>
						</g>
					</g>
				</g>
				<g id="XMLID_317_">
					<g id="XMLID_318_">
						<g id="XMLID_319_">
							<g id="XMLID_320_">
								<rect id="XMLID_324_" x="198.145" y="82.554" width="5.472" height="79.462"/>
								<path id="XMLID_321_" d="M204.908,163.308h-8.055V81.263h8.055V163.308z M199.436,160.725h2.89v-76.88h-2.89V160.725z"/>
							</g>
						</g>
					</g>
				</g>
			</g>
		</g>
	</g>
	<g id="XMLID_302_">
		<g id="XMLID_303_">
			<g id="XMLID_304_">
				<g id="XMLID_305_">
					<path id="XMLID_311_" d="M200.54,85.292c-12.825,0-23.258-10.433-23.258-23.258c0-12.824,10.433-23.257,23.258-23.257
						s23.258,10.433,23.258,23.257C223.798,74.859,213.365,85.292,200.54,85.292z M200.54,44.249
						c-9.808,0-17.786,7.979-17.786,17.785c0,9.808,7.979,17.786,17.786,17.786c9.807,0,17.785-7.979,17.785-17.786
						C218.325,52.228,210.347,44.249,200.54,44.249z"/>
					<path id="XMLID_306_" d="M200.54,86.584c-13.537,0-24.55-11.013-24.55-24.549c0-13.536,11.013-24.549,24.55-24.549
						c13.536,0,24.549,11.013,24.549,24.549C225.089,75.571,214.076,86.584,200.54,86.584z M200.54,40.068
						c-12.112,0-21.967,9.854-21.967,21.966c0,12.112,9.855,21.967,21.967,21.967s21.967-9.854,21.967-21.967
						C222.507,49.922,212.653,40.068,200.54,40.068z M200.54,81.112c-10.519,0-19.077-8.558-19.077-19.077
						c0-10.519,8.558-19.077,19.077-19.077c10.519,0,19.076,8.558,19.076,19.077C219.616,72.554,211.059,81.112,200.54,81.112z
						 M200.54,45.54c-9.095,0-16.495,7.399-16.495,16.494c0,9.095,7.4,16.495,16.495,16.495c9.094,0,16.494-7.399,16.494-16.495
						C217.034,52.939,209.635,45.54,200.54,45.54z"/>
				</g>
			</g>
		</g>
	</g>
	<g id="XMLID_290_">
		<g id="XMLID_291_">
			<g id="XMLID_292_">
				<g id="XMLID_293_">
					<path id="XMLID_299_" d="M35.682,346.603c-12.825,0-23.258-10.433-23.258-23.258c0-12.826,10.433-23.258,23.258-23.258
						c12.826,0,23.258,10.433,23.258,23.258C58.94,336.17,48.507,346.603,35.682,346.603z M35.682,305.559
						c-9.807,0-17.785,7.979-17.785,17.786c0,9.806,7.979,17.785,17.785,17.785c9.807,0,17.786-7.979,17.786-17.785
						C53.468,313.539,45.489,305.559,35.682,305.559z"/>
					<path id="XMLID_294_" d="M35.682,347.895c-13.537,0-24.55-11.013-24.55-24.55c0-13.536,11.013-24.549,24.55-24.549
						c13.536,0,24.549,11.013,24.549,24.549C60.231,336.882,49.218,347.895,35.682,347.895z M35.682,301.379
						c-12.112,0-21.967,9.854-21.967,21.967s9.855,21.967,21.967,21.967s21.967-9.855,21.967-21.967S47.794,301.379,35.682,301.379z
						 M35.682,342.422c-10.519,0-19.077-8.558-19.077-19.077c0-10.519,8.558-19.077,19.077-19.077
						c10.519,0,19.077,8.558,19.077,19.077C54.759,333.864,46.201,342.422,35.682,342.422z M35.682,306.85
						c-9.095,0-16.494,7.4-16.494,16.495s7.399,16.494,16.494,16.494s16.495-7.399,16.495-16.494S44.777,306.85,35.682,306.85z"/>
				</g>
			</g>
		</g>
	</g>
	<g id="XMLID_278_">
		<g id="XMLID_279_">
			<g id="XMLID_280_">
				<g id="XMLID_281_">
					<path id="XMLID_287_" d="M367.451,346.603c-12.826,0-23.258-10.433-23.258-23.258c0-12.826,10.433-23.258,23.258-23.258
						c12.824,0,23.258,10.433,23.258,23.258C390.709,336.17,380.275,346.603,367.451,346.603z M367.451,305.559
						c-9.808,0-17.786,7.979-17.786,17.786c0,9.806,7.978,17.785,17.786,17.785c9.807,0,17.784-7.979,17.784-17.785
						C385.235,313.539,377.257,305.559,367.451,305.559z"/>
					<path id="XMLID_282_" d="M367.45,347.895c-13.536,0-24.549-11.013-24.549-24.55c0-13.536,11.013-24.549,24.549-24.549
						c13.537,0,24.55,11.013,24.55,24.549C392,336.882,380.987,347.895,367.45,347.895z M367.45,301.379
						c-12.112,0-21.967,9.854-21.967,21.967s9.854,21.967,21.967,21.967s21.967-9.855,21.967-21.967S379.563,301.379,367.45,301.379
						z M367.45,342.422c-10.519,0-19.077-8.558-19.077-19.077c0-10.519,8.558-19.077,19.077-19.077
						c10.519,0,19.076,8.558,19.076,19.077C386.526,333.864,377.969,342.422,367.45,342.422z M367.45,306.85
						c-9.095,0-16.495,7.4-16.495,16.495s7.4,16.494,16.495,16.494c9.094,0,16.494-7.399,16.494-16.494
						S376.545,306.85,367.45,306.85z"/>
				</g>
			</g>
		</g>
	</g>
	<g id="XMLID_231_">
		<g id="XMLID_232_">
			<g id="XMLID_266_">
				<g id="XMLID_267_">
					<g id="XMLID_268_">
						<g id="XMLID_269_">
							<path id="XMLID_275_" d="M279.2,318.021H172.149v-94.816H279.2V318.021z M177.621,312.548h96.107v-83.871h-96.107V312.548z"
								/>
							<path id="XMLID_270_" d="M280.491,319.312H170.858v-97.398h109.633V319.312z M173.44,316.73h104.468v-92.234H173.44V316.73z
								 M275.019,313.84h-98.69v-86.454h98.69V313.84z M178.912,311.257h93.525v-81.289h-93.525V311.257z"/>
						</g>
					</g>
				</g>
			</g>
			<g id="XMLID_258_">
				<g id="XMLID_259_">
					<g id="XMLID_260_">
						<g id="XMLID_261_">
							<rect id="XMLID_265_" x="186.948" y="244.831" width="89.515" height="5.473"/>
							<path id="XMLID_262_" d="M277.754,251.595h-92.097v-8.055h92.097V251.595z M188.239,249.012h86.933v-2.891h-86.933V249.012z"
								/>
						</g>
					</g>
				</g>
			</g>
			<g id="XMLID_233_">
				<g id="XMLID_250_">
					<g id="XMLID_251_">
						<g id="XMLID_252_">
							<g id="XMLID_253_">
								<circle id="XMLID_257_" cx="249.064" cy="236.866" r="3.423"/>
								<path id="XMLID_254_" d="M249.064,241.58c-2.599,0-4.714-2.115-4.714-4.714c0-2.599,2.115-4.713,4.714-4.713
									s4.714,2.115,4.714,4.713C253.778,239.466,251.663,241.58,249.064,241.58z M249.064,234.736
									c-1.175,0-2.132,0.956-2.132,2.131c0,1.175,0.956,2.132,2.132,2.132s2.132-0.956,2.132-2.132
									C251.196,235.691,250.239,234.736,249.064,234.736z"/>
							</g>
						</g>
					</g>
				</g>
				<g id="XMLID_242_">
					<g id="XMLID_243_">
						<g id="XMLID_244_">
							<g id="XMLID_245_">
								<circle id="XMLID_249_" cx="264.536" cy="236.866" r="3.422"/>
								<path id="XMLID_246_" d="M264.537,241.58c-2.599,0-4.715-2.115-4.715-4.714c0-2.599,2.115-4.713,4.715-4.713
									c2.599,0,4.713,2.115,4.713,4.713C269.249,239.466,267.136,241.58,264.537,241.58z M264.537,234.736
									c-1.176,0-2.132,0.956-2.132,2.131c0,1.175,0.956,2.132,2.132,2.132c1.175,0,2.13-0.956,2.13-2.132
									C266.667,235.691,265.711,234.736,264.537,234.736z"/>
							</g>
						</g>
					</g>
				</g>
				<g id="XMLID_234_">
					<g id="XMLID_235_">
						<g id="XMLID_236_">
							<g id="XMLID_237_">
								<circle id="XMLID_241_" cx="233.592" cy="236.866" r="3.422"/>
								<path id="XMLID_238_" d="M233.592,241.58c-2.599,0-4.714-2.115-4.714-4.714c0-2.599,2.115-4.713,4.714-4.713
									c2.599,0,4.713,2.115,4.713,4.713C238.305,239.466,236.191,241.58,233.592,241.58z M233.592,234.736
									c-1.175,0-2.132,0.956-2.132,2.131c0,1.175,0.956,2.132,2.132,2.132c1.175,0,2.131-0.956,2.131-2.132
									C235.723,235.691,234.767,234.736,233.592,234.736z"/>
							</g>
						</g>
					</g>
				</g>
			</g>
		</g>
	</g>
	<g id="XMLID_219_">
		<g id="XMLID_220_">
			<g id="XMLID_221_">
				<g id="XMLID_222_">
					<path id="XMLID_228_" d="M104.544,152.786c-6.035,0-10.944-4.91-10.944-10.946s4.91-10.945,10.944-10.945
						c6.035,0,10.945,4.91,10.945,10.945S110.579,152.786,104.544,152.786z M104.544,136.369c-3.016,0-5.472,2.455-5.472,5.472
						c0,3.019,2.456,5.474,5.472,5.474c3.017,0,5.473-2.455,5.473-5.474C110.017,138.823,107.561,136.369,104.544,136.369z"/>
					<path id="XMLID_223_" d="M104.544,154.078c-6.747,0-12.235-5.489-12.235-12.237c0-6.747,5.489-12.236,12.235-12.236
						c6.747,0,12.236,5.489,12.236,12.236C116.78,148.588,111.291,154.078,104.544,154.078z M104.544,132.187
						c-5.323,0-9.653,4.331-9.653,9.654c0,5.324,4.33,9.655,9.653,9.655c5.323,0,9.654-4.331,9.654-9.655
						C114.197,136.518,109.867,132.187,104.544,132.187z M104.544,148.605c-3.729,0-6.763-3.035-6.763-6.765
						c0-3.729,3.034-6.763,6.763-6.763c3.73,0,6.764,3.034,6.764,6.763C111.308,145.571,108.273,148.605,104.544,148.605z
						 M104.544,137.66c-2.305,0-4.181,1.876-4.181,4.181c0,2.306,1.876,4.182,4.181,4.182c2.306,0,4.182-1.876,4.182-4.182
						C108.725,139.535,106.849,137.66,104.544,137.66z"/>
				</g>
			</g>
		</g>
	</g>
	<g id="XMLID_207_">
		<g id="XMLID_208_">
			<g id="XMLID_209_">
				<g id="XMLID_210_">
					<path id="XMLID_216_" d="M128.713,340.219c-6.034,0-10.944-4.911-10.944-10.945c0-6.035,4.91-10.945,10.944-10.945
						c6.035,0,10.945,4.91,10.945,10.945C139.658,335.307,134.748,340.219,128.713,340.219z M128.713,323.801
						c-3.016,0-5.472,2.454-5.472,5.473c0,3.017,2.456,5.472,5.472,5.472c3.018,0,5.473-2.455,5.473-5.472
						C134.186,326.255,131.731,323.801,128.713,323.801z"/>
					<path id="XMLID_211_" d="M128.713,341.509c-6.747,0-12.235-5.489-12.235-12.236c0-6.747,5.489-12.236,12.235-12.236
						c6.747,0,12.236,5.489,12.236,12.236C140.949,336.021,135.46,341.509,128.713,341.509z M128.713,319.62
						c-5.323,0-9.653,4.331-9.653,9.654s4.33,9.654,9.653,9.654s9.654-4.331,9.654-9.654S134.036,319.62,128.713,319.62z
						 M128.713,336.037c-3.729,0-6.763-3.034-6.763-6.764c0-3.73,3.034-6.764,6.763-6.764c3.73,0,6.764,3.034,6.764,6.764
						C135.477,333.003,132.443,336.037,128.713,336.037z M128.713,325.092c-2.305,0-4.181,1.876-4.181,4.182
						s1.876,4.181,4.181,4.181c2.306,0,4.182-1.876,4.182-4.181S131.019,325.092,128.713,325.092z"/>
				</g>
			</g>
		</g>
	</g>
	<g id="XMLID_195_">
		<g id="XMLID_196_">
			<g id="XMLID_197_">
				<g id="XMLID_198_">
					<path id="XMLID_204_" d="M286.047,186.533c-6.034,0-10.945-4.91-10.945-10.945c0-6.035,4.911-10.944,10.945-10.944
						c6.035,0,10.945,4.91,10.945,10.944C296.992,181.623,292.082,186.533,286.047,186.533z M286.047,170.116
						c-3.017,0-5.472,2.454-5.472,5.472s2.455,5.473,5.472,5.473c3.018,0,5.473-2.455,5.473-5.473S289.065,170.116,286.047,170.116z
						"/>
					<path id="XMLID_199_" d="M286.047,187.824c-6.747,0-12.236-5.489-12.236-12.236c0-6.747,5.489-12.235,12.236-12.235
						s12.236,5.489,12.236,12.235C298.283,182.335,292.794,187.824,286.047,187.824z M286.047,165.935
						c-5.323,0-9.654,4.33-9.654,9.653c0,5.323,4.331,9.654,9.654,9.654s9.654-4.331,9.654-9.654
						C295.701,170.266,291.37,165.935,286.047,165.935z M286.047,182.353c-3.729,0-6.763-3.034-6.763-6.764
						c0-3.729,3.034-6.763,6.763-6.763c3.73,0,6.764,3.034,6.764,6.763C292.811,179.318,289.777,182.353,286.047,182.353z
						 M286.047,171.407c-2.305,0-4.181,1.876-4.181,4.181c0,2.306,1.876,4.182,4.181,4.182c2.306,0,4.182-1.876,4.182-4.182
						C290.229,173.283,288.353,171.407,286.047,171.407z"/>
				</g>
			</g>
		</g>
	</g>
	<g id="XMLID_187_">
		<g id="XMLID_188_">
			<g id="XMLID_189_">
				<g id="XMLID_190_">
					
						<rect id="XMLID_194_" x="111.284" y="164.511" transform="matrix(0.7363 0.6766 -0.6766 0.7363 148.0184 -45.3447)" width="41.812" height="5.472"/>
					<path id="XMLID_191_" d="M145.809,185.232l-32.689-30.039l5.45-5.931l32.688,30.039L145.809,185.232z M116.769,155.039
						l28.886,26.544l1.954-2.128l-28.885-26.544L116.769,155.039z"/>
				</g>
			</g>
		</g>
	</g>
	<g id="XMLID_179_">
		<g id="XMLID_180_">
			<g id="XMLID_181_">
				<g id="XMLID_182_">
					
						<rect id="XMLID_186_" x="268.995" y="176.864" transform="matrix(0.6199 0.7847 -0.7847 0.6199 249.952 -142.1836)" width="5.472" height="20.068"/>
					<path id="XMLID_183_" d="M265.341,197.078l-4.992-6.32l17.773-14.041l4.992,6.32L265.341,197.078z M263.976,191.183
						l1.792,2.268l13.72-10.839l-1.792-2.268L263.976,191.183z"/>
				</g>
			</g>
		</g>
	</g>
	<g id="XMLID_171_">
		<g id="XMLID_172_">
			<g id="XMLID_173_">
				<g id="XMLID_174_">
					
						<rect id="XMLID_178_" x="138.996" y="298.562" transform="matrix(0.7987 0.6017 -0.6017 0.7987 216.2679 -22.4801)" width="5.473" height="26.857"/>
					<path id="XMLID_175_" d="M136.094,326.172l-6.434-4.847l17.712-23.516l6.435,4.846L136.094,326.172z M133.276,320.816
						l2.309,1.74l14.605-19.391l-2.309-1.739L133.276,320.816z"/>
				</g>
			</g>
		</g>
	</g>
	<g id="XMLID_163_">
		<g id="XMLID_164_">
			<g id="XMLID_165_">
				<g id="XMLID_166_">
					
						<rect id="XMLID_170_" x="162.594" y="264.78" transform="matrix(0.7989 0.6015 -0.6015 0.7989 202.0645 -42.9982)" width="5.473" height="31.763"/>
					<path id="XMLID_167_" d="M158.216,296.801l-6.435-4.846l20.664-27.434l6.434,4.846L158.216,296.801z M155.397,291.446
						l2.309,1.739l17.556-23.308l-2.308-1.739L155.397,291.446z"/>
				</g>
			</g>
		</g>
	</g>
	<g id="XMLID_138_">
		<g id="XMLID_155_">
			<g id="XMLID_156_">
				<g id="XMLID_157_">
					<g id="XMLID_158_">
						
							<rect id="XMLID_162_" x="73.874" y="113.528" transform="matrix(0.7071 0.7071 -0.7071 0.7071 105.5884 -22.3837)" width="11.88" height="5.472"/>
						<path id="XMLID_159_" d="M82.079,124.225l-10.226-10.226l5.696-5.695l10.225,10.225L82.079,124.225z M75.504,113.999
							l6.574,6.574l2.043-2.044l-6.574-6.574L75.504,113.999z"/>
					</g>
				</g>
			</g>
		</g>
		<g id="XMLID_147_">
			<g id="XMLID_148_">
				<g id="XMLID_149_">
					<g id="XMLID_150_">
						
							<rect id="XMLID_154_" x="99.08" y="111.913" transform="matrix(0.707 0.7072 -0.7072 0.707 112.5137 -37.7484)" width="5.472" height="10.018"/>
						<path id="XMLID_151_" d="M100.209,124.225l-5.695-5.697l8.91-8.909l5.696,5.695L100.209,124.225z M98.166,118.53l2.043,2.044
							l5.259-5.258l-2.044-2.043L98.166,118.53z"/>
					</g>
				</g>
			</g>
		</g>
		<g id="XMLID_139_">
			<g id="XMLID_140_">
				<g id="XMLID_141_">
					<g id="XMLID_142_">
						
							<rect id="XMLID_146_" x="77.735" y="133.258" transform="matrix(0.7072 0.707 -0.707 0.7072 121.3084 -16.4123)" width="5.472" height="10.02"/>
						<path id="XMLID_143_" d="M78.864,145.57l-5.696-5.694l8.912-8.911l5.695,5.694L78.864,145.57z M76.82,139.876l2.043,2.043
							l5.259-5.259l-2.043-2.042L76.82,139.876z"/>
					</g>
				</g>
			</g>
		</g>
	</g>
	<g id="XMLID_121_">
		<g id="XMLID_130_">
			<g id="XMLID_131_">
				<g id="XMLID_132_">
					<g id="XMLID_133_">
						<rect id="XMLID_137_" x="290.175" y="321.158" width="5.473" height="6.39"/>
						<path id="XMLID_134_" d="M296.939,328.839h-8.055v-8.972h8.055V328.839z M291.466,326.257h2.891v-3.807h-2.891V326.257z"/>
					</g>
				</g>
			</g>
		</g>
		<g id="XMLID_122_">
			<g id="XMLID_123_">
				<g id="XMLID_124_">
					<g id="XMLID_125_">
						<rect id="XMLID_129_" x="290.175" y="298.258" width="5.473" height="6.389"/>
						<path id="XMLID_126_" d="M296.939,305.938h-8.055v-8.971h8.055V305.938z M291.466,303.355h2.891v-3.806h-2.891V303.355z"/>
					</g>
				</g>
			</g>
		</g>
	</g>
</g>
<g id="XMLID_94_">
	<g id="XMLID_103_">
		<g id="XMLID_112_">
			<g id="XMLID_113_">
				<g id="XMLID_114_">
					<g id="XMLID_115_">
						<polygon id="XMLID_119_" points="204.19,303.106 181.783,287.391 204.19,271.677 207.333,276.158 191.314,287.391 
							207.333,298.625 						"/>
						<path id="XMLID_116_" d="M204.506,304.905l-24.971-17.514l24.971-17.512l4.625,6.596l-15.569,10.916l15.569,10.919
							L204.506,304.905z M184.032,287.391l19.842,13.917l1.659-2.366l-16.469-11.551l16.469-11.548l-1.659-2.367L184.032,287.391z"
							/>
					</g>
				</g>
			</g>
		</g>
		<g id="XMLID_104_">
			<g id="XMLID_105_">
				<g id="XMLID_106_">
					<g id="XMLID_107_">
						<polygon id="XMLID_111_" points="247.279,303.106 244.137,298.625 260.156,287.391 244.137,276.158 247.279,271.677 
							269.687,287.391 						"/>
						<path id="XMLID_108_" d="M246.963,304.905l-4.624-6.595l15.568-10.919l-15.568-10.916l4.624-6.596l24.973,17.512
							L246.963,304.905z M245.936,298.941l1.659,2.366l19.843-13.917l-19.843-13.915l-1.659,2.367l16.47,11.548L245.936,298.941z"/>
					</g>
				</g>
			</g>
		</g>
	</g>
	<g id="XMLID_95_">
		<g id="XMLID_96_">
			<g id="XMLID_97_">
				<g id="XMLID_98_">
					
						<rect id="XMLID_102_" x="222.999" y="272.07" transform="matrix(0.8997 0.4365 -0.4365 0.8997 148.1049 -69.7131)" width="5.473" height="30.644"/>
					<path id="XMLID_99_" d="M222.105,304.097l-7.247-3.517l14.508-29.891l7.247,3.516L222.105,304.097z M218.309,299.384
						l2.601,1.262l12.252-25.246l-2.6-1.262L218.309,299.384z"/>
				</g>
			</g>
		</g>
	</g>
</g>
</svg>
