<?xml version="1.0" encoding="utf-8"?>
<!-- Generator: Adobe Illustrator 19.0.0, SVG Export Plug-In . SVG Version: 6.00 Build 0)  -->
<svg version="1.1" id="Layer_1" xmlns="http://www.w3.org/2000/svg" xmlns:xlink="http://www.w3.org/1999/xlink" x="0px" y="0px"
	 width="400px" height="400px" viewBox="0 0 400 400" style="enable-background:new 0 0 400 400;" xml:space="preserve">
<style type="text/css">
	.st0{fill:#7DDDC2;}
</style>
<g id="XMLID_41_">
	<g id="XMLID_105_">
		<g id="XMLID_106_">
			<g id="XMLID_120_">
				<g id="XMLID_121_">
					<g id="XMLID_122_">
						<g id="XMLID_123_">
							<g id="XMLID_124_">
								<g id="XMLID_125_">
									<path id="XMLID_126_" d="M146.135,357.655H48.458v-10.168h96.416l154.674-38.994l78.296-50.7
										c2.894-1.92,4.782-5.052,5.134-8.563c0.352-3.512-0.878-6.957-3.373-9.452c-3.935-3.935-10.152-4.548-14.783-1.463
										l-60.064,40.49H194.028v-10.168h107.624l57.51-38.768c8.672-5.781,20.284-4.632,27.634,2.719
										c4.661,4.661,6.957,11.096,6.3,17.655c-0.658,6.56-4.185,12.411-9.679,16.054l-79.753,51.644L146.135,357.655z"/>
								</g>
							</g>
						</g>
					</g>
				</g>
			</g>
			<g id="XMLID_113_">
				<g id="XMLID_114_">
					<g id="XMLID_115_">
						<g id="XMLID_116_">
							<g id="XMLID_117_">
								<g id="XMLID_118_">
									<path id="XMLID_119_" d="M260.98,277.99l-5.519-8.539l61.298-39.618c8.645-5.742,20.237-4.587,27.58,2.755
										c3.216,3.217,5.322,7.269,6.091,11.721l-10.02,1.731c-0.41-2.373-1.538-4.539-3.261-6.263
										c-3.934-3.933-10.152-4.55-14.781-1.462l-0.06,0.039L260.98,277.99z"/>
								</g>
							</g>
						</g>
					</g>
				</g>
			</g>
			<g id="XMLID_111_">
				<polygon id="XMLID_112_" points="53.542,381.916 6,381.916 6,371.749 43.375,371.749 43.375,290.935 6,290.935 6,280.768 
					53.542,280.768 				"/>
			</g>
			<g id="XMLID_109_">
				<path id="XMLID_110_" d="M80.409,290.935H60.589v-10.168h16.572l55.207-39.259c7.367-5.976,16.638-9.264,26.127-9.264h107.336
					v17.215c0,16.181-13.164,29.346-29.345,29.346h-42.458v-10.168h42.458c10.575,0,19.178-8.603,19.178-19.178v-7.047h-97.168
					c-7.207,0-14.248,2.514-19.826,7.078l-0.273,0.208L80.409,290.935z"/>
			</g>
			<g id="XMLID_107_">
				<rect id="XMLID_108_" x="6.982" y="346.506" width="10.167" height="12.131"/>
			</g>
		</g>
	</g>
	<g id="XMLID_85_">
		<g id="XMLID_88_">
			<g id="XMLID_89_">
				<g id="XMLID_100_">
					<g id="XMLID_103_">
						<rect id="XMLID_104_" x="176.814" y="79.627" width="10.167" height="24.261"/>
					</g>
					<g id="XMLID_101_">
						<rect id="XMLID_102_" x="176.814" y="55.365" width="10.167" height="12.131"/>
					</g>
				</g>
				<g id="XMLID_95_">
					<g id="XMLID_98_">
						<rect id="XMLID_99_" x="152.552" y="103.889" width="10.167" height="24.262"/>
					</g>
					<g id="XMLID_96_">
						<rect id="XMLID_97_" x="152.552" y="79.627" width="10.167" height="12.131"/>
					</g>
				</g>
				<g id="XMLID_90_">
					<g id="XMLID_93_">
						<rect id="XMLID_94_" x="201.075" y="103.889" width="10.167" height="24.262"/>
					</g>
					<g id="XMLID_91_">
						<rect id="XMLID_92_" x="201.075" y="79.627" width="10.167" height="12.131"/>
					</g>
				</g>
			</g>
		</g>
		<g id="XMLID_86_">
			<path id="XMLID_87_" class="st0" d="M190.602,132.322l-8.704,8.704l-8.704-8.704c-9.109-9.108-23.878-9.108-32.987,0.001
				l-0.001,0.001c-9.11,9.109-9.11,23.878,0,32.987l41.691,41.691l41.692-41.692c9.109-9.109,9.11-23.878,0.001-32.987l0,0
				C214.48,123.213,199.711,123.213,190.602,132.322z"/>
		</g>
	</g>
	<g id="XMLID_60_">
		<g id="XMLID_68_">
			<g id="XMLID_69_">
				<g id="XMLID_80_">
					<g id="XMLID_83_">
						<rect id="XMLID_84_" x="316.319" y="35.262" width="10.167" height="24.261"/>
					</g>
					<g id="XMLID_81_">
						<rect id="XMLID_82_" x="316.319" y="11" width="10.167" height="12.131"/>
					</g>
				</g>
				<g id="XMLID_75_">
					<g id="XMLID_78_">
						<rect id="XMLID_79_" x="292.057" y="59.523" width="10.167" height="24.262"/>
					</g>
					<g id="XMLID_76_">
						<rect id="XMLID_77_" x="292.057" y="35.262" width="10.167" height="12.131"/>
					</g>
				</g>
				<g id="XMLID_70_">
					<g id="XMLID_73_">
						<rect id="XMLID_74_" x="340.581" y="59.523" width="10.167" height="24.262"/>
					</g>
					<g id="XMLID_71_">
						<rect id="XMLID_72_" x="340.581" y="35.262" width="10.167" height="12.131"/>
					</g>
				</g>
			</g>
		</g>
		<g id="XMLID_61_">
			<g id="XMLID_62_">
				<path id="XMLID_63_" class="st0" d="M321.402,73.562c-26.799,0-48.523,21.725-48.523,48.523
					c0,26.799,21.725,48.523,48.523,48.523c26.799,0,48.523-21.725,48.523-48.523C369.926,95.286,348.201,73.562,321.402,73.562z
					 M328.45,103.889h10.167v12.131H328.45V103.889z M304.188,103.889h10.167v12.131h-10.167V103.889z M321.402,151.431
					c-16.181,0-29.345-13.164-29.345-29.346h10.168c0,10.575,8.603,19.178,19.177,19.178s19.178-8.603,19.178-19.178h10.168
					C350.748,138.266,337.583,151.431,321.402,151.431z"/>
			</g>
		</g>
	</g>
	<g id="XMLID_51_">
		<g id="XMLID_58_">
			<rect id="XMLID_59_" x="212.224" y="38.151" width="12.131" height="10.168"/>
		</g>
		<g id="XMLID_56_">
			<rect id="XMLID_57_" x="236.487" y="38.151" width="12.13" height="10.168"/>
		</g>
		<g id="XMLID_54_">
			<rect id="XMLID_55_" x="225.337" y="49.3" width="10.167" height="12.131"/>
		</g>
		<g id="XMLID_52_">
			<rect id="XMLID_53_" x="225.337" y="25.038" width="10.167" height="12.131"/>
		</g>
	</g>
	<g id="XMLID_42_">
		<g id="XMLID_49_">
			<rect id="XMLID_50_" x="248.617" y="189.786" width="12.131" height="10.168"/>
		</g>
		<g id="XMLID_47_">
			<rect id="XMLID_48_" x="272.879" y="189.786" width="12.13" height="10.168"/>
		</g>
		<g id="XMLID_45_">
			<rect id="XMLID_46_" x="261.73" y="200.936" width="10.167" height="12.131"/>
		</g>
		<g id="XMLID_43_">
			<rect id="XMLID_44_" x="261.73" y="176.674" width="10.167" height="12.131"/>
		</g>
	</g>
</g>
</svg>
