<?xml version="1.0" encoding="utf-8"?>
<!-- Generator: Adobe Illustrator 22.0.1, SVG Export Plug-In . SVG Version: 6.00 Build 0)  -->
<svg version="1.1" id="Capa_1" xmlns="http://www.w3.org/2000/svg" xmlns:xlink="http://www.w3.org/1999/xlink" x="0px" y="0px"
	 width="400px" height="400px" viewBox="0 0 400 400" enable-background="new 0 0 400 400" xml:space="preserve">
<polygon fill="#00DFC3" points="49.333,101.333 285.333,102 239.333,155.333 234.667,190 19.333,194 4.667,157.333 "/>
<g>
	<g>
		<path d="M393.463,76.805l-21.996-7.33V36.667H358.2v28.384l-64.237-21.412v0.08c-0.672-0.253-1.379-0.394-2.096-0.418h-238.8
			c-3.663,0-6.633,2.97-6.633,6.633v50.573L1.638,151.695c-1.037,1.218-1.596,2.772-1.572,4.371H0v16.583
			c0.013,16.486,13.389,29.839,29.874,29.826c5.895-0.005,11.657-1.755,16.559-5.031v150.988c0,3.663,2.97,6.633,6.633,6.633h338.3
			c3.663,0,6.633-2.97,6.633-6.633V83.1C398.001,80.244,396.173,77.708,393.463,76.805z M46.433,172.65
			c0,9.159-7.424,16.583-16.583,16.583s-16.583-7.424-16.583-16.583v-9.95h33.167V172.65z M50.082,149.433H21.227l34.852-39.8
			h28.828L50.082,149.433z M206.96,149.433l34.825-39.8h34.042l-39.747,39.8H206.96z M232.167,162.7v9.95
			c0,9.159-7.424,16.583-16.583,16.583c-9.159,0-16.583-7.424-16.583-16.583v-9.95H232.167z M189.382,149.433h-28.855l34.825-39.8
			h28.855L189.382,149.433z M185.733,162.7v9.95c0,9.159-7.424,16.583-16.583,16.583c-9.159,0-16.583-7.424-16.583-16.583v-9.95
			H185.733z M142.948,149.433h-28.855l34.825-39.8h28.855L142.948,149.433z M139.3,162.7v9.95c0,9.159-7.424,16.583-16.583,16.583
			s-16.583-7.424-16.583-16.583v-9.95H139.3z M96.515,149.433H67.66l34.825-39.8h28.855L96.515,149.433z M92.867,162.7v9.95
			c0,9.159-7.424,16.583-16.583,16.583S59.7,181.809,59.7,172.65v-9.95H92.867z M258.7,341.8h-53.067V235.667H258.7V341.8z
			 M285.233,341.8h-13.267V229.033c0-3.663-2.97-6.633-6.633-6.633H199c-3.663,0-6.633,2.97-6.633,6.633V341.8H59.7V197.445
			c12.856,8.671,30.227,5.938,39.8-6.262c10.026,12.822,28.549,15.088,41.371,5.062c1.887-1.475,3.587-3.176,5.062-5.062
			c10.026,12.822,28.549,15.088,41.371,5.062c1.887-1.475,3.587-3.176,5.062-5.062c10.163,12.892,28.853,15.104,41.744,4.941
			c7.186-5.665,11.363-14.325,11.322-23.475v-9.95h39.8V341.8z M285.233,149.433h-30.42l30.42-30.42V149.433z M285.233,96.367H59.7
			v-39.8h225.533V96.367z M384.733,341.8H298.5V59.14l59.7,19.9V103h-13.267v13.267h19.9c3.663,0,6.633-2.97,6.633-6.633V83.458
			l13.267,4.424V341.8z"/>
	</g>
</g>
<g>
	<g>
		<path d="M172.467,222.4H79.6c-3.663,0-6.633,2.97-6.633,6.633V302c0,3.663,2.97,6.633,6.633,6.633h92.867
			c3.663,0,6.633-2.97,6.633-6.633v-72.967C179.1,225.37,176.13,222.4,172.467,222.4z M86.233,235.667h23.787l-23.787,23.787
			V235.667z M86.233,295.367v-17.154l42.546-42.546h21.041l-59.7,59.7H86.233z M165.833,295.367h-23.787l23.787-23.787V295.367z
			 M165.833,252.82l-42.546,42.546H108.88l56.954-56.954V252.82z"/>
	</g>
</g>
<g>
	<g>
		<rect x="212.267" y="275.467" width="13.267" height="19.9"/>
	</g>
</g>
</svg>
