<?xml version="1.0" encoding="utf-8"?>
<!-- Generator: Adobe Illustrator 22.0.1, SVG Export Plug-In . SVG Version: 6.00 Build 0)  -->
<svg version="1.1" id="Capa_1" xmlns="http://www.w3.org/2000/svg" xmlns:xlink="http://www.w3.org/1999/xlink" x="0px" y="0px"
	 width="400px" height="400px" viewBox="0 0 400 400" enable-background="new 0 0 400 400" xml:space="preserve">
<path fill="#00DFC3" d="M227.193,191.559h-10.297v-19.534c8.402-5.208,16.462-13.428,18.901-22.732
	c1.206-3.473,1.867-7.18,1.867-11.035c0-19.472-16.639-35.258-37.164-35.258s-37.164,15.785-37.164,35.258
	c0,4.167,0.767,8.164,2.167,11.875c-0.023,0.002-0.048,0.004-0.071,0.006c3.835,9.975,11.336,18.085,20.859,23.038v18.383h-12.483
	c-13.148,0-23.807,10.112-23.807,22.586V260h101v-45.856C251,201.671,240.341,191.559,227.193,191.559z"/>
<path fill="#00DFC3" d="M122.193,231.559h-10.297v-19.534c8.402-5.208,16.462-13.428,18.901-22.732
	c1.206-3.473,1.867-7.18,1.867-11.035c0-19.472-16.639-35.258-37.164-35.258s-37.164,15.785-37.164,35.258
	c0,4.167,0.767,8.164,2.167,11.875c-0.023,0.002-0.048,0.004-0.071,0.006c3.835,9.975,11.336,18.085,20.859,23.038v18.383H68.807
	C55.659,231.559,45,241.671,45,254.144V300h101v-45.856C146,241.671,135.341,231.559,122.193,231.559z"/>
<path fill="#00DFC3" d="M331.76,231.302h-9.705v-19.036c7.919-5.075,15.516-13.086,17.816-22.153
	c1.136-3.384,1.76-6.997,1.76-10.754c0-18.976-15.684-34.359-35.03-34.359s-35.03,15.383-35.03,34.359
	c0,4.061,0.723,7.956,2.042,11.572c-0.022,0.002-0.045,0.004-0.067,0.006c3.615,9.721,10.685,17.625,19.661,22.451v17.915H281.44
	c-12.393,0-22.44,9.855-22.44,22.01V298h95.2v-44.687C354.2,241.157,344.153,231.302,331.76,231.302z"/>
<g>
	<g>
		<path d="M9.6,1C5.955,1,3,3.955,3,7.6v72.6h13.2v-66h66V1H9.6z"/>
	</g>
</g>
<g>
	<g>
		<path d="M392.4,1h-72.6v13.2h66v66H399V7.6C399,3.955,396.045,1,392.4,1z"/>
	</g>
</g>
<g>
	<g>
		<path d="M16.2,383.8v-66H3v72.6c0,3.645,2.955,6.6,6.6,6.6h72.6v-13.2H16.2z"/>
	</g>
</g>
<g>
	<g>
		<path d="M385.8,317.8v66h-66V397h72.6c3.645,0,6.6-2.955,6.6-6.6v-72.6H385.8z"/>
	</g>
</g>
<g>
	<g>
		<path d="M385.635,192.4C382.068,95.59,304.41,17.932,207.6,14.365V1h-13.2v13.365C97.59,17.932,19.932,95.59,16.365,192.4H3v13.2
			h13.365C19.932,302.41,97.59,380.068,194.4,383.635V397h13.2v-13.365c96.81-3.567,174.468-81.225,178.035-178.035H399v-13.2
			H385.635L385.635,192.4z M60.968,298c-4.336-6.117-8.267-12.51-11.768-19.14v-25.08c0-12.028,9.751-21.78,21.78-21.78h14.672
			l-9.577,23.945c-0.981,2.453-0.404,5.254,1.465,7.121l13.2,13.2c2.577,2.576,6.755,2.576,9.332,0l13.2-13.2
			c1.869-1.867,2.446-4.669,1.465-7.121L105.148,232h14.672c12.029,0,21.78,9.752,21.78,21.78V298H60.968z M104.501,175.2
			l23.588,14.157c-2.647,16.157-22.559,29.443-32.69,29.443c-14.72-2.507-26.966-12.715-32.083-26.743
			C74.617,191.126,95.017,187.701,104.501,175.2z M62.764,178.817C64.534,156.699,74.942,146.2,95.4,146.2
			c18.731,0,29.04,8.857,31.99,27.337l-21.991-13.2c-3.126-1.875-7.18-0.861-9.055,2.265c-0.248,0.413-0.449,0.85-0.601,1.306
			C92.404,173.92,74.373,177.715,62.764,178.817z M100.852,256.809l-5.452,5.458l-5.452-5.458l5.452-13.642L100.852,256.809z
			 M207.6,370.435V357.4h-13.2v13.035c-47.464-1.821-92.038-23.275-123.07-59.235h76.87c3.645,0,6.6-2.955,6.6-6.6v-33h92.4v33
			c0,3.645,2.955,6.6,6.6,6.6h76.87C299.638,347.16,255.064,368.614,207.6,370.435z M210.101,135.6l23.588,14.157
			C231.043,165.914,211.131,179.2,201,179.2c-14.72-2.507-26.966-12.715-32.083-26.743
			C180.217,151.526,200.617,148.101,210.101,135.6z M168.364,139.217c1.77-22.118,12.179-32.617,32.636-32.617
			c18.731,0,29.04,8.857,31.99,27.337l-21.991-13.2c-3.126-1.875-7.18-0.861-9.055,2.265c-0.248,0.412-0.449,0.85-0.601,1.306
			C198.004,134.32,179.973,138.115,168.364,139.217z M206.452,217.209L201,222.668l-5.452-5.458L201,203.567L206.452,217.209z
			 M191.252,192.4l-9.577,23.945c-0.981,2.453-0.404,5.254,1.465,7.121l13.2,13.2c2.577,2.576,6.755,2.576,9.332,0l13.2-13.2
			c1.869-1.867,2.446-4.669,1.465-7.121l-9.59-23.945h14.672c12.028,0,21.78,9.752,21.78,21.78v44.22h-92.4v-44.22
			c0-12.029,9.752-21.78,21.78-21.78H191.252z M352.8,278.86c-3.501,6.63-7.432,13.023-11.768,19.14H260.4v-44.22
			c0-12.028,9.752-21.78,21.78-21.78h14.672l-9.577,23.945c-0.981,2.453-0.404,5.254,1.465,7.121l13.2,13.2
			c2.577,2.576,6.755,2.576,9.332,0l13.2-13.2c1.869-1.867,2.446-4.669,1.465-7.121L316.348,232h14.672
			c12.028,0,21.78,9.752,21.78,21.78V278.86z M315.701,175.2l23.588,14.157c-2.647,16.157-22.559,29.443-32.69,29.443
			c-14.72-2.507-26.966-12.715-32.083-26.743C285.817,191.126,306.217,187.701,315.701,175.2z M273.964,178.817
			c1.77-22.118,12.179-32.617,32.636-32.617c18.731,0,29.04,8.857,31.99,27.337l-21.991-13.2c-3.126-1.875-7.18-0.861-9.055,2.265
			c-0.247,0.413-0.449,0.85-0.601,1.306C303.604,173.92,285.573,177.715,273.964,178.817z M312.052,256.809l-5.452,5.458
			l-5.452-5.458l5.452-13.642L312.052,256.809z M372.435,205.6c-0.537,14.353-2.883,28.58-6.983,42.346
			c-2.509-15.215-14.75-26.953-30.056-28.822c10.301-8.106,16.637-20.237,17.404-33.323c0-43.639-25.126-52.8-46.2-52.8
			c-21.074,0-46.2,9.161-46.2,52.8c0.767,13.086,7.103,25.217,17.404,33.323c-5.371,0.662-10.514,2.564-15.022,5.557
			c-0.838,0.561-1.604,1.188-2.383,1.815V214.18c0.035-17.635-13.102-32.52-30.604-34.676c10.296-8.102,16.631-20.225,17.404-33.304
			c0-43.639-25.126-52.8-46.2-52.8s-46.2,9.161-46.2,52.8c0.767,13.086,7.103,25.217,17.404,33.323
			c-17.495,2.156-30.63,17.029-30.604,34.657v12.289c-0.779-0.62-1.544-1.254-2.383-1.815c-4.508-2.993-9.651-4.896-15.022-5.557
			c10.294-8.101,16.63-20.22,17.404-33.297c0-43.639-25.126-52.8-46.2-52.8s-46.2,9.161-46.2,52.8
			c0.767,13.086,7.103,25.217,17.404,33.323c-15.306,1.869-27.548,13.608-30.056,28.822c-4.099-13.765-6.446-27.993-6.983-42.346
			H42.6v-13.2H29.565c3.547-89.525,75.31-161.287,164.835-164.835V40.6h13.2V27.565c89.525,3.547,161.288,75.31,164.835,164.835
			H359.4v13.2H372.435z"/>
	</g>
</g>
</svg>
