<?xml version="1.0" encoding="UTF-8"?>
<svg width="89px" height="107px" viewBox="0 0 89 107" version="1.1" xmlns="http://www.w3.org/2000/svg" xmlns:xlink="http://www.w3.org/1999/xlink">
    <!-- Generator: Sketch 50.2 (55047) - http://www.bohemiancoding.com/sketch -->
    <title>icono peolple</title>
    <desc>Created with Sketch.</desc>
    <defs></defs>
    <g id="Page-1" stroke="none" stroke-width="1" fill="none" fill-rule="evenodd">
        <g id="AN_nosotros_desktop" transform="translate(-262.000000, -2440.000000)" stroke="#00DFC3" stroke-width="2">
            <g id="PRINCIPIOS" transform="translate(163.000000, 2310.000000)">
                <g id="people" transform="translate(100.000000, 117.000000)">
                    <g id="icono-peolple" transform="translate(0.000000, 14.000000)">
                        <path d="M58.8245408,80.3326403 L58.8245408,39.6708763 L75.0108978,24.1561947 C78.617139,20.1112955 78.8180958,14.027324 75.4501476,9.77962578 L56.5338528,27.1627183 C55.0744452,28.7130783 51.92722,29.4744059 49.8089376,29.4744059 L44.8113724,29.4744059 C42.7161506,29.4744059 39.6633642,28.6831571 38.2072509,27.1627183 L18.7506788,9.89376951 C15.3827305,14.1414677 15.6484767,20.1689215 19.254718,24.2127124 L35.9165629,39.6708763 L35.9165629,80.3326403" id="Stroke-1"></path>
                        <path d="M47.1153846,56.5821206 L47.1153846,80.3326403" id="Stroke-3"></path>
                        <polyline id="Stroke-5" points="0.465696466 103.384615 13.3887734 80.3326403 78.5324094 80.3326403 86.4739999 80.3326403 75.0710646 104.66103"></polyline>
                        <path d="M47.8139293,20.956341 C53.27346,20.956341 56.8950104,16.935921 56.8950104,11.9761716 L56.8950104,8.98128898 C56.8950104,4.02153952 53.27346,0 47.8139293,0 C42.3543986,0 38.7328482,4.02153952 38.7328482,8.98128898 L38.7328482,11.9761716 C38.7328482,16.935921 42.3543986,20.956341 47.8139293,20.956341 Z" id="Stroke-11"></path>
                    </g>
                </g>
            </g>
        </g>
    </g>
</svg>