<?xml version="1.0" encoding="utf-8"?>
<!-- Generator: Adobe Illustrator 22.0.1, SVG Export Plug-In . SVG Version: 6.00 Build 0)  -->
<svg version="1.1" id="Capa_1" xmlns="http://www.w3.org/2000/svg" xmlns:xlink="http://www.w3.org/1999/xlink" x="0px" y="0px"
	 width="400px" height="400px" viewBox="0 0 400 400" enable-background="new 0 0 400 400" xml:space="preserve">
<polygon fill="#00DFC3" points="162.667,182.667 239.333,181.333 225.333,232 170,230.667 "/>
<g>
	<g>
		<rect x="176.468" y="359.029" width="40.04" height="13.347"/>
	</g>
</g>
<g>
	<g>
		<rect x="163.121" y="18.687" width="66.734" height="13.347"/>
	</g>
</g>
<g>
	<g>
		<rect x="109.734" y="18.687" width="13.347" height="13.347"/>
	</g>
</g>
<g>
	<g>
		<path d="M338.283,194.678c-4.513-0.852-9.097-1.272-13.689-1.256c-4.415,0.016-8.818,0.437-13.156,1.256V9.244
			c0-3.633-2.945-6.578-6.578-6.578H94.372c-3.633,0-6.578,2.945-6.578,6.578V43.39c-39.267-7.415-77.11,18.407-84.524,57.674
			s18.407,77.11,57.674,84.524c8.872,1.675,17.979,1.675,26.85,0v205.167c0,3.633,2.945,6.578,6.578,6.578H304.86
			c3.633,0,6.578-2.945,6.578-6.578v-53.879c39.268,7.413,77.109-18.41,84.522-57.677S377.55,202.091,338.283,194.678z
			 M100.95,15.822h197.333v26.311H100.95C100.95,42.133,100.95,15.822,100.95,15.822z M257.162,291.975
			c6.842,17.578,20.288,31.784,37.464,39.58H100.95V181.819c27.729-10.844,45.997-37.556,46.044-67.33
			c-0.018-23.59-11.546-45.688-30.883-59.2h182.172v143.159C261.1,212.92,242.69,254.793,257.162,291.975z M74.638,173.689
			c-32.68-0.036-59.164-26.52-59.2-59.2c0-32.696,26.504-59.2,59.2-59.2s59.2,26.504,59.2,59.2S107.333,173.689,74.638,173.689z
			 M298.283,384.178H100.95v-39.467h197.333V384.178z M324.594,324.978c-32.695,0-59.2-26.505-59.2-59.2
			c0-32.696,26.505-59.2,59.2-59.2c32.696,0,59.2,26.504,59.2,59.2C383.758,298.458,357.274,324.942,324.594,324.978z"/>
	</g>
</g>
<g>
	<g>
		<path d="M229.855,238.908c3.063-0.001,5.732-2.086,6.473-5.058l13.347-53.387c0.892-3.576-1.284-7.198-4.86-8.09
			c-0.528-0.132-1.069-0.199-1.613-0.199h-78.612l-1.602-8.008c-0.634-3.107-3.368-5.34-6.54-5.339h-20.02v13.347h14.548
			l12.279,61.395c0.634,3.107,3.368,5.34,6.54,5.339v20.02c0,3.685,2.988,6.673,6.673,6.673h60.06v-13.347h-53.387v-13.347H229.855z
			 M175.267,225.561l-8.008-40.04h67.401l-10.01,40.04H175.267z"/>
	</g>
</g>
<g>
	<g>
		<circle cx="176.468" cy="285.621" r="13.347"/>
	</g>
</g>
<g>
	<g>
		<circle cx="223.181" cy="285.621" r="13.347"/>
	</g>
</g>
<g>
	<g>
		<path d="M114.452,94.049l-20.02-20.02c-1.251-1.251-2.948-1.955-4.718-1.955h-40.04c-1.77,0-3.467,0.704-4.718,1.955l-20.02,20.02
			c-2.348,2.348-2.613,6.065-0.621,8.722l40.04,53.387c2.211,2.949,6.394,3.546,9.343,1.335c0.506-0.38,0.955-0.829,1.335-1.335
			l40.04-53.387C117.065,100.114,116.8,96.397,114.452,94.049z M63.021,132.134l-20.02-26.693h20.02V132.134z M63.021,92.094H45.763
			l6.673-6.673h10.584C63.021,85.42,63.021,92.094,63.021,92.094z M76.367,85.42h10.584l6.673,6.673H76.367V85.42z M76.367,132.134
			v-26.693h20.02L76.367,132.134z"/>
	</g>
</g>
<g>
	<g>
		<path d="M349.975,225.561h-53.387c-3.685,0-6.673,2.988-6.673,6.673v66.734c0,3.685,2.988,6.673,6.673,6.673h53.387
			c3.685,0,6.673-2.988,6.673-6.673v-66.734C356.649,228.549,353.661,225.561,349.975,225.561z M343.302,292.295h-13.347v-20.02
			c0-3.685-2.988-6.673-6.673-6.673s-6.673,2.988-6.673,6.673v20.02h-13.347v-33.367h40.04V292.295z M343.302,245.581h-40.04v-6.673
			h40.04V245.581z"/>
	</g>
</g>
<g>
	<g>
		<rect x="243.202" y="72.074" width="40.04" height="13.347"/>
	</g>
</g>
<g>
	<g>
		<rect x="249.875" y="98.767" width="33.367" height="13.347"/>
	</g>
</g>
<g>
	<g>
		<rect x="249.875" y="125.461" width="33.367" height="13.347"/>
	</g>
</g>
<g>
	<g>
		<rect x="109.734" y="305.642" width="26.693" height="13.347"/>
	</g>
</g>
<g>
	<g>
		<rect x="109.734" y="278.948" width="26.693" height="13.347"/>
	</g>
</g>
<g>
	<g>
		<path d="M218.463,120.743l-15.302,15.302V98.767h-13.347v37.277l-15.302-15.302l-9.436,9.436l26.693,26.693
			c1.251,1.251,2.948,1.955,4.718,1.955s3.467-0.704,4.718-1.955l26.693-26.693L218.463,120.743z"/>
	</g>
</g>
</svg>
