<?xml version="1.0" encoding="utf-8"?>
<!-- Generator: Adobe Illustrator 22.0.1, SVG Export Plug-In . SVG Version: 6.00 Build 0)  -->
<svg version="1.1" id="Capa_1" xmlns="http://www.w3.org/2000/svg" xmlns:xlink="http://www.w3.org/1999/xlink" x="0px" y="0px"
	 width="400px" height="400px" viewBox="0 0 400 400" enable-background="new 0 0 400 400" xml:space="preserve">
<path fill="#00DFC3" d="M288,171.345l-14.602,6.154c-1.392,0.586-2.496,1.696-3.074,3.091l-7.714,18.628
	c-0.571,1.393-0.571,2.954,0,4.347l5.97,14.733l-13.271,13.277l-14.711-5.987c-1.396-0.568-2.957-0.568-4.353,0l-18.622,7.719
	c-1.394,0.576-2.504,1.679-3.091,3.068l-6.177,14.613h-18.811l-6.142-14.602c-0.586-1.391-1.696-2.496-3.091-3.074l-18.628-7.714
	c-1.394-0.572-2.959-0.572-4.353,0l-14.711,5.982l-13.3-13.282l5.987-14.711c0.576-1.394,0.576-2.959,0-4.353l-7.719-18.622
	c-0.576-1.394-1.679-2.504-3.068-3.091l-14.602-6.154v-18.811l14.596-6.142c1.391-0.586,2.496-1.696,3.074-3.091l7.719-18.622
	c0.574-1.396,0.574-2.962,0-4.359l-5.987-14.711l13.3-13.3l14.711,5.987c1.394,0.582,2.964,0.582,4.359,0l18.622-7.719
	c1.395-0.578,2.506-1.683,3.091-3.074l6.142-14.596h18.811l6.154,14.602c0.587,1.389,1.698,2.492,3.091,3.068l18.622,7.719
	c1.393,0.579,2.96,0.579,4.353,0l14.733-6.01l13.3,13.3l-5.987,14.711c-0.574,1.396-0.574,2.962,0,4.359l7.719,18.622
	c0.578,1.395,1.683,2.506,3.074,3.091L288,152.534V171.345z"/>
<g>
	<g>
		<g>
			<path d="M118.226,376.129c0,3.472-2.818,6.29-6.29,6.29h-6.29V281.774H30.161v100.645h-6.29c-3.472,0-6.29-2.818-6.29-6.29V200
				c0-3.466,2.818-6.29,6.29-6.29h62.903v-12.581H23.871C13.467,181.129,5,189.596,5,200v176.129C5,386.533,13.467,395,23.871,395
				h88.065c10.404,0,18.871-8.467,18.871-18.871V275.484h-12.581V376.129z M93.065,382.419H42.742v-88.065h50.323V382.419z"/>
			<polygon points="42.742,218.871 86.774,218.871 86.774,206.29 30.161,206.29 30.161,244.032 99.355,244.032 99.355,231.452 
				42.742,231.452 			"/>
			<rect x="30.161" y="256.613" width="12.581" height="12.581"/>
			<rect x="61.613" y="256.613" width="12.581" height="12.581"/>
			<rect x="93.065" y="256.613" width="12.581" height="12.581"/>
			<rect x="55.323" y="306.935" width="25.161" height="12.581"/>
			<rect x="55.323" y="332.097" width="25.161" height="12.581"/>
			<rect x="55.323" y="357.258" width="25.161" height="12.581"/>
			<path d="M376.129,181.129h-62.903v12.581h62.903c3.472,0,6.29,2.824,6.29,6.29v176.129c0,3.472-2.818,6.29-6.29,6.29h-6.29
				V281.774h-75.484v100.645h-6.29c-3.472,0-6.29-2.818-6.29-6.29V275.484h-12.581v100.645c0,10.404,8.467,18.871,18.871,18.871
				h88.065c10.404,0,18.871-8.467,18.871-18.871V200C395,189.596,386.533,181.129,376.129,181.129z M357.258,382.419h-50.323
				v-88.065h50.323V382.419z"/>
			<polygon points="369.839,206.29 313.226,206.29 313.226,218.871 357.258,218.871 357.258,231.452 300.645,231.452 
				300.645,244.032 369.839,244.032 			"/>
			<rect x="294.355" y="256.613" width="12.581" height="12.581"/>
			<rect x="325.806" y="256.613" width="12.581" height="12.581"/>
			<rect x="357.258" y="256.613" width="12.581" height="12.581"/>
			<rect x="319.516" y="306.935" width="25.161" height="12.581"/>
			<rect x="319.516" y="332.097" width="25.161" height="12.581"/>
			<rect x="319.516" y="357.258" width="25.161" height="12.581"/>
			<path d="M90.699,164.397l4.73-11.662c-16.72-6.775-27.526-22.79-27.526-40.799c0-24.281,19.758-44.032,44.032-44.032
				c4.12,0,8.272,0.604,12.342,1.786l6.045,1.761l1.755-6.045c3.881-13.342,16.292-22.664,30.181-22.664
				c5.013,0,9.832,1.17,14.329,3.485l5.844,3l2.749-5.97c7.177-15.594,22.872-25.677,39.981-25.677
				c24.274,0,44.032,19.752,44.001,44.554l-0.333,9.347l8.152-2.114c28.986-7.523,55.116,14.682,55.116,42.567
				c0,18.009-10.807,34.024-27.526,40.799l4.73,11.662c21.488-8.706,35.377-29.3,35.377-52.461
				c0-33.389-29.225-60.343-63.205-56.204C278.516,27.268,254.392,5,225.161,5c-19.953,0-38.402,10.643-48.549,27.577
				c-4.605-1.604-9.41-2.415-14.355-2.415c-17.43,0-33.188,10.473-40.189,26.092c-3.359-0.616-6.756-0.931-10.134-0.931
				c-31.219,0-56.613,25.4-56.613,56.613C55.323,135.096,69.212,155.691,90.699,164.397z"/>
		</g>
	</g>
</g>
<g>
	<g>
		<path d="M295.536,144.519l-15.73-6.623l-5.836-14.077l6.453-15.849c0.858-2.108,0.37-4.526-1.24-6.136l-18.447-18.441
			c-1.61-1.61-4.027-2.098-6.136-1.24l-15.849,6.453l-14.083-5.836l-6.611-15.73c-0.884-2.1-2.941-3.465-5.219-3.464h-26.089
			c-2.28,0-4.337,1.368-5.219,3.47l-6.623,15.724l-14.077,5.836l-15.849-6.453c-2.108-0.858-4.526-0.37-6.136,1.24l-18.447,18.447
			c-1.61,1.61-2.098,4.027-1.24,6.136l6.453,15.849l-5.836,14.077l-15.724,6.623c-2.102,0.882-3.47,2.939-3.47,5.219v26.083
			c-0.001,2.278,1.364,4.335,3.464,5.219l15.73,6.623l5.836,14.083l-6.453,15.849c-0.858,2.108-0.37,4.526,1.24,6.136l18.453,18.441
			c1.61,1.61,4.027,2.098,6.136,1.24l15.849-6.447l14.077,5.83l6.623,15.736c0.884,2.1,2.941,3.465,5.219,3.464h26.083
			c2.277,0.001,4.333-1.361,5.219-3.458l6.623-15.736l14.083-5.836l15.849,6.453c2.106,0.852,4.518,0.362,6.125-1.245l18.453-18.453
			c1.61-1.61,2.098-4.027,1.24-6.136l-6.447-15.849l5.83-14.083l15.736-6.623c2.094-0.887,3.454-2.94,3.453-5.213v-26.083
			C299.001,147.46,297.636,145.403,295.536,144.519z M287.679,172.062l-14.411,6.074c-1.373,0.578-2.464,1.674-3.034,3.051
			l-7.613,18.385c-0.563,1.375-0.563,2.916,0,4.291l5.892,14.541l-13.098,13.104l-14.519-5.909c-1.378-0.56-2.919-0.56-4.296,0
			l-18.379,7.619c-1.375,0.569-2.471,1.657-3.051,3.028l-6.096,14.423h-18.566l-6.062-14.411c-0.578-1.373-1.674-2.464-3.051-3.034
			l-18.385-7.613c-1.376-0.565-2.92-0.565-4.296,0l-14.519,5.904l-13.126-13.109l5.909-14.519c0.569-1.375,0.569-2.921,0-4.296
			l-7.619-18.379c-0.569-1.375-1.657-2.471-3.028-3.051l-14.411-6.074v-18.566l14.406-6.062c1.373-0.578,2.464-1.674,3.034-3.051
			l7.619-18.379c0.566-1.378,0.566-2.924,0-4.302l-5.909-14.519l13.126-13.126l14.519,5.909c1.376,0.575,2.926,0.575,4.302,0
			l18.379-7.619c1.377-0.57,2.473-1.661,3.051-3.034l6.062-14.406h18.566l6.074,14.411c0.579,1.371,1.675,2.459,3.051,3.028
			l18.379,7.619c1.375,0.572,2.921,0.572,4.296,0l14.541-5.932l13.126,13.126l-5.909,14.519c-0.566,1.378-0.566,2.924,0,4.302
			l7.619,18.379c0.57,1.377,1.661,2.473,3.034,3.051l14.394,6.062V172.062z"/>
	</g>
</g>
<g>
	<g>
		<path d="M199.797,106.182c-31.261,0-56.604,25.342-56.604,56.604s25.342,56.604,56.604,56.604s56.604-25.342,56.604-56.604
			C256.366,131.538,231.044,106.216,199.797,106.182z M199.797,208.068c-25.009,0-45.283-20.274-45.283-45.283
			s20.274-45.283,45.283-45.283s45.283,20.274,45.283,45.283C245.051,187.783,224.794,208.04,199.797,208.068z"/>
	</g>
</g>
<g>
	<g>
		<rect x="194.136" y="157.125" width="11.321" height="11.321"/>
	</g>
</g>
<g>
	<g>
		<rect x="171.495" y="157.125" width="11.321" height="11.321"/>
	</g>
</g>
<g>
	<g>
		<rect x="216.755" y="157.125" width="11.321" height="11.321"/>
	</g>
</g>
</svg>
