<?xml version="1.0" encoding="utf-8"?>
<!-- Generator: Adobe Illustrator 22.0.1, SVG Export Plug-In . SVG Version: 6.00 Build 0)  -->
<svg version="1.1" id="Capa_1" xmlns="http://www.w3.org/2000/svg" xmlns:xlink="http://www.w3.org/1999/xlink" x="0px" y="0px"
	 width="200px" height="200px" viewBox="0 0 200 200" enable-background="new 0 0 200 200" xml:space="preserve">
<g id="UI-_x7C_-web-V.F.">
	<g id="AN_solucion_desktop" transform="translate(-945.000000, -2690.000000)">
		<g id="FOOTER" transform="translate(0.000000, 2301.000000)">
			<g id="Group-12" transform="translate(0.000000, 350.000000)">
				<path id="linkedin" fill="#808285" d="M949.992,103.783h38.591v122.412h-38.591V103.783z M1094.023,102.607
					c27.427,0,48.977,17.608,48.977,55.527v68.062h-43.76v-63.345c0-16.582-6.843-27.898-21.898-27.898
					c-11.513,0-17.916,7.635-20.895,14.997c-1.116,2.644-0.945,6.324-0.945,10.005v66.241h-43.352c0,0,0.558-112.209,0-122.412
					h43.352v19.215C1058.062,114.594,1071.916,102.607,1094.023,102.607z M968.573,46c14.239,0,22.993,9.14,23.273,21.219
					c0,11.864-9.033,21.256-23.541,21.256h-0.279c-13.966,0-23.026-9.36-23.026-21.224C945,55.161,954.323,46,968.573,46z"/>
			</g>
		</g>
	</g>
</g>
</svg>
