<?xml version="1.0" encoding="utf-8"?>
<!-- Generator: Adobe Illustrator 22.0.1, SVG Export Plug-In . SVG Version: 6.00 Build 0)  -->
<svg version="1.1" id="Layer_1" xmlns="http://www.w3.org/2000/svg" xmlns:xlink="http://www.w3.org/1999/xlink" x="0px" y="0px"
	 width="518.93px" height="64.597px" viewBox="0 0 518.93 64.597" enable-background="new 0 0 518.93 64.597" xml:space="preserve">
<path id="XMLID_523_" fill="#7A00DB" d="M14.341,42.403H1.667L6.18,21.054h12.674l-0.951,4.632H10.94l-0.687,3.356h6.483
	l-1.051,4.628H9.202L8.37,37.7h6.963L14.341,42.403z"/>
<path id="XMLID_521_" fill="#7A00DB" d="M37.253,42.403h-6.645l-4.219-15.01h-0.117c-0.283,2.83-0.562,4.865-0.834,6.101
	l-1.885,8.909h-5.081l4.513-21.349h6.642l4.178,14.354h0.13c0.283-2.296,0.56-4.102,0.831-5.418l1.914-8.937h5.081L37.253,42.403z"
	/>
<path id="XMLID_519_" fill="#7A00DB" d="M52.29,29.904h8.905l-2.437,11.609c-2.433,0.786-4.969,1.182-7.608,1.182
	c-2.539,0-4.511-0.742-5.912-2.22c-1.402-1.483-2.103-3.577-2.103-6.294c0-2.597,0.535-4.947,1.606-7.035
	c1.071-2.094,2.539-3.689,4.403-4.785c1.865-1.096,4.033-1.64,6.503-1.64c2.59,0,4.772,0.517,6.542,1.559l-2.146,4.516
	c-1.489-0.876-2.979-1.317-4.468-1.317c-1.285,0-2.422,0.355-3.41,1.06c-0.988,0.705-1.777,1.748-2.365,3.132
	c-0.588,1.379-0.883,2.858-0.883,4.426c0,2.569,1.018,3.854,3.05,3.854c0.615,0,1.262-0.072,1.944-0.207l0.744-3.388h-3.342
	L52.29,29.904z"/>
<path id="XMLID_516_" fill="#7A00DB" d="M75.026,38.4h-6.542l-1.827,4.003h-5.925l10.864-21.349h7.344l1.795,21.349h-5.562
	L75.026,38.4z M70.571,33.844h4.279l-0.249-6.191l-0.027-1.254c0-0.732,0.018-1.37,0.058-1.914
	c-0.234,0.836-0.533,1.645-0.892,2.427L70.571,33.844z"/>
<path id="XMLID_514_" fill="#7A00DB" d="M93.381,29.904h8.905l-2.437,11.609c-2.433,0.786-4.969,1.182-7.608,1.182
	c-2.539,0-4.511-0.742-5.912-2.22c-1.402-1.483-2.103-3.577-2.103-6.294c0-2.597,0.535-4.947,1.606-7.035
	c1.071-2.094,2.539-3.689,4.403-4.785c1.865-1.096,4.033-1.64,6.503-1.64c2.59,0,4.772,0.517,6.542,1.559l-2.146,4.516
	c-1.489-0.876-2.979-1.317-4.468-1.317c-1.285,0-2.422,0.355-3.41,1.06c-0.988,0.705-1.777,1.748-2.365,3.132
	c-0.588,1.379-0.883,2.858-0.883,4.426c0,2.569,1.018,3.854,3.05,3.854c0.615,0,1.262-0.072,1.944-0.207l0.744-3.388h-3.343
	L93.381,29.904z"/>
<path id="XMLID_512_" fill="#7A00DB" d="M116.738,42.403h-12.674l4.513-21.349h12.674l-0.951,4.632h-6.963l-0.687,3.356h6.483
	l-1.051,4.628h-6.483l-0.831,4.03h6.963L116.738,42.403z"/>
<path id="XMLID_510_" fill="#7A00DB" d="M128.976,42.403V27.088h-0.117c-0.652,4.057-1.071,6.55-1.255,7.476l-1.651,7.84h-5.081
	l4.513-21.349h7.563v15.158h0.117l6.98-15.158h7.68l-4.569,21.349h-5.126l1.707-8.015c0.488-2.22,1.013-4.344,1.576-6.366
	l0.22-0.934h-0.117l-7.038,15.315L128.976,42.403L128.976,42.403z"/>
<path id="XMLID_508_" fill="#7A00DB" d="M160.733,42.403h-12.674l4.513-21.349h12.674l-0.951,4.632h-6.963l-0.687,3.356h6.483
	l-1.051,4.628h-6.483l-0.831,4.03h6.963L160.733,42.403z"/>
<path id="XMLID_506_" fill="#7A00DB" d="M183.644,42.403h-6.645l-4.219-15.01h-0.117c-0.283,2.83-0.562,4.865-0.834,6.101
	l-1.885,8.909h-5.081l4.513-21.349h6.642l4.178,14.354h0.13c0.283-2.296,0.56-4.102,0.831-5.418l1.914-8.937h5.081L183.644,42.403z"
	/>
<path id="XMLID_504_" fill="#7A00DB" d="M197.167,42.403h-5.711l3.46-16.632h-4.628l1.006-4.717h15.01l-1.036,4.717h-4.643
	L197.167,42.403z"/>
<path id="XMLID_502_" fill="#7A00DB" d="M221.432,42.403h-5.711l3.46-16.632h-4.628l1.006-4.717h15.01l-1.036,4.717h-4.643
	L221.432,42.403z"/>
<path id="XMLID_499_" fill="#7A00DB" d="M241.874,20.721c2.532,0,4.501,0.719,5.908,2.166c1.406,1.447,2.109,3.463,2.109,6.052
	c0,2.592-0.485,4.96-1.454,7.103c-0.968,2.148-2.305,3.792-4.008,4.937c-1.703,1.141-3.679,1.716-5.928,1.716
	c-2.619,0-4.641-0.727-6.067-2.174c-1.426-1.451-2.138-3.468-2.138-6.047s0.501-4.951,1.506-7.112
	c1.001-2.161,2.368-3.806,4.095-4.942C237.623,21.287,239.616,20.721,241.874,20.721z M244.125,28.996
	c0-1.11-0.234-1.977-0.701-2.606s-1.145-0.939-2.031-0.939c-0.964,0-1.849,0.409-2.657,1.227c-0.808,0.818-1.454,1.941-1.934,3.37
	c-0.483,1.434-0.724,2.898-0.724,4.399c0,2.355,0.973,3.532,2.92,3.532c0.926,0,1.783-0.404,2.577-1.213s1.417-1.896,1.869-3.271
	C243.898,32.124,244.125,30.623,244.125,28.996z"/>
<path id="XMLID_497_" fill="#7A00DB" d="M267.733,42.403h-5.711l3.46-16.632h-4.628l1.006-4.717h15.01l-1.036,4.717h-4.643
	L267.733,42.403z"/>
<path id="XMLID_495_" fill="#7A00DB" d="M292.06,42.403h-5.711l1.824-8.703h-5.049l-1.855,8.703h-5.711l4.513-21.349h5.708
	l-1.635,7.916h5.081l1.635-7.916h5.724L292.06,42.403z"/>
<path id="XMLID_493_" fill="#7A00DB" d="M309.578,42.403h-12.674l4.513-21.349h12.674l-0.951,4.632h-6.963l-0.687,3.356h6.483
	l-1.051,4.628h-6.483l-0.831,4.03h6.963L309.578,42.403z"/>
<path id="XMLID_490_" fill="#7A00DB" d="M339.267,27.451c0,2.453-0.836,4.376-2.505,5.773c-1.669,1.397-3.956,2.098-6.856,2.098
	h-1.255l-1.461,7.08h-5.711l4.513-21.349h5.447c2.52,0,4.454,0.553,5.803,1.658C338.59,23.817,339.267,25.398,339.267,27.451z
	 M329.673,30.65h0.919c0.887,0,1.601-0.287,2.148-0.858c0.546-0.566,0.817-1.289,0.817-2.166c0-0.575-0.175-1.038-0.525-1.389
	s-0.831-0.525-1.447-0.525h-0.861L329.673,30.65z"/>
<path id="XMLID_487_" fill="#7A00DB" d="M352.727,20.721c2.532,0,4.501,0.719,5.908,2.166c1.406,1.447,2.109,3.463,2.109,6.052
	c0,2.592-0.485,4.96-1.454,7.103c-0.968,2.148-2.305,3.792-4.008,4.937c-1.703,1.141-3.679,1.716-5.928,1.716
	c-2.619,0-4.641-0.727-6.067-2.174c-1.426-1.451-2.138-3.468-2.138-6.047s0.501-4.951,1.506-7.112
	c1.001-2.161,2.368-3.806,4.095-4.942C348.476,21.287,350.469,20.721,352.727,20.721z M354.978,28.996
	c0-1.11-0.234-1.977-0.701-2.606c-0.468-0.629-1.145-0.939-2.031-0.939c-0.964,0-1.849,0.409-2.657,1.227
	c-0.808,0.818-1.454,1.941-1.934,3.37c-0.483,1.434-0.724,2.898-0.724,4.399c0,2.355,0.973,3.532,2.92,3.532
	c0.926,0,1.783-0.404,2.577-1.213s1.417-1.896,1.869-3.271C354.751,32.124,354.978,30.623,354.978,28.996z"/>
<path id="XMLID_485_" fill="#7A00DB" d="M368.775,37.231l0.585-1.519l1.37-3.388l4.892-11.272h4.906v11.564
	c0,1.519-0.126,3.06-0.38,4.614c0.097-0.269,0.744-1.954,1.944-5.049l4.423-11.128h5.649l-9.271,21.349h-6.732V33.35
	c0-1.509,0.065-3.087,0.191-4.73c-0.321,1.294-0.896,2.992-1.723,5.095l-3.692,8.689h-6.339l-0.714-21.349h5.402L369.14,31.76
	C369.081,34.356,368.959,36.18,368.775,37.231z"/>
<path id="XMLID_483_" fill="#7A00DB" d="M402.78,42.403h-12.674l4.513-21.349h12.674l-0.951,4.632h-6.963l-0.687,3.356h6.483
	l-1.051,4.628h-6.483l-0.831,4.03h6.963L402.78,42.403z"/>
<path id="XMLID_480_" fill="#7A00DB" d="M414.27,34.634l-1.648,7.768h-5.711l4.513-21.349h5.649c2.453,0,4.334,0.49,5.638,1.461
	c1.302,0.975,1.954,2.44,1.954,4.399c0,1.519-0.344,2.84-1.036,3.971c-0.692,1.128-1.718,1.99-3.08,2.584L423.822,41l0.585,1.402
	h-6.223l-2.846-7.768L414.27,34.634L414.27,34.634z M415.191,30.299h0.746c0.923,0,1.658-0.269,2.203-0.799
	c0.546-0.53,0.817-1.272,0.817-2.224c0-0.607-0.169-1.065-0.503-1.379c-0.337-0.319-0.824-0.476-1.467-0.476h-0.775L415.191,30.299z
	"/>
<path id="XMLID_477_" fill="#7A00DB" d="M446.727,20.721c2.532,0,4.501,0.719,5.908,2.166c1.406,1.447,2.109,3.463,2.109,6.052
	c0,2.592-0.485,4.96-1.454,7.103c-0.968,2.148-2.305,3.792-4.008,4.937c-1.703,1.141-3.679,1.716-5.928,1.716
	c-2.619,0-4.641-0.727-6.067-2.174c-1.426-1.451-2.138-3.468-2.138-6.047s0.501-4.951,1.506-7.112
	c1.001-2.161,2.368-3.806,4.095-4.942C442.478,21.287,444.47,20.721,446.727,20.721z M448.978,28.996
	c0-1.11-0.234-1.977-0.701-2.606c-0.468-0.629-1.145-0.939-2.031-0.939c-0.964,0-1.849,0.409-2.657,1.227
	c-0.808,0.818-1.454,1.941-1.934,3.37c-0.483,1.434-0.724,2.898-0.724,4.399c0,2.355,0.973,3.532,2.92,3.532
	c0.926,0,1.783-0.404,2.577-1.213s1.417-1.896,1.869-3.271C448.751,32.124,448.978,30.623,448.978,28.996z"/>
<path id="XMLID_475_" fill="#7A00DB" d="M461.857,42.403h-5.711l4.513-21.349h12.587l-0.979,4.632h-6.876l-0.847,4.07h6.366
	l-1.006,4.658h-6.398L461.857,42.403z"/>
<polygon id="XMLID_473_" fill="#7A00DB" points="490.434,14.925 474.904,47.907 481.516,50 490.604,30.794 501.389,52.968 
	517,20.192 510.394,18.101 501.221,37.179 "/>
</svg>
