<?xml version="1.0" encoding="utf-8"?>
<!-- Generator: Adobe Illustrator 22.1.0, SVG Export Plug-In . SVG Version: 6.00 Build 0)  -->
<svg version="1.1" id="Capa_1" xmlns="http://www.w3.org/2000/svg" xmlns:xlink="http://www.w3.org/1999/xlink" x="0px" y="0px"
	 viewBox="0 0 600.8 43.2" style="enable-background:new 0 0 600.8 43.2;" xml:space="preserve">
<style type="text/css">
	.color_experience{fill:#7A00DB;}
</style>
<g>
	<g>
		<g>
			<path class="color_experience" d="M15.4,32.3H0.6l5.3-25h14.9l-1.1,5.4h-8.2l-0.8,3.9h7.6L17,22.1H9.4l-1,4.7h8.2L15.4,32.3z"/>
			<path class="color_experience" d="M42.3,32.3h-7.8l-4.9-17.6h-0.1c-0.3,3.3-0.7,5.7-1,7.2l-2.2,10.4h-6l5.3-25h7.8l4.9,16.8h0.2
				c0.3-2.7,0.7-4.8,1-6.3l2.2-10.5h6L42.3,32.3z"/>
			<path class="color_experience" d="M59.9,17.7h10.4l-2.9,13.6c-2.9,0.9-5.8,1.4-8.9,1.4c-3,0-5.3-0.9-6.9-2.6c-1.6-1.7-2.5-4.2-2.5-7.4
				c0-3,0.6-5.8,1.9-8.2c1.3-2.5,3-4.3,5.2-5.6s4.7-1.9,7.6-1.9c3,0,5.6,0.6,7.7,1.8L69,14c-1.7-1-3.5-1.5-5.2-1.5
				c-1.5,0-2.8,0.4-4,1.2s-2.1,2.1-2.8,3.7c-0.7,1.6-1,3.3-1,5.2c0,3,1.2,4.5,3.6,4.5c0.7,0,1.5-0.1,2.3-0.2l0.9-4h-3.9L59.9,17.7z"
				/>
			<path class="color_experience" d="M86.5,27.6h-7.7l-2.1,4.7h-6.9l12.7-25h8.6l2.1,25h-6.5L86.5,27.6z M81.3,22.3h5L86,15.1l0-1.5
				c0-0.9,0-1.6,0.1-2.2c-0.3,1-0.6,1.9-1,2.8L81.3,22.3z"/>
			<path class="color_experience" d="M108,17.7h10.4l-2.9,13.6c-2.9,0.9-5.8,1.4-8.9,1.4c-3,0-5.3-0.9-6.9-2.6c-1.6-1.7-2.5-4.2-2.5-7.4
				c0-3,0.6-5.8,1.9-8.2c1.3-2.5,3-4.3,5.2-5.6s4.7-1.9,7.6-1.9c3,0,5.6,0.6,7.7,1.8l-2.5,5.3c-1.7-1-3.5-1.5-5.2-1.5
				c-1.5,0-2.8,0.4-4,1.2s-2.1,2.1-2.8,3.7c-0.7,1.6-1,3.3-1,5.2c0,3,1.2,4.5,3.6,4.5c0.7,0,1.5-0.1,2.3-0.2l0.9-4h-3.9L108,17.7z"
				/>
			<path class="color_experience" d="M135.4,32.3h-14.9l5.3-25h14.9l-1.1,5.4h-8.2l-0.8,3.9h7.6l-1.2,5.4h-7.6l-1,4.7h8.2L135.4,32.3z"/>
			<path class="color_experience" d="M149.8,32.3v-18h-0.1c-0.8,4.8-1.3,7.7-1.5,8.8l-1.9,9.2h-6l5.3-25h8.9v17.8h0.1l8.2-17.8h9l-5.4,25h-6
				l2-9.4c0.6-2.6,1.2-5.1,1.8-7.5l0.3-1.1h-0.1l-8.2,18H149.8z"/>
			<path class="color_experience" d="M187,32.3h-14.9l5.3-25h14.9l-1.1,5.4H183l-0.8,3.9h7.6l-1.2,5.4H181l-1,4.7h8.2L187,32.3z"/>
			<path class="color_experience" d="M213.8,32.3H206l-4.9-17.6H201c-0.3,3.3-0.7,5.7-1,7.2l-2.2,10.4h-6l5.3-25h7.8l4.9,16.8h0.2
				c0.3-2.7,0.7-4.8,1-6.3l2.2-10.5h6L213.8,32.3z"/>
			<path class="color_experience" d="M229.7,32.3H223l4.1-19.5h-5.4l1.2-5.5h17.6l-1.2,5.5h-5.4L229.7,32.3z"/>
			<path class="color_experience" d="M258.1,32.3h-6.7l4.1-19.5h-5.4l1.2-5.5h17.6l-1.2,5.5h-5.4L258.1,32.3z"/>
			<path class="color_experience" d="M282.1,6.9c3,0,5.3,0.8,6.9,2.5s2.5,4.1,2.5,7.1c0,3-0.6,5.8-1.7,8.3c-1.1,2.5-2.7,4.4-4.7,5.8
				c-2,1.3-4.3,2-6.9,2c-3.1,0-5.4-0.8-7.1-2.5c-1.7-1.7-2.5-4.1-2.5-7.1c0-3,0.6-5.8,1.8-8.3c1.2-2.5,2.8-4.5,4.8-5.8
				C277.1,7.6,279.4,6.9,282.1,6.9z M284.7,16.6c0-1.3-0.3-2.3-0.8-3.1c-0.5-0.7-1.3-1.1-2.4-1.1c-1.1,0-2.2,0.5-3.1,1.4
				c-0.9,1-1.7,2.3-2.3,4c-0.6,1.7-0.8,3.4-0.8,5.2c0,2.8,1.1,4.1,3.4,4.1c1.1,0,2.1-0.5,3-1.4c0.9-0.9,1.7-2.2,2.2-3.8
				C284.4,20.3,284.7,18.5,284.7,16.6z"/>
			<path class="color_experience" d="M312.4,32.3h-6.7l4.1-19.5h-5.4l1.2-5.5h17.6l-1.2,5.5h-5.4L312.4,32.3z"/>
			<path class="color_experience" d="M340.9,32.3h-6.7l2.1-10.2h-5.9l-2.2,10.2h-6.7l5.3-25h6.7l-1.9,9.3h6l1.9-9.3h6.7L340.9,32.3z"/>
			<path class="color_experience" d="M361.4,32.3h-14.9l5.3-25h14.9l-1.1,5.4h-8.2l-0.8,3.9h7.6l-1.2,5.4h-7.6l-1,4.7h8.2L361.4,32.3z"/>
			<path class="color_experience" d="M396.2,14.8c0,2.9-1,5.1-2.9,6.8c-2,1.6-4.6,2.5-8,2.5h-1.5l-1.7,8.3h-6.7l5.3-25h6.4c3,0,5.2,0.6,6.8,1.9
				S396.2,12.4,396.2,14.8z M385,18.6h1.1c1,0,1.9-0.3,2.5-1c0.6-0.7,1-1.5,1-2.5c0-0.7-0.2-1.2-0.6-1.6c-0.4-0.4-1-0.6-1.7-0.6h-1
				L385,18.6z"/>
			<path class="color_experience" d="M412,6.9c3,0,5.3,0.8,6.9,2.5s2.5,4.1,2.5,7.1c0,3-0.6,5.8-1.7,8.3c-1.1,2.5-2.7,4.4-4.7,5.8
				c-2,1.3-4.3,2-6.9,2c-3.1,0-5.4-0.8-7.1-2.5c-1.7-1.7-2.5-4.1-2.5-7.1c0-3,0.6-5.8,1.8-8.3c1.2-2.5,2.8-4.5,4.8-5.8
				C407,7.6,409.3,6.9,412,6.9z M414.6,16.6c0-1.3-0.3-2.3-0.8-3.1c-0.5-0.7-1.3-1.1-2.4-1.1c-1.1,0-2.2,0.5-3.1,1.4
				c-0.9,1-1.7,2.3-2.3,4c-0.6,1.7-0.8,3.4-0.8,5.2c0,2.8,1.1,4.1,3.4,4.1c1.1,0,2.1-0.5,3-1.4c0.9-0.9,1.7-2.2,2.2-3.8
				C414.4,20.3,414.6,18.5,414.6,16.6z"/>
			<path class="color_experience" d="M430.8,26.3l0.7-1.8l1.6-4l5.7-13.2h5.7v13.6c0,1.8-0.1,3.6-0.4,5.4c0.1-0.3,0.9-2.3,2.3-5.9l5.2-13h6.6
				l-10.9,25h-7.9V21.7c0-1.8,0.1-3.6,0.2-5.5c-0.4,1.5-1,3.5-2,6l-4.3,10.2h-7.4l-0.8-25h6.3l-0.2,12.5
				C431.2,22.9,431,25,430.8,26.3z"/>
			<path class="color_experience" d="M470.6,32.3h-14.9l5.3-25h14.9l-1.1,5.4h-8.2l-0.8,3.9h7.6l-1.2,5.4h-7.6l-1,4.7h8.2L470.6,32.3z"/>
			<path class="color_experience" d="M484.1,23.2l-1.9,9.1h-6.7l5.3-25h6.6c2.9,0,5.1,0.6,6.6,1.7c1.5,1.1,2.3,2.9,2.3,5.2c0,1.8-0.4,3.3-1.2,4.7
				c-0.8,1.3-2,2.3-3.6,3l3.8,8.8l0.7,1.6h-7.3l-3.3-9.1H484.1z M485.2,18.1h0.9c1.1,0,1.9-0.3,2.6-0.9s1-1.5,1-2.6
				c0-0.7-0.2-1.2-0.6-1.6c-0.4-0.4-1-0.6-1.7-0.6h-0.9L485.2,18.1z"/>
			<path class="color_experience" d="M522.2,6.9c3,0,5.3,0.8,6.9,2.5s2.5,4.1,2.5,7.1c0,3-0.6,5.8-1.7,8.3c-1.1,2.5-2.7,4.4-4.7,5.8
				c-2,1.3-4.3,2-6.9,2c-3.1,0-5.4-0.8-7.1-2.5c-1.7-1.7-2.5-4.1-2.5-7.1c0-3,0.6-5.8,1.8-8.3c1.2-2.5,2.8-4.5,4.8-5.8
				C517.2,7.6,519.5,6.9,522.2,6.9z M524.8,16.6c0-1.3-0.3-2.3-0.8-3.1c-0.5-0.7-1.3-1.1-2.4-1.1c-1.1,0-2.2,0.5-3.1,1.4
				c-0.9,1-1.7,2.3-2.3,4c-0.6,1.7-0.8,3.4-0.8,5.2c0,2.8,1.1,4.1,3.4,4.1c1.1,0,2.1-0.5,3-1.4c0.9-0.9,1.7-2.2,2.2-3.8
				C524.5,20.3,524.8,18.5,524.8,16.6z"/>
			<path class="color_experience" d="M539.9,32.3h-6.7l5.3-25h14.8l-1.1,5.4H544l-1,4.8h7.5l-1.2,5.5h-7.5L539.9,32.3z"/>
		</g>
		<g id="XMLID_10_">
			<polygon class="color_experience" points="572.8,0 556.4,34.8 563.4,37 572.9,16.7 584.3,40.1 600.8,5.6 593.8,3.3 584.1,23.5 			"/>
		</g>
	</g>
</g>
</svg>
