<?xml version="1.0" encoding="utf-8"?>
<!-- Generator: Adobe Illustrator 22.0.1, SVG Export Plug-In . SVG Version: 6.00 Build 0)  -->
<svg version="1.1" id="Capa_1" xmlns="http://www.w3.org/2000/svg" xmlns:xlink="http://www.w3.org/1999/xlink" x="0px" y="0px"
	 width="450px" height="267px" viewBox="0 0 450 267" enable-background="new 0 0 450 267" xml:space="preserve">
<polygon fill="none" stroke="#DC4913" stroke-width="1.7284" stroke-miterlimit="10" points="6.25,75.375 6.25,263.265 
	414.443,263.265 447,193.233 447,4 39.146,4 "/>
<g id="XMLID_116_">
	<g id="XMLID_177_">
		<path id="XMLID_981_" fill="#DC4913" d="M44.364,121.508l-1.657,4.178h-6.636l9.247-24.041h6.823l9.059,24.041h-6.666
			l-1.564-4.178H44.364z M48.731,109.076h-0.063l-2.586,7.651h5.196L48.731,109.076z"/>
		<path id="XMLID_979_" fill="#DC4913" d="M62.302,101.041h3.645l6.679,8.574h0.038v-8.574h3.638v14.022h-3.638l-6.679-8.592h-0.038
			v8.592h-3.645V101.041z"/>
		<path id="XMLID_977_" fill="#DC4913" d="M77.499,129.67v-1.595h15.944v1.595H77.499z"/>
		<path id="XMLID_974_" fill="#DC4913" d="M112.472,119.845h-10.299l-2.68,5.841h-3.907l11.9-25.561l11.477,25.561h-3.969
			L112.472,119.845z M110.989,116.434l-3.564-8.178l-3.739,8.178H110.989z"/>
		<path id="XMLID_972_" fill="#DC4913" d="M121.974,125.686V100l17.539,18.349v-16.714h3.626v25.514L125.6,108.847v16.839
			L121.974,125.686L121.974,125.686z"/>
		<path id="XMLID_969_" fill="#DC4913" d="M163.033,119.845h-10.299l-2.68,5.841h-3.907l11.901-25.561l11.477,25.561h-3.969
			L163.033,119.845z M161.551,116.434l-3.564-8.178l-3.739,8.178H161.551z"/>
		<path id="XMLID_967_" fill="#DC4913" d="M176.162,101.636v20.639h7.072v3.411h-10.698v-24.05H176.162z"/>
		<path id="XMLID_965_" fill="#DC4913" d="M190.898,115.297l-7.85-13.661h4.174l5.502,9.611l5.515-9.611h4.174l-7.882,13.661v10.389
			h-3.633L190.898,115.297L190.898,115.297z"/>
		<path id="XMLID_963_" fill="#DC4913" d="M213.732,105.048v20.639H210.1v-20.639h-5.526v-3.411h14.673v3.411H213.732z"/>
		<path id="XMLID_961_" fill="#DC4913" d="M226.113,101.636v24.05h-3.626v-24.05H226.113z"/>
		<path id="XMLID_959_" fill="#DC4913" d="M249.665,102.92v4.293c-2.093-1.757-4.268-2.633-6.511-2.633
			c-2.467,0-4.555,0.888-6.243,2.664c-1.707,1.763-2.555,3.925-2.555,6.48c0,2.523,0.848,4.651,2.555,6.387
			c1.701,1.732,3.788,2.601,6.262,2.601c1.277,0,2.362-0.209,3.252-0.623c0.498-0.209,1.016-0.489,1.552-0.841
			c0.536-0.355,1.097-0.779,1.689-1.277v4.383c-2.075,1.18-4.255,1.77-6.542,1.77c-3.433,0-6.368-1.2-8.798-3.598
			c-2.424-2.42-3.633-5.34-3.633-8.754c0-3.066,1.016-5.795,3.041-8.193c2.492-2.941,5.713-4.408,9.67-4.408
			C245.565,101.168,247.652,101.751,249.665,102.92z"/>
		<path id="XMLID_957_" fill="#DC4913" d="M267.846,105.203l-2.947,1.745c-0.548-0.956-1.072-1.579-1.57-1.869
			c-0.523-0.334-1.19-0.498-2.012-0.498c-1.003,0-1.844,0.287-2.505,0.857c-0.666,0.561-0.996,1.268-0.996,2.119
			c0,1.175,0.872,2.122,2.617,2.838l2.399,0.982c1.951,0.791,3.377,1.754,4.281,2.894c0.904,1.137,1.359,2.533,1.359,4.183
			c0,2.215-0.742,4.044-2.212,5.486c-1.489,1.455-3.327,2.184-5.533,2.184c-2.088,0-3.807-0.62-5.172-1.863
			c-1.339-1.24-2.175-2.981-2.505-5.224l3.676-0.81c0.162,1.411,0.455,2.386,0.872,2.929c0.747,1.038,1.838,1.558,3.272,1.558
			c1.128,0,2.068-0.38,2.817-1.137c0.747-0.757,1.121-1.716,1.121-2.878c0-0.467-0.062-0.897-0.193-1.283
			c-0.131-0.39-0.33-0.747-0.604-1.075c-0.28-0.327-0.635-0.632-1.072-0.919c-0.437-0.287-0.953-0.558-1.558-0.816l-2.317-0.966
			c-3.296-1.39-4.941-3.424-4.941-6.103c0-1.804,0.691-3.315,2.075-4.53c1.377-1.224,3.097-1.835,5.152-1.835
			C264.121,101.168,266.288,102.511,267.846,105.203z"/>
	</g>
	<g id="XMLID_953_" opacity="0.3">
		<g id="XMLID_115_">
			<path id="XMLID_171_" fill="#DC4913" d="M47.55,167.208h-4.977l-1.979-6.57l-1.101,0.636l-1.227,5.934H33.82l3.513-16.618h4.444
				l-1.533,7.093l0.432-0.67c0.666-1.084,1.159-1.824,1.477-2.217l3.376-4.206h5.217l-6.262,7.661L47.55,167.208z"/>
			<path id="XMLID_174_" fill="#DC4913" d="M64.011,167.208h-5.173l-3.284-11.684h-0.091c-0.221,2.205-0.438,3.789-0.649,4.752
				l-1.467,6.934h-3.955l3.513-16.618h5.171l3.252,11.172h0.101c0.221-1.787,0.436-3.193,0.647-4.217l1.49-6.957h3.955
				L64.011,167.208z"/>
			<path id="XMLID_219_" fill="#DC4913" d="M77.604,150.329c1.971,0,3.504,0.562,4.599,1.688c1.095,1.124,1.642,2.695,1.642,4.711
				c0,2.016-0.378,3.859-1.132,5.529c-0.754,1.672-1.794,2.952-3.12,3.841c-1.326,0.89-2.864,1.336-4.615,1.336
				c-2.039,0-3.613-0.564-4.723-1.692c-1.11-1.13-1.665-2.698-1.665-4.707c0-2.008,0.39-3.853,1.172-5.535
				c0.78-1.682,1.843-2.964,3.188-3.847S75.846,150.329,77.604,150.329z M79.356,156.773c0-0.864-0.182-1.541-0.546-2.029
				c-0.364-0.49-0.892-0.733-1.581-0.733c-0.75,0-1.44,0.318-2.068,0.955c-0.63,0.636-1.132,1.511-1.506,2.624
				c-0.376,1.114-0.563,2.254-0.563,3.422c0,1.833,0.757,2.749,2.273,2.749c0.721,0,1.388-0.313,2.006-0.942
				c0.618-0.63,1.103-1.477,1.455-2.546C79.179,159.206,79.356,158.039,79.356,156.773z"/>
			<path id="XMLID_222_" fill="#DC4913" d="M90.098,163.184l0.455-1.182l1.066-2.637l3.808-8.775h3.819v9.002
				c0,1.182-0.098,2.38-0.296,3.591c0.075-0.211,0.579-1.523,1.513-3.933l3.443-8.661h4.398l-7.217,16.618h-5.241v-7.047
				c0-1.175,0.051-2.403,0.149-3.682c-0.25,1.007-0.698,2.329-1.341,3.967l-2.874,6.764h-4.934l-0.556-16.618h4.206l-0.114,8.333
				C90.336,160.944,90.241,162.366,90.098,163.184z"/>
			<path id="XMLID_224_" fill="#DC4913" d="M106.702,167.208l3.513-16.618h4.444l-2.738,12.992h5.421l-0.773,3.626L106.702,167.208
				L106.702,167.208z"/>
			<path id="XMLID_229_" fill="#DC4913" d="M128.832,167.208h-9.866l3.513-16.618h9.866l-0.74,3.604h-5.421l-0.535,2.613h5.047
				l-0.818,3.604h-5.047l-0.647,3.137h5.421L128.832,167.208z"/>
			<path id="XMLID_237_" fill="#DC4913" d="M146.872,156.876c0,2.122-0.374,3.961-1.124,5.517c-0.75,1.558-1.839,2.749-3.268,3.576
				c-1.428,0.825-3.12,1.238-5.075,1.238h-5.355l3.513-16.618h4.729c2.091,0,3.711,0.547,4.86,1.642
				C146.299,153.327,146.872,154.876,146.872,156.876z M138.076,163.525c0.833,0,1.577-0.266,2.233-0.796
				c0.655-0.529,1.165-1.287,1.529-2.268c0.364-0.981,0.546-2.1,0.546-3.358c0-0.948-0.205-1.667-0.614-2.155
				c-0.409-0.49-0.981-0.734-1.717-0.734h-0.806l-1.955,9.31L138.076,163.525L138.076,163.525z"/>
			<path id="XMLID_240_" fill="#DC4913" d="M155.909,157.478h6.932l-1.897,9.037c-1.894,0.612-3.868,0.92-5.923,0.92
				c-1.976,0-3.512-0.575-4.603-1.728s-1.637-2.784-1.637-4.9c0-2.021,0.416-3.849,1.25-5.477c0.834-1.63,1.976-2.872,3.428-3.723
				c1.451-0.853,3.139-1.279,5.062-1.279c2.016,0,3.715,0.404,5.093,1.215l-1.67,3.513c-1.159-0.682-2.319-1.025-3.478-1.025
				c-1,0-1.885,0.277-2.655,0.825c-0.769,0.549-1.383,1.362-1.841,2.438c-0.458,1.076-0.688,2.225-0.688,3.445c0,2,0.792,3,2.374,3
				c0.479,0,0.983-0.054,1.513-0.161l0.579-2.637h-2.602L155.909,157.478z"/>
			<path id="XMLID_242_" fill="#DC4913" d="M174.097,167.208h-9.866l3.513-16.618h9.866l-0.74,3.604h-5.421l-0.535,2.613h5.047
				l-0.818,3.604h-5.047l-0.647,3.137h5.421L174.097,167.208z"/>
			<path id="XMLID_307_" fill="#DC4913" d="M190.113,167.208h-4.445l2.693-12.948h-3.603l0.783-3.671h11.684l-0.806,3.671h-3.614
				L190.113,167.208z"/>
			<path id="XMLID_309_" fill="#DC4913" d="M206.025,150.329c1.971,0,3.504,0.562,4.599,1.688c1.095,1.124,1.642,2.695,1.642,4.711
				c0,2.016-0.378,3.859-1.132,5.529c-0.754,1.672-1.794,2.952-3.12,3.841c-1.326,0.89-2.864,1.336-4.615,1.336
				c-2.039,0-3.613-0.564-4.723-1.692c-1.11-1.13-1.665-2.698-1.665-4.707c0-2.008,0.39-3.853,1.172-5.535
				c0.78-1.682,1.843-2.964,3.188-3.847C202.715,150.77,204.267,150.329,206.025,150.329z M207.777,156.773
				c0-0.864-0.182-1.541-0.546-2.029c-0.364-0.49-0.892-0.733-1.581-0.733c-0.75,0-1.44,0.318-2.068,0.955
				c-0.63,0.636-1.132,1.511-1.506,2.624c-0.376,1.114-0.564,2.254-0.564,3.422c0,1.833,0.757,2.749,2.273,2.749
				c0.721,0,1.388-0.313,2.006-0.942c0.618-0.63,1.103-1.477,1.455-2.546C207.6,159.206,207.777,158.039,207.777,156.773z"/>
			<path id="XMLID_313_" fill="#DC4913" d="M226.156,167.208h-4.445l2.693-12.948h-3.603l0.783-3.671h11.684l-0.806,3.671h-3.614
				L226.156,167.208z"/>
			<path id="XMLID_317_" fill="#DC4913" d="M245.094,167.208h-4.445l1.42-6.775h-3.931l-1.444,6.775h-4.445l3.512-16.618h4.444
				l-1.273,6.161h3.956l1.273-6.161h4.456L245.094,167.208z"/>
			<path id="XMLID_319_" fill="#DC4913" d="M258.73,167.208h-9.866l3.513-16.618h9.866l-0.74,3.604h-5.421l-0.535,2.613h5.047
				l-0.818,3.604h-5.047l-0.647,3.137h5.421L258.73,167.208z"/>
			<path id="XMLID_322_" fill="#DC4913" d="M281.842,155.568c0,1.909-0.651,3.409-1.95,4.496s-3.079,1.632-5.337,1.632h-0.977
				l-1.137,5.512h-4.445l3.513-16.618h4.24c1.962,0,3.467,0.43,4.517,1.291C281.315,152.741,281.842,153.971,281.842,155.568z
				 M274.373,158.058h0.715c0.69,0,1.246-0.222,1.672-0.666c0.425-0.442,0.636-1.006,0.636-1.688c0-0.448-0.136-0.808-0.409-1.081
				s-0.647-0.409-1.126-0.409h-0.67L274.373,158.058z"/>
			<path id="XMLID_325_" fill="#DC4913" d="M292.32,150.329c1.971,0,3.504,0.562,4.599,1.688c1.095,1.124,1.642,2.695,1.642,4.711
				c0,2.016-0.378,3.859-1.132,5.529c-0.754,1.672-1.794,2.952-3.12,3.841c-1.326,0.89-2.864,1.336-4.615,1.336
				c-2.039,0-3.613-0.564-4.723-1.692c-1.11-1.13-1.665-2.698-1.665-4.707c0-2.008,0.39-3.853,1.172-5.535
				c0.78-1.682,1.843-2.964,3.188-3.847C289.011,150.77,290.563,150.329,292.32,150.329z M294.072,156.773
				c0-0.864-0.182-1.541-0.546-2.029c-0.364-0.49-0.892-0.733-1.581-0.733c-0.75,0-1.44,0.318-2.068,0.955
				c-0.63,0.636-1.132,1.511-1.506,2.624c-0.376,1.114-0.563,2.254-0.563,3.422c0,1.833,0.757,2.749,2.273,2.749
				c0.721,0,1.388-0.313,2.006-0.942c0.618-0.63,1.103-1.477,1.455-2.546C293.896,159.206,294.072,158.039,294.072,156.773z"/>
			<path id="XMLID_328_" fill="#DC4913" d="M304.813,163.184l0.455-1.182l1.066-2.637l3.808-8.775h3.819v9.002
				c0,1.182-0.098,2.38-0.296,3.591c0.075-0.211,0.579-1.523,1.513-3.933l3.443-8.661h4.398l-7.217,16.618h-5.241v-7.047
				c0-1.175,0.051-2.403,0.149-3.682c-0.25,1.007-0.698,2.329-1.341,3.967l-2.875,6.764h-4.934l-0.556-16.618h4.206l-0.114,8.333
				C305.051,160.944,304.956,162.366,304.813,163.184z"/>
			<path id="XMLID_330_" fill="#DC4913" d="M331.285,167.208h-9.866l3.513-16.618h9.866l-0.74,3.604h-5.421l-0.535,2.613h5.047
				l-0.818,3.604h-5.047l-0.647,3.137h5.421L331.285,167.208z"/>
			<path id="XMLID_332_" fill="#DC4913" d="M340.231,161.161l-1.283,6.047h-4.445l3.513-16.618h4.398
				c1.909,0,3.374,0.38,4.389,1.137c1.014,0.757,1.521,1.897,1.521,3.422c0,1.182-0.267,2.212-0.806,3.091
				c-0.539,0.878-1.337,1.549-2.397,2.011l2.546,5.865l0.455,1.091h-4.844l-2.215-6.047L340.231,161.161L340.231,161.161z
				 M340.948,157.786h0.581c0.719,0,1.291-0.208,1.715-0.62c0.425-0.413,0.636-0.99,0.636-1.733c0-0.471-0.131-0.827-0.392-1.074
				c-0.262-0.246-0.642-0.37-1.142-0.37h-0.603L340.948,157.786z"/>
			<path id="XMLID_335_" fill="#DC4913" d="M365.498,150.329c1.971,0,3.504,0.562,4.599,1.688c1.095,1.124,1.642,2.695,1.642,4.711
				c0,2.016-0.378,3.859-1.132,5.529c-0.754,1.672-1.794,2.952-3.12,3.841c-1.326,0.89-2.864,1.336-4.615,1.336
				c-2.039,0-3.613-0.564-4.723-1.692c-1.11-1.13-1.665-2.698-1.665-4.707c0-2.008,0.39-3.853,1.172-5.535
				c0.78-1.682,1.843-2.964,3.188-3.847C362.19,150.77,363.741,150.329,365.498,150.329z M367.25,156.773
				c0-0.864-0.182-1.541-0.546-2.029c-0.364-0.49-0.892-0.733-1.581-0.733c-0.75,0-1.44,0.318-2.068,0.955
				c-0.63,0.636-1.132,1.511-1.506,2.624c-0.376,1.114-0.564,2.254-0.564,3.422c0,1.833,0.757,2.749,2.273,2.749
				c0.721,0,1.388-0.313,2.006-0.942c0.618-0.63,1.103-1.477,1.455-2.546C367.074,159.206,367.25,158.039,367.25,156.773z"/>
			<path id="XMLID_338_" fill="#DC4913" d="M377.277,167.208h-4.445l3.513-16.618h9.798l-0.762,3.604h-5.353l-0.659,3.17h4.956
				l-0.783,3.625h-4.98L377.277,167.208z"/>
		</g>
		<polygon id="XMLID_955_" fill="#DC4913" points="399.138,146.22 387.391,171.171 392.393,172.756 399.268,158.226 407.427,175 
			419.236,150.205 414.239,148.623 407.299,163.056 		"/>
	</g>
</g>
</svg>
