<?xml version="1.0" encoding="utf-8"?>
<!-- Generator: Adobe Illustrator 22.0.1, SVG Export Plug-In . SVG Version: 6.00 Build 0)  -->
<svg version="1.1" id="Capa_1" xmlns="http://www.w3.org/2000/svg" xmlns:xlink="http://www.w3.org/1999/xlink" x="0px" y="0px"
	 width="450px" height="267px" viewBox="0 0 450 267" enable-background="new 0 0 450 267" xml:space="preserve">
<polygon fill="none" stroke="#7A00DB" stroke-width="1.7284" stroke-miterlimit="10" points="6.25,75.375 6.25,263.265 
	414.443,263.265 447,193.233 447,4 39.146,4 "/>
<g id="XMLID_399_">
	<g id="XMLID_694_">
		<g id="XMLID_749_">
			<path id="XMLID_776_" fill="#7A00DB" d="M41.598,126.817l-1.604,4.043h-6.422l8.949-23.267h6.603l8.768,23.267H51.44
				l-1.513-4.043H41.598z M45.825,114.784h-0.061l-2.503,7.405h5.029L45.825,114.784z"/>
			<path id="XMLID_774_" fill="#7A00DB" d="M58.959,107.008h3.527l6.464,8.298h0.036v-8.298h3.521v13.571h-3.521l-6.464-8.315
				h-0.036v8.315h-3.527C58.959,120.579,58.959,107.008,58.959,107.008z"/>
			<path id="XMLID_772_" fill="#7A00DB" d="M73.667,134.717v-1.543h15.431v1.543H73.667z"/>
			<path id="XMLID_770_" fill="#7A00DB" d="M106.682,110.885h-9.328v5.593h9.058v3.301h-9.058v7.779h9.328v3.301H93.838v-23.276
				h12.844V110.885L106.682,110.885z"/>
			<path id="XMLID_768_" fill="#7A00DB" d="M116.168,118.694l-6.41-11.11h3.998l4.444,7.885l4.673-7.885h4.028l-6.711,11.11
				l7.043,12.166h-3.938l-5.156-8.91l-5.307,8.91h-3.98L116.168,118.694z"/>
			<path id="XMLID_765_" fill="#7A00DB" d="M133.878,121.408v9.452h-3.51v-23.276h3.98c1.948,0,3.419,0.135,4.414,0.407
				c1.007,0.271,1.893,0.784,2.653,1.538c1.339,1.306,2.008,2.955,2.008,4.945c0,2.128-0.717,3.817-2.141,5.066
				c-1.43,1.245-3.353,1.869-5.777,1.869h-1.627V121.408z M133.878,118.152h1.315c3.226,0,4.836-1.243,4.836-3.723
				c0-2.403-1.664-3.603-4.987-3.603h-1.164V118.152L133.878,118.152z"/>
			<path id="XMLID_763_" fill="#7A00DB" d="M159.886,110.885h-9.335v5.593h9.063v3.301h-9.063v7.779h9.335v3.301h-12.844v-23.276
				h12.844V110.885z"/>
			<path id="XMLID_760_" fill="#7A00DB" d="M172.381,120.94l7.206,9.919h-4.294l-6.651-9.528h-0.633v9.528h-3.51v-23.276h4.112
				c3.075,0,5.301,0.576,6.663,1.734c1.508,1.284,2.261,2.985,2.261,5.096c0,1.646-0.47,3.064-1.417,4.251
				C175.179,119.849,173.93,120.608,172.381,120.94z M168.009,118.272h1.115c3.329,0,4.993-1.272,4.993-3.814
				c0-2.382-1.622-3.573-4.855-3.573h-1.254L168.009,118.272L168.009,118.272z"/>
			<path id="XMLID_758_" fill="#7A00DB" d="M186.6,107.584v23.276h-3.516v-23.276H186.6z"/>
			<path id="XMLID_756_" fill="#7A00DB" d="M205.034,110.885h-9.328v5.593h9.058v3.301h-9.058v7.779h9.328v3.301H192.19v-23.276
				h12.844V110.885L205.034,110.885z"/>
			<path id="XMLID_754_" fill="#7A00DB" d="M209.648,130.86V106l16.975,17.759v-16.176h3.516v24.693l-16.975-17.714v16.297
				L209.648,130.86L209.648,130.86z"/>
			<path id="XMLID_752_" fill="#7A00DB" d="M252.914,108.826v4.155c-2.026-1.7-4.131-2.547-6.302-2.547
				c-2.388,0-4.408,0.859-6.042,2.578c-1.652,1.706-2.473,3.799-2.473,6.272c0,2.442,0.82,4.501,2.473,6.181
				c1.646,1.676,3.666,2.517,6.061,2.517c1.236,0,2.286-0.202,3.147-0.603c0.482-0.202,0.983-0.474,1.502-0.814
				c0.519-0.344,1.061-0.754,1.634-1.236v4.242c-2.008,1.143-4.119,1.713-6.331,1.713c-3.323,0-6.163-1.161-8.515-3.482
				c-2.345-2.343-3.516-5.168-3.516-8.472c0-2.967,0.983-5.608,2.943-7.93c2.412-2.847,5.529-4.266,9.359-4.266
				C248.946,107.131,250.967,107.695,252.914,108.826z"/>
			<path id="XMLID_750_" fill="#7A00DB" d="M270.191,110.885h-9.328v5.593h9.058v3.301h-9.058v7.779h9.328v3.301h-12.844v-23.276
				h12.844V110.885z"/>
		</g>
		<g id="XMLID_695_">
			<g id="XMLID_698_" opacity="0.3">
				<path id="XMLID_747_" fill="#7A00DB" d="M43.012,171.178h-9.554l3.402-16.093h9.554l-0.717,3.492h-5.249l-0.518,2.53h4.887
					l-0.792,3.488h-4.887l-0.627,3.038h5.249L43.012,171.178z"/>
				<path id="XMLID_745_" fill="#7A00DB" d="M60.283,171.178h-5.009l-3.18-11.314h-0.088c-0.214,2.134-0.424,3.667-0.628,4.599
					l-1.421,6.716h-3.83l3.402-16.093h5.007l3.149,10.82h0.098c0.214-1.73,0.422-3.092,0.627-4.084l1.443-6.736h3.83L60.283,171.178
					z"/>
				<path id="XMLID_743_" fill="#7A00DB" d="M71.618,161.756h6.712l-1.837,8.751c-1.834,0.593-3.746,0.891-5.735,0.891
					c-1.914,0-3.4-0.559-4.457-1.673c-1.057-1.118-1.585-2.696-1.585-4.744c0-1.957,0.403-3.729,1.211-5.303
					c0.807-1.578,1.914-2.781,3.319-3.607c1.405-0.826,3.04-1.236,4.902-1.236c1.952,0,3.597,0.39,4.931,1.175l-1.617,3.404
					c-1.122-0.66-2.246-0.992-3.368-0.992c-0.968,0-1.826,0.268-2.571,0.799c-0.745,0.531-1.34,1.317-1.783,2.361
					c-0.443,1.04-0.666,2.154-0.666,3.336c0,1.937,0.767,2.905,2.299,2.905c0.464,0,0.952-0.054,1.465-0.156l0.561-2.554H70.88
					L71.618,161.756z"/>
				<path id="XMLID_740_" fill="#7A00DB" d="M88.756,168.161h-4.931l-1.377,3.017h-4.467l8.189-16.093h5.536l1.353,16.093h-4.192
					L88.756,168.161z M85.398,164.727h3.226l-0.188-4.667l-0.02-0.945c0-0.552,0.013-1.033,0.044-1.443
					c-0.176,0.63-0.401,1.24-0.672,1.829L85.398,164.727z"/>
				<path id="XMLID_738_" fill="#7A00DB" d="M102.592,161.756h6.712l-1.837,8.751c-1.834,0.593-3.746,0.891-5.735,0.891
					c-1.914,0-3.4-0.559-4.457-1.673c-1.057-1.118-1.585-2.696-1.585-4.744c0-1.957,0.403-3.729,1.211-5.303
					c0.807-1.578,1.914-2.781,3.319-3.607c1.405-0.826,3.04-1.236,4.902-1.236c1.952,0,3.597,0.39,4.931,1.175l-1.617,3.404
					c-1.122-0.66-2.246-0.992-3.368-0.992c-0.968,0-1.826,0.268-2.571,0.799c-0.745,0.531-1.34,1.317-1.783,2.361
					c-0.443,1.04-0.666,2.154-0.666,3.336c0,1.937,0.767,2.905,2.299,2.905c0.464,0,0.952-0.054,1.465-0.156l0.561-2.554h-2.52
					L102.592,161.756z"/>
				<path id="XMLID_736_" fill="#7A00DB" d="M120.198,171.178h-9.554l3.402-16.093h9.554l-0.717,3.492h-5.249l-0.518,2.53h4.887
					l-0.792,3.488h-4.887l-0.627,3.038h5.249L120.198,171.178z"/>
				<path id="XMLID_734_" fill="#7A00DB" d="M129.423,171.178v-11.545h-0.088c-0.491,3.058-0.807,4.937-0.946,5.635l-1.244,5.909
					h-3.83l3.402-16.093h5.701v11.426h0.088l5.261-11.426h5.789l-3.444,16.093h-3.864l1.287-6.042
					c0.368-1.673,0.764-3.275,1.188-4.799l0.166-0.704h-0.088l-5.305,11.545L129.423,171.178L129.423,171.178z"/>
				<path id="XMLID_732_" fill="#7A00DB" d="M153.362,171.178h-9.554l3.402-16.093h9.554l-0.717,3.492h-5.249l-0.518,2.53h4.887
					l-0.792,3.488h-4.887l-0.627,3.038h5.249L153.362,171.178z"/>
				<path id="XMLID_730_" fill="#7A00DB" d="M170.632,171.178h-5.009l-3.18-11.314h-0.088c-0.214,2.134-0.424,3.667-0.628,4.599
					l-1.421,6.716h-3.83l3.402-16.093h5.007l3.149,10.82h0.098c0.214-1.73,0.422-3.092,0.627-4.084l1.443-6.736h3.83
					L170.632,171.178z"/>
				<path id="XMLID_728_" fill="#7A00DB" d="M180.825,171.178h-4.305l2.608-12.537h-3.488l0.758-3.556h11.314l-0.781,3.556h-3.5
					L180.825,171.178z"/>
				<path id="XMLID_726_" fill="#7A00DB" d="M199.116,171.178h-4.305l2.608-12.537h-3.488l0.758-3.556h11.314l-0.781,3.556h-3.5
					L199.116,171.178z"/>
				<path id="XMLID_723_" fill="#7A00DB" d="M214.526,154.834c1.908,0,3.393,0.542,4.453,1.632s1.59,2.611,1.59,4.562
					c0,1.954-0.366,3.738-1.096,5.354c-0.73,1.619-1.737,2.858-3.021,3.722c-1.284,0.86-2.774,1.293-4.468,1.293
					c-1.974,0-3.498-0.548-4.573-1.639c-1.075-1.094-1.612-2.614-1.612-4.558s0.377-3.732,1.135-5.361
					c0.755-1.629,1.785-2.869,3.087-3.725C211.321,155.261,212.824,154.834,214.526,154.834z M216.222,161.072
					c0-0.837-0.176-1.49-0.529-1.964c-0.352-0.474-0.863-0.708-1.531-0.708c-0.726,0-1.394,0.308-2.003,0.925
					s-1.096,1.463-1.458,2.54c-0.364,1.081-0.546,2.184-0.546,3.316c0,1.775,0.733,2.662,2.201,2.662
					c0.698,0,1.344-0.304,1.942-0.914s1.068-1.43,1.409-2.466C216.051,163.43,216.222,162.298,216.222,161.072z"/>
				<path id="XMLID_721_" fill="#7A00DB" d="M234.018,171.178h-4.305l2.608-12.537h-3.488l0.758-3.556h11.314l-0.781,3.556h-3.5
					L234.018,171.178z"/>
				<path id="XMLID_719_" fill="#7A00DB" d="M252.355,171.178h-4.305l1.375-6.56h-3.806l-1.398,6.56h-4.305l3.402-16.093h4.303
					l-1.233,5.967h3.83l1.233-5.967h4.314L252.355,171.178z"/>
				<path id="XMLID_717_" fill="#7A00DB" d="M265.561,171.178h-9.554l3.402-16.093h9.554l-0.717,3.492h-5.249l-0.518,2.53h4.887
					l-0.792,3.488h-4.887l-0.627,3.038h5.249L265.561,171.178z"/>
				<path id="XMLID_714_" fill="#7A00DB" d="M287.94,159.908c0,1.849-0.63,3.299-1.888,4.352s-2.982,1.582-5.168,1.582h-0.946
					l-1.101,5.337h-4.305l3.402-16.093h4.106c1.899,0,3.357,0.417,4.374,1.25C287.43,157.168,287.94,158.36,287.94,159.908z
					 M280.708,162.319h0.693c0.668,0,1.207-0.216,1.619-0.647c0.411-0.426,0.616-0.972,0.616-1.632c0-0.433-0.132-0.782-0.396-1.047
					c-0.264-0.264-0.627-0.396-1.09-0.396h-0.65L280.708,162.319z"/>
				<path id="XMLID_711_" fill="#7A00DB" d="M298.086,154.834c1.908,0,3.393,0.542,4.453,1.632s1.59,2.611,1.59,4.562
					c0,1.954-0.366,3.738-1.096,5.354c-0.73,1.619-1.737,2.858-3.021,3.722c-1.284,0.86-2.774,1.293-4.468,1.293
					c-1.974,0-3.498-0.548-4.573-1.639c-1.075-1.094-1.612-2.614-1.612-4.558s0.377-3.732,1.135-5.361
					c0.755-1.629,1.785-2.869,3.087-3.725C294.882,155.261,296.384,154.834,298.086,154.834z M299.783,161.072
					c0-0.837-0.176-1.49-0.529-1.964c-0.352-0.474-0.863-0.708-1.531-0.708c-0.726,0-1.394,0.308-2.003,0.925
					s-1.096,1.463-1.458,2.54c-0.364,1.081-0.546,2.184-0.546,3.316c0,1.775,0.733,2.662,2.201,2.662
					c0.698,0,1.344-0.304,1.942-0.914s1.068-1.43,1.409-2.466C299.612,163.43,299.783,162.298,299.783,161.072z"/>
				<path id="XMLID_709_" fill="#7A00DB" d="M310.183,167.28l0.441-1.145l1.033-2.554l3.688-8.497h3.698v8.717
					c0,1.145-0.095,2.306-0.287,3.478c0.073-0.203,0.561-1.473,1.465-3.806l3.334-8.388h4.258l-6.988,16.093h-5.074v-6.824
					c0-1.138,0.049-2.327,0.144-3.566c-0.242,0.976-0.676,2.256-1.299,3.841l-2.783,6.549h-4.778l-0.539-16.093h4.072l-0.11,8.071
					C310.413,165.112,310.322,166.487,310.183,167.28z"/>
				<path id="XMLID_707_" fill="#7A00DB" d="M335.816,171.178h-9.554l3.402-16.093h9.554l-0.717,3.492h-5.249l-0.518,2.53h4.887
					l-0.792,3.488h-4.887l-0.627,3.038h5.249L335.816,171.178z"/>
				<path id="XMLID_704_" fill="#7A00DB" d="M344.477,165.322l-1.243,5.855h-4.305l3.402-16.093h4.258
					c1.849,0,3.267,0.369,4.25,1.101c0.982,0.735,1.473,1.839,1.473,3.316c0,1.145-0.259,2.141-0.781,2.993
					c-0.522,0.85-1.295,1.5-2.321,1.948l2.466,5.679l0.441,1.057h-4.691l-2.145-5.855L344.477,165.322L344.477,165.322z
					 M345.171,162.055h0.563c0.696,0,1.25-0.203,1.661-0.603s0.616-0.959,0.616-1.676c0-0.458-0.127-0.803-0.379-1.04
					c-0.254-0.24-0.621-0.359-1.106-0.359h-0.584L345.171,162.055z"/>
				<path id="XMLID_701_" fill="#7A00DB" d="M368.943,154.834c1.908,0,3.393,0.542,4.453,1.632s1.59,2.611,1.59,4.562
					c0,1.954-0.366,3.738-1.096,5.354c-0.73,1.619-1.737,2.858-3.021,3.722c-1.284,0.86-2.774,1.293-4.468,1.293
					c-1.974,0-3.498-0.548-4.573-1.639c-1.075-1.094-1.612-2.614-1.612-4.558s0.377-3.732,1.135-5.361
					c0.755-1.629,1.785-2.869,3.087-3.725C365.74,155.261,367.242,154.834,368.943,154.834z M370.64,161.072
					c0-0.837-0.176-1.49-0.529-1.964c-0.352-0.474-0.863-0.708-1.531-0.708c-0.726,0-1.394,0.308-2.003,0.925
					s-1.096,1.463-1.458,2.54c-0.364,1.081-0.546,2.184-0.546,3.316c0,1.775,0.733,2.662,2.201,2.662
					c0.698,0,1.344-0.304,1.942-0.914s1.068-1.43,1.409-2.466C370.469,163.43,370.64,162.298,370.64,161.072z"/>
				<path id="XMLID_699_" fill="#7A00DB" d="M380.348,171.178h-4.305l3.402-16.093h9.488l-0.738,3.492h-5.183l-0.638,3.068h4.799
					l-0.758,3.511h-4.823L380.348,171.178z"/>
			</g>
			<g id="XMLID_696_" opacity="0.28">
				<polygon id="XMLID_697_" fill="#7A00DB" points="401.889,150.465 390.183,175.327 395.167,176.905 402.017,162.428 
					410.147,179.142 421.915,154.435 416.935,152.86 410.02,167.24 				"/>
			</g>
		</g>
	</g>
</g>
</svg>
