<?xml version="1.0" encoding="UTF-8"?>
<svg width="604px" height="77px" viewBox="0 0 604 77" version="1.1" xmlns="http://www.w3.org/2000/svg" xmlns:xlink="http://www.w3.org/1999/xlink">
    <!-- Generator: Sketch 49.3 (51167) - http://www.bohemiancoding.com/sketch -->
    <title>logo-bco-commerce</title>
    <desc>Created with Sketch.</desc>
    <defs></defs>
    <g id="Page-1" stroke="none" stroke-width="1" fill="none" fill-rule="evenodd">
        <g id="logo-bco-commerce" fill="#FFFFFF" fill-rule="nonzero">
            <path d="M43.007,54.088 L20.825,54.088 L17.26,64.466 L0.702,64.466 L23.439,4.734 L40.393,4.734 L63.13,64.466 L46.572,64.466 L43.007,54.088 Z M38.887,42.285 L31.916,22.399 L24.945,42.284 L38.887,42.285 Z" id="Shape"></path>
            <polygon id="Shape" points="67.331 38.086 67.331 3.262 76.384 3.262 93.103 24.554 93.103 3.262 102.109 3.262 102.109 38.086 93.103 38.086 76.383 16.794 76.383 38.086"></polygon>
            <polygon id="Shape" points="138.483 77 105.604 77 105.604 71.584 138.483 71.584"></polygon>
            <path d="M189.622,7.951 L189.622,18.628 C184.412,14.27 179.023,12.091 173.452,12.091 C167.314,12.091 162.143,14.296 157.94,18.705 C153.71,23.09 151.597,28.454 151.597,34.797 C151.597,41.064 153.711,46.35 157.94,50.657 C162.17,54.964 167.352,57.117 173.49,57.117 C176.662,57.117 179.356,56.601 181.574,55.569 C182.812,55.054 184.095,54.358 185.423,53.481 C186.751,52.605 188.151,51.547 189.621,50.309 L189.621,61.179 C184.462,64.093 179.047,65.549 173.373,65.549 C164.838,65.549 157.553,62.571 151.518,56.614 C145.509,50.605 142.505,43.359 142.505,34.875 C142.505,27.268 145.019,20.485 150.048,14.528 C156.237,7.23 164.245,3.581 174.07,3.581 C179.434,3.581 184.617,5.038 189.622,7.951 Z" id="Shape"></path>
            <path d="M197.629,34.333 C197.629,25.927 200.71,18.705 206.873,12.671 C213.01,6.636 220.386,3.618 228.999,3.618 C237.51,3.618 244.807,6.661 250.894,12.747 C257.006,18.834 260.061,26.144 260.061,34.681 C260.061,43.268 256.992,50.553 250.855,56.535 C244.692,62.544 237.251,65.548 228.535,65.548 C220.825,65.548 213.9,62.88 207.763,57.542 C201.007,51.637 197.629,43.901 197.629,34.333 Z M206.719,34.45 C206.719,41.051 208.936,46.48 213.372,50.734 C217.781,54.99 222.874,57.118 228.651,57.118 C234.918,57.118 240.204,54.952 244.51,50.619 C248.817,46.236 250.97,40.897 250.97,34.605 C250.97,28.236 248.843,22.898 244.588,18.591 C240.358,14.258 235.123,12.092 228.884,12.092 C222.668,12.092 217.421,14.258 213.141,18.591 C208.859,22.87 206.719,28.157 206.719,34.45 Z" id="Shape"></path>
            <polygon id="Shape" points="269.307 64.466 281.878 0.255 302.381 46.673 323.617 0.255 334.911 64.467 325.667 64.467 319.903 28.416 302.225 67.214 285.051 28.377 278.63 64.468"></polygon>
            <polygon id="Shape" points="345.471 64.466 358.042 0.255 378.545 46.673 399.781 0.255 411.075 64.467 401.831 64.467 396.067 28.416 378.39 67.214 361.216 28.377 354.795 64.468"></polygon>
            <polygon id="Shape" points="456.683 13.212 432.739 13.212 432.739 27.563 455.987 27.563 455.987 36.035 432.739 36.035 432.739 55.995 456.683 55.995 456.683 64.467 423.726 64.467 423.726 4.741 456.683 4.741"></polygon>
            <path d="M488.749,39.013 L507.24,64.467 L496.215,64.467 L479.157,40.02 L477.531,40.02 L477.531,64.467 L468.518,64.467 L468.518,4.742 L479.078,4.742 C486.969,4.742 492.669,6.225 496.175,9.19 C500.043,12.491 501.978,16.849 501.978,22.264 C501.978,26.495 500.765,30.131 498.342,33.173 C495.919,36.216 492.721,38.163 488.749,39.013 Z M477.532,32.167 L480.395,32.167 C488.932,32.167 493.2,28.905 493.2,22.381 C493.2,16.269 489.047,13.213 480.744,13.213 L477.533,13.213 L477.532,32.167 Z" id="Shape"></path>
            <path d="M558.997,7.952 L558.997,18.629 C553.787,14.271 548.398,12.092 542.827,12.092 C536.689,12.092 531.518,14.297 527.315,18.706 C523.085,23.091 520.972,28.455 520.972,34.798 C520.972,41.065 523.086,46.351 527.315,50.658 C531.545,54.965 536.727,57.118 542.865,57.118 C546.037,57.118 548.731,56.602 550.949,55.57 C552.187,55.055 553.47,54.359 554.798,53.482 C556.126,52.606 557.526,51.548 558.996,50.31 L558.996,61.18 C553.837,64.094 548.422,65.55 542.748,65.55 C534.213,65.55 526.928,62.572 520.893,56.615 C514.884,50.606 511.88,43.36 511.88,34.876 C511.88,27.269 514.394,20.486 519.422,14.529 C525.611,7.231 533.619,3.582 543.444,3.582 C548.81,3.581 553.992,5.038 558.997,7.952 Z" id="Shape"></path>
            <polygon id="Shape" points="603.326 13.213 579.382 13.213 579.382 27.564 602.63 27.564 602.63 36.036 579.382 36.036 579.382 55.996 603.326 55.996 603.326 64.468 570.369 64.468 570.369 4.742 603.326 4.742"></polygon>
        </g>
    </g>
</svg>