<?xml version="1.0" encoding="utf-8"?>
<!-- Generator: Adobe Illustrator 22.0.1, SVG Export Plug-In . SVG Version: 6.00 Build 0)  -->
<svg version="1.1" id="Capa_1" xmlns="http://www.w3.org/2000/svg" xmlns:xlink="http://www.w3.org/1999/xlink" x="0px" y="0px"
	 width="392.667px" height="79.776px" viewBox="0 0 392.667 79.776" enable-background="new 0 0 392.667 79.776"
	 xml:space="preserve">
<g>
	<g>
		<path fill="#3A13D8" d="M27.167,26.655h-8.099l-1.302,3.789h-6.045l8.301-21.809h6.19l8.301,21.809h-6.045L27.167,26.655z
			 M25.663,22.346l-2.545-7.26l-2.545,7.26H25.663z"/>
		<path fill="#3A13D8" d="M36.048,20.812V8.098h3.305l6.104,7.774V8.098h3.288v12.715h-3.288l-6.104-7.774v7.774H36.048z"/>
		<path fill="#3A13D8" d="M62.026,35.02H50.021v-1.978h12.004V35.02z"/>
		<path fill="#3A13D8" d="M80.697,9.81v3.898c-1.902-1.591-3.87-2.387-5.904-2.387c-2.241,0-4.129,0.805-5.663,2.415
			c-1.544,1.601-2.316,3.559-2.316,5.875c0,2.288,0.772,4.218,2.316,5.791c1.544,1.573,3.437,2.359,5.678,2.359
			c1.158,0,2.142-0.188,2.952-0.565c0.452-0.188,0.92-0.442,1.405-0.763c0.485-0.32,0.996-0.706,1.533-1.158v3.969
			c-1.883,1.064-3.861,1.596-5.932,1.596c-3.116,0-5.776-1.087-7.979-3.262c-2.194-2.194-3.291-4.839-3.291-7.937
			c0-2.777,0.918-5.254,2.754-7.429c2.26-2.665,5.183-3.997,8.771-3.997C76.978,8.215,78.87,8.746,80.697,9.81z"/>
		<path fill="#3A13D8" d="M83.621,19.442c0-3.069,1.125-5.706,3.375-7.909c2.241-2.203,4.934-3.305,8.078-3.305
			c3.107,0,5.772,1.111,7.994,3.333c2.231,2.222,3.347,4.892,3.347,8.008c0,3.135-1.121,5.795-3.361,7.979
			c-2.25,2.194-4.967,3.291-8.149,3.291c-2.815,0-5.343-0.974-7.584-2.923C84.854,25.76,83.621,22.935,83.621,19.442z M86.94,19.485
			c0,2.41,0.81,4.392,2.429,5.945c1.61,1.554,3.469,2.331,5.579,2.331c2.288,0,4.218-0.791,5.79-2.373
			c1.573-1.6,2.359-3.55,2.359-5.847c0-2.325-0.777-4.274-2.33-5.847c-1.544-1.582-3.456-2.373-5.734-2.373
			c-2.269,0-4.185,0.791-5.748,2.373C87.721,15.257,86.94,17.187,86.94,19.485z"/>
		<path fill="#3A13D8" d="M109.791,30.444L114.381,7l7.485,16.947L129.62,7l4.124,23.444h-3.375l-2.104-13.163l-6.454,14.166
			l-6.271-14.18l-2.344,13.177L109.791,30.444z"/>
		<path fill="#3A13D8" d="M137.599,30.444L142.189,7l7.485,16.947L157.428,7l4.124,23.444h-3.375l-2.104-13.163l-6.454,14.166
			l-6.271-14.18l-2.344,13.177L137.599,30.444z"/>
		<path fill="#3A13D8" d="M178.204,11.731h-8.742v5.24h8.488v3.093h-8.488v7.287h8.742v3.093h-12.033V8.638h12.033V11.731z"/>
		<path fill="#3A13D8" d="M189.911,21.151l6.751,9.293h-4.025l-6.228-8.926h-0.593v8.926h-3.291V8.638h3.856
			c2.881,0,4.962,0.542,6.242,1.624c1.412,1.205,2.118,2.796,2.118,4.774c0,1.545-0.443,2.872-1.328,3.983
			C192.529,20.13,191.361,20.84,189.911,21.151z M185.815,18.651h1.045c3.117,0,4.675-1.191,4.675-3.573
			c0-2.231-1.516-3.347-4.548-3.347h-1.172V18.651z"/>
		<path fill="#3A13D8" d="M215.559,9.81v3.898c-1.902-1.591-3.87-2.387-5.904-2.387c-2.241,0-4.129,0.805-5.663,2.415
			c-1.544,1.601-2.316,3.559-2.316,5.875c0,2.288,0.772,4.218,2.316,5.791c1.544,1.573,3.436,2.359,5.678,2.359
			c1.158,0,2.142-0.188,2.952-0.565c0.452-0.188,0.92-0.442,1.405-0.763c0.485-0.32,0.996-0.706,1.533-1.158v3.969
			c-1.883,1.064-3.861,1.596-5.932,1.596c-3.116,0-5.776-1.087-7.979-3.262c-2.194-2.194-3.291-4.839-3.291-7.937
			c0-2.777,0.918-5.254,2.754-7.429c2.26-2.665,5.183-3.997,8.771-3.997C211.84,8.215,213.732,8.747,215.559,9.81z"/>
		<path fill="#3A13D8" d="M231.744,11.731h-8.742v5.24h8.488v3.093h-8.488v7.287h8.742v3.093h-12.033V8.638h12.033V11.731z"/>
	</g>
	<g opacity="0.3">
		<g>
			<g>
				<path fill="#3A13D8" d="M18.049,49.175c1.803,0,3.205,0.515,4.207,1.545c1.002,1.03,1.503,2.467,1.503,4.311
					c0,1.844-0.345,3.531-1.035,5.06c-0.69,1.529-1.642,2.701-2.855,3.516c-1.213,0.815-2.62,1.222-4.222,1.222
					c-1.865,0-3.305-0.517-4.321-1.55s-1.524-2.469-1.524-4.306s0.357-3.526,1.071-5.065c0.714-1.539,1.686-2.713,2.917-3.52
					C15.021,49.579,16.44,49.175,18.049,49.175z M19.651,55.072c0-0.79-0.166-1.409-0.499-1.857
					c-0.333-0.447-0.815-0.671-1.445-0.671c-0.687,0-1.318,0.291-1.893,0.874c-0.576,0.582-1.035,1.383-1.378,2.402
					c-0.343,1.02-0.515,2.063-0.515,3.131c0,1.678,0.693,2.517,2.08,2.517c0.658,0,1.27-0.288,1.836-0.864s1.009-1.352,1.331-2.33
					C19.49,57.298,19.651,56.23,19.651,55.072z"/>
				<path fill="#3A13D8" d="M30.529,64.619v-10.91h-0.083c-0.465,2.891-0.763,4.666-0.894,5.325l-1.175,5.585h-3.619l3.214-15.205
					h5.387V60.21h0.083l4.972-10.795h5.47l-3.255,15.205h-3.651l1.217-5.71c0.347-1.581,0.721-3.092,1.123-4.534l0.156-0.666h-0.083
					l-5.013,10.91L30.529,64.619z"/>
				<path fill="#3A13D8" d="M57.497,64.619h-4.732l-3.006-10.691h-0.083c-0.201,2.017-0.399,3.467-0.593,4.347l-1.342,6.344h-3.619
					l3.214-15.205h4.732l2.975,10.223h0.094c0.201-1.636,0.399-2.923,0.593-3.858l1.362-6.365h3.619L57.497,64.619z"/>
				<path fill="#3A13D8" d="M60.929,64.619l3.214-15.205h4.129L65.058,64.62L60.929,64.619z"/>
				<path fill="#3A13D8" d="M77.33,52.565c-0.749,0-1.424,0.271-2.028,0.811c-0.603,0.541-1.076,1.286-1.42,2.236
					c-0.343,0.95-0.515,1.98-0.515,3.089c0,0.929,0.194,1.622,0.582,2.08c0.388,0.458,0.947,0.687,1.674,0.687
					c0.576,0,1.158-0.071,1.748-0.213c0.589-0.142,1.283-0.383,2.08-0.723v3.359c-1.408,0.624-2.933,0.936-4.577,0.936
					c-1.803,0-3.191-0.515-4.165-1.545c-0.974-1.03-1.461-2.487-1.461-4.374c0-1.844,0.352-3.536,1.056-5.075
					c0.704-1.539,1.66-2.7,2.87-3.484c1.21-0.784,2.595-1.175,4.155-1.175c1.838,0,3.505,0.454,5.003,1.363l-1.539,3.172
					c-0.645-0.381-1.238-0.667-1.779-0.858C78.474,52.661,77.913,52.565,77.33,52.565z"/>
				<path fill="#3A13D8" d="M93.679,64.62h-4.066l1.3-6.199h-3.598l-1.321,6.199h-4.066l3.214-15.205h4.066l-1.165,5.637h3.619
					l1.165-5.637h4.077L93.679,64.62z"/>
				<path fill="#3A13D8" d="M105.713,61.77h-4.66l-1.3,2.849h-4.223l7.738-15.205h5.231l1.279,15.205h-3.963L105.713,61.77z
					 M102.541,58.525h3.047l-0.177-4.41l-0.021-0.894c0-0.52,0.014-0.974,0.042-1.362c-0.166,0.596-0.378,1.172-0.634,1.727
					L102.541,58.525z"/>
				<path fill="#3A13D8" d="M124.901,64.62h-4.732l-3.006-10.691h-0.083c-0.201,2.017-0.399,3.467-0.593,4.347l-1.342,6.344h-3.619
					l3.214-15.205h4.732l2.975,10.223h0.094c0.201-1.636,0.399-2.923,0.593-3.858l1.362-6.365h3.619L124.901,64.62z"/>
				<path fill="#3A13D8" d="M141.729,64.62h-4.732l-3.006-10.691h-0.083c-0.201,2.017-0.399,3.467-0.593,4.347l-1.342,6.344h-3.619
					l3.214-15.205h4.732l2.975,10.223h0.094c0.201-1.636,0.399-2.923,0.593-3.858l1.362-6.365h3.619L141.729,64.62z"/>
				<path fill="#3A13D8" d="M154.209,64.62h-9.027l3.214-15.205h9.027l-0.676,3.297h-4.961l-0.489,2.392h4.618l-0.749,3.297h-4.618
					l-0.593,2.871h4.961L154.209,64.62z"/>
				<path fill="#3A13D8" d="M157.152,64.62l3.214-15.205h4.066l-2.506,11.888h4.961l-0.707,3.318L157.152,64.62z"/>
				<path fill="#3A13D8" d="M180.085,64.62h-4.067l2.465-11.846h-3.297l0.718-3.359h10.691l-0.738,3.359h-3.307L180.085,64.62z"/>
				<path fill="#3A13D8" d="M194.645,49.176c1.803,0,3.205,0.515,4.207,1.545c1.002,1.03,1.503,2.467,1.503,4.311
					c0,1.844-0.345,3.531-1.035,5.06c-0.69,1.529-1.641,2.701-2.855,3.516c-1.213,0.815-2.62,1.222-4.222,1.222
					c-1.865,0-3.305-0.517-4.321-1.55c-1.016-1.033-1.524-2.469-1.524-4.306c0-1.837,0.357-3.526,1.071-5.065
					c0.714-1.539,1.686-2.713,2.917-3.52C191.617,49.58,193.036,49.176,194.645,49.176z M196.247,55.072
					c0-0.79-0.166-1.409-0.499-1.857c-0.333-0.447-0.814-0.671-1.445-0.671c-0.687,0-1.318,0.291-1.893,0.874
					c-0.576,0.582-1.035,1.383-1.378,2.402c-0.343,1.02-0.515,2.063-0.515,3.131c0,1.678,0.693,2.517,2.08,2.517
					c0.658,0,1.27-0.288,1.836-0.864c0.565-0.576,1.009-1.352,1.331-2.33C196.085,57.298,196.247,56.23,196.247,55.072z"/>
				<path fill="#3A13D8" d="M213.064,64.62h-4.067l2.465-11.846h-3.297l0.718-3.359h10.691l-0.738,3.359h-3.307L213.064,64.62z"/>
				<path fill="#3A13D8" d="M230.391,64.62h-4.066l1.3-6.199h-3.598l-1.321,6.199h-4.066l3.214-15.205h4.066l-1.165,5.637h3.619
					l1.165-5.637h4.077L230.391,64.62z"/>
				<path fill="#3A13D8" d="M242.871,64.62h-9.027l3.214-15.205h9.027l-0.676,3.297h-4.961l-0.489,2.392h4.618l-0.749,3.297h-4.618
					l-0.593,2.871h4.961L242.871,64.62z"/>
				<path fill="#3A13D8" d="M264.014,53.97c0,1.748-0.594,3.119-1.783,4.114c-1.189,0.994-2.817,1.492-4.883,1.492h-0.894
					l-1.04,5.044h-4.066l3.214-15.205h3.879c1.795,0,3.174,0.393,4.134,1.18C263.534,51.383,264.014,52.508,264.014,53.97z
					 M257.182,56.248h0.655c0.631,0,1.14-0.202,1.529-0.608c0.388-0.405,0.582-0.92,0.582-1.545c0-0.409-0.125-0.738-0.375-0.988
					c-0.249-0.249-0.593-0.375-1.029-0.375h-0.614L257.182,56.248z"/>
				<path fill="#3A13D8" d="M273.603,49.176c1.803,0,3.205,0.515,4.207,1.545c1.002,1.03,1.503,2.467,1.503,4.311
					c0,1.844-0.345,3.531-1.035,5.06c-0.69,1.529-1.642,2.701-2.855,3.516c-1.213,0.815-2.62,1.222-4.222,1.222
					c-1.865,0-3.305-0.517-4.321-1.55c-1.016-1.033-1.524-2.469-1.524-4.306s0.357-3.526,1.071-5.065
					c0.714-1.539,1.686-2.713,2.917-3.52C270.575,49.58,271.994,49.176,273.603,49.176z M275.205,55.073
					c0-0.79-0.167-1.409-0.499-1.856s-0.815-0.671-1.445-0.671c-0.687,0-1.318,0.291-1.893,0.874
					c-0.576,0.582-1.035,1.383-1.378,2.402c-0.343,1.02-0.515,2.063-0.515,3.131c0,1.678,0.693,2.517,2.08,2.517
					c0.658,0,1.27-0.288,1.836-0.864c0.565-0.576,1.009-1.352,1.331-2.33C275.044,57.299,275.205,56.231,275.205,55.073z"/>
				<path fill="#3A13D8" d="M285.033,60.939l0.416-1.082l0.978-2.413l3.484-8.029h3.495v8.237c0,1.082-0.09,2.177-0.271,3.287
					c0.069-0.194,0.531-1.394,1.383-3.599l3.152-7.925h4.025L295.09,64.62h-4.795v-6.448c0-1.075,0.045-2.198,0.135-3.37
					c-0.229,0.922-0.638,2.132-1.227,3.629l-2.631,6.188h-4.514l-0.509-15.205h3.848l-0.104,7.623
					C285.252,58.89,285.165,60.19,285.033,60.939z"/>
				<path fill="#3A13D8" d="M309.255,64.62h-9.027l3.214-15.205h9.027l-0.676,3.297h-4.961l-0.489,2.392h4.618l-0.749,3.297h-4.618
					l-0.593,2.871h4.961L309.255,64.62z"/>
				<path fill="#3A13D8" d="M317.441,59.087l-1.175,5.533h-4.066l3.214-15.205h4.025c1.747,0,3.085,0.347,4.014,1.04
					c0.929,0.693,1.394,1.737,1.394,3.131c0,1.082-0.246,2.024-0.739,2.829c-0.492,0.805-1.224,1.418-2.194,1.841l2.329,5.367
					l0.416,0.999h-4.43l-2.028-5.533L317.441,59.087z M318.096,55.999h0.531c0.658,0,1.182-0.189,1.57-0.567
					c0.388-0.378,0.582-0.906,0.582-1.586c0-0.43-0.119-0.758-0.359-0.983c-0.239-0.225-0.588-0.338-1.045-0.338h-0.551
					L318.096,55.999z"/>
				<path fill="#3A13D8" d="M340.56,49.176c1.803,0,3.205,0.515,4.207,1.545c1.002,1.03,1.503,2.467,1.503,4.311
					c0,1.844-0.345,3.531-1.035,5.06c-0.69,1.529-1.641,2.701-2.855,3.516c-1.213,0.815-2.62,1.222-4.222,1.222
					c-1.865,0-3.305-0.517-4.321-1.55c-1.016-1.033-1.524-2.469-1.524-4.306s0.357-3.526,1.071-5.065
					c0.714-1.539,1.686-2.713,2.917-3.52C337.532,49.58,338.951,49.176,340.56,49.176z M342.162,55.073
					c0-0.79-0.166-1.409-0.499-1.856c-0.333-0.447-0.815-0.671-1.445-0.671c-0.687,0-1.318,0.291-1.893,0.874
					c-0.576,0.582-1.035,1.383-1.378,2.402c-0.343,1.02-0.515,2.063-0.515,3.131c0,1.678,0.693,2.517,2.08,2.517
					c0.658,0,1.27-0.288,1.836-0.864c0.565-0.576,1.009-1.352,1.331-2.33C342.001,57.299,342.162,56.231,342.162,55.073z"/>
				<path fill="#3A13D8" d="M351.335,64.621h-4.066l3.214-15.205h8.965l-0.697,3.297h-4.898l-0.603,2.902h4.534l-0.717,3.318h-4.555
					L351.335,64.621z"/>
			</g>
		</g>
		<polygon id="XMLID_1_" fill="#3A13D8" points="371.541,45.05 360.948,67.548 365.458,68.976 371.657,55.875 379.015,71 
			389.663,48.642 385.157,47.216 378.899,60.23 		"/>
	</g>
</g>
</svg>
