<?xml version="1.0" encoding="utf-8"?>
<!-- Generator: Adobe Illustrator 22.0.1, SVG Export Plug-In . SVG Version: 6.00 Build 0)  -->
<svg version="1.1" id="Capa_1" xmlns="http://www.w3.org/2000/svg" xmlns:xlink="http://www.w3.org/1999/xlink" x="0px" y="0px"
	 width="400px" height="400px" viewBox="0 0 400 400" enable-background="new 0 0 400 400" xml:space="preserve">
<circle fill="#00DFC3" cx="258.253" cy="99.979" r="46.244"/>
<g>
	<g>
		<path d="M260.794,45.972c-29.787,0-53.934,24.147-53.934,53.934c0.034,29.773,24.161,53.9,53.934,53.934
			c29.787,0,53.934-24.147,53.934-53.934S290.58,45.972,260.794,45.972z M260.794,120.131c-3.723,0-6.742-3.019-6.742-6.742h-13.483
			c0.035,8.54,5.431,16.138,13.483,18.985v7.375c-22.005-3.701-36.844-24.54-33.142-46.545
			c2.856-16.982,16.161-30.286,33.142-33.142v7.375c-10.511,3.702-16.031,15.225-12.328,25.736
			c2.848,8.087,10.496,13.491,19.07,13.474c3.723,0,6.742,3.019,6.742,6.742S264.517,120.131,260.794,120.131z M267.536,139.75
			v-7.375c10.511-3.702,16.031-15.225,12.328-25.736c-2.848-8.087-10.496-13.491-19.07-13.474c-3.723,0-6.742-3.019-6.742-6.742
			c0-3.723,3.019-6.742,6.742-6.742s6.742,3.019,6.742,6.742h13.483c-0.035-8.54-5.431-16.138-13.483-18.985v-7.375
			c22.005,3.701,36.844,24.54,33.142,46.545C297.822,123.588,284.517,136.894,267.536,139.75z"/>
	</g>
</g>
<g>
	<g>
		<path d="M378.232,185.911V40.946C378.232,22.78,363.452,8,345.286,8H55.357C37.19,8,22.411,22.78,22.411,40.946v98.839
			c-10.899,0-19.768,8.869-19.768,19.768v197.679c0,10.899,8.869,19.768,19.768,19.768h144.964c10.899,0,19.768-8.869,19.768-19.768
			h55.225c6.214,0,11.94-2.833,15.709-7.769c3.769-4.935,4.995-11.208,3.361-17.198l-12.955-47.515h37.5v72.482
			c0,10.899,8.869,19.768,19.768,19.768h72.482c10.899,0,19.768-8.869,19.768-19.768V205.679
			C398,194.78,389.131,185.911,378.232,185.911z M173.964,357.232c0,3.631-2.959,6.589-6.589,6.589H22.411
			c-3.631,0-6.589-2.959-6.589-6.589v-13.179h158.143V357.232z M173.964,330.875H15.821V185.911h158.143V330.875z M173.964,172.732
			H15.821v-13.179c0-3.631,2.959-6.589,6.589-6.589h144.964c3.631,0,6.589,2.959,6.589,6.589V172.732z M248.726,335.731
			c0.547,1.997,0.138,4.085-1.12,5.733c-1.259,1.647-3.163,2.59-5.238,2.59h-55.225v-13.179h60.259L248.726,335.731z
			 M187.143,317.696V284.75h47.68l8.988,32.946H187.143z M285.982,271.571h-98.839v-39.536h98.839V271.571z M285.982,205.679v13.179
			h-98.839v-59.304c0-10.899-8.869-19.768-19.768-19.768H35.589V40.946c0-10.899,8.869-19.768,19.768-19.768h289.929
			c10.899,0,19.768,8.869,19.768,19.768v144.964H305.75C294.851,185.911,285.982,194.78,285.982,205.679z M384.821,357.232
			c0,3.631-2.959,6.589-6.589,6.589H305.75c-3.631,0-6.589-2.959-6.589-6.589v-13.179h85.661V357.232z M384.821,330.875h-85.661
			v-98.839h85.661V330.875z M384.821,218.857h-85.661v-13.179c0-3.631,2.959-6.589,6.589-6.589h72.482
			c3.631,0,6.589,2.959,6.589,6.589V218.857z"/>
	</g>
</g>
<g>
	<g>
		
			<rect x="36.717" y="264.975" transform="matrix(0.7071 -0.7071 0.7071 0.7071 -175.8122 118.6813)" width="37.275" height="13.178"/>
	</g>
</g>
<g>
	<g>
		
			<rect x="52.154" y="258.387" transform="matrix(0.7071 -0.7071 0.7071 0.7071 -155.7147 154.0247)" width="111.825" height="13.178"/>
	</g>
</g>
<g>
	<g>
		
			<rect x="73.521" y="218.861" transform="matrix(0.7071 -0.7071 0.7071 0.7071 -129.6958 137.7864)" width="55.909" height="13.178"/>
	</g>
</g>
<g>
	<g>
		
			<rect x="312.092" y="261.694" transform="matrix(0.7071 -0.7071 0.7071 0.7071 -91.4732 315.7314)" width="46.585" height="13.178"/>
	</g>
</g>
<g>
	<g>
		
			<rect x="325.268" y="288.08" transform="matrix(0.7071 -0.7071 0.7071 0.7071 -106.2712 332.7763)" width="46.585" height="13.178"/>
	</g>
</g>
<g>
	<g>
		<rect x="48.768" y="34.357" width="13.179" height="13.179"/>
	</g>
</g>
<g>
	<g>
		<rect x="75.125" y="34.357" width="13.179" height="13.179"/>
	</g>
</g>
<g>
	<g>
		<rect x="101.482" y="34.357" width="13.179" height="13.179"/>
	</g>
</g>
<g>
	<g>
		
			<rect x="123.053" y="74.687" transform="matrix(0.7071 -0.7071 0.7071 0.7071 -14.6077 127.287)" width="46.585" height="13.178"/>
	</g>
</g>
<g>
	<g>
		
			<rect x="136.229" y="101.073" transform="matrix(0.7071 -0.7071 0.7071 0.7071 -29.4057 144.332)" width="46.585" height="13.178"/>
	</g>
</g>
</svg>
