<?xml version="1.0" encoding="utf-8"?>
<!-- Generator: Adobe Illustrator 19.0.0, SVG Export Plug-In . SVG Version: 6.00 Build 0)  -->
<svg version="1.1" id="Layer_1" xmlns="http://www.w3.org/2000/svg" xmlns:xlink="http://www.w3.org/1999/xlink" x="0px" y="0px"
	 width="400px" height="400px" viewBox="0 0 400 400" style="enable-background:new 0 0 400 400;" xml:space="preserve">
<style type="text/css">
	.st0{fill:#20262C;}
	.st1{fill:#7DDDC2;}
	.st2{fill:#FFFFFF;}
</style>
<g id="XMLID_1_">
	<g id="XMLID_107_">
		<g id="XMLID_108_">
			<polygon id="XMLID_109_" points="305.098,303.886 143.661,303.886 113.322,168.193 72.853,168.193 72.853,159.783 
				120.059,159.783 150.398,295.476 298.029,295.476 315.925,192.957 159.392,192.957 159.392,184.547 325.93,184.547 			"/>
		</g>
	</g>
	<g id="XMLID_104_">
		<g id="XMLID_105_">
			<rect id="XMLID_106_" x="159.392" y="221.597" class="st0" width="129.808" height="8.41"/>
		</g>
	</g>
	<g id="XMLID_101_">
		<g id="XMLID_102_">
			<rect id="XMLID_103_" x="165.574" y="258.685" width="117.445" height="8.41"/>
		</g>
	</g>
	<g id="XMLID_98_">
		<g id="XMLID_99_">
			<path id="XMLID_100_" d="M279.165,338.726H145.361l-0.164-0.013c-7.235-0.565-20.916-5.656-20.916-20.879
				c0-15.144,13.681-20.574,20.915-21.329l0.437-0.023h159.579v8.41H145.903c-0.756,0.11-3.947,0.658-7.007,2.401
				c-4.176,2.378-6.205,5.826-6.205,10.542c0,10.833,11.527,12.334,13.02,12.482h133.455V338.726z"/>
		</g>
	</g>
	<g id="XMLID_93_">
		<g id="XMLID_94_">
			<path id="XMLID_95_" d="M159.787,389.985c-16.425,0-29.788-13.363-29.788-29.788c0-16.425,13.363-29.788,29.788-29.788
				s29.788,13.363,29.788,29.788C189.575,376.623,176.212,389.985,159.787,389.985z M159.787,338.819
				c-11.788,0-21.378,9.59-21.378,21.378c0,11.788,9.59,21.378,21.378,21.378s21.378-9.59,21.378-21.378
				C181.165,348.409,171.575,338.819,159.787,338.819z"/>
		</g>
	</g>
	<g id="XMLID_88_">
		<g id="XMLID_89_">
			<path id="XMLID_90_" d="M283.019,389.603c-16.425,0-29.788-13.363-29.788-29.788s13.363-29.788,29.788-29.788
				s29.788,13.363,29.788,29.788S299.444,389.603,283.019,389.603z M283.019,338.437c-11.788,0-21.378,9.59-21.378,21.378
				s9.59,21.378,21.378,21.378c11.788,0,21.378-9.59,21.378-21.378S294.807,338.437,283.019,338.437z"/>
		</g>
	</g>
	<g id="XMLID_2_">
		<g id="XMLID_86_">
			<path id="XMLID_87_" class="st1" d="M214.746,96.106c-2.969,0-5.375-2.406-5.375-5.375s2.406-5.375,5.375-5.375
				c0.984,0,1.894,0.284,2.688,0.746v-75.93c-0.894-0.029-1.786-0.068-2.688-0.068c-44.529,0-80.627,36.098-80.627,80.627
				s36.098,80.627,80.627,80.627c0.901,0,1.793-0.039,2.688-0.068V95.36C216.64,95.822,215.73,96.106,214.746,96.106z"/>
		</g>
		<g id="XMLID_84_">
			<path id="XMLID_85_" class="st2" d="M215.964,28.625v129.006c0,0-61.229-8.067-65.943-58.838S183.933,25.838,215.964,28.625z"/>
		</g>
		<g id="XMLID_82_">
			<path id="XMLID_83_" class="st0" d="M136.806,90.731h-5.375c0-45.941,37.374-83.315,83.315-83.315
				c16.564,0,32.563,4.848,46.271,14.021l-2.987,4.467c-12.824-8.577-27.789-13.112-43.285-13.112
				C171.771,12.791,136.806,47.756,136.806,90.731z"/>
		</g>
		<g id="XMLID_80_">
			<path id="XMLID_81_" class="st0" d="M297.879,96.279l-5.365-0.347c0.113-1.719,0.171-3.454,0.171-5.202h5.375
				C298.061,92.56,298,94.426,297.879,96.279z"/>
		</g>
		<g id="XMLID_67_">
			<path id="XMLID_68_" class="st0" d="M214.746,174.046c-1.806,0-3.598-0.058-5.375-0.171l0.346-5.365
				c3.362,0.215,6.816,0.213,10.183-0.008l0.352,5.365C218.441,173.985,216.588,174.046,214.746,174.046z M198.579,172.479
				c-3.562-0.703-7.105-1.646-10.527-2.803l1.722-5.092c3.199,1.084,6.512,1.963,9.845,2.619L198.579,172.479z M231.042,172.452
				l-1.045-5.27c3.32-0.659,6.627-1.546,9.834-2.635l1.727,5.092C238.131,170.802,234.593,171.749,231.042,172.452z
				 M177.986,165.518c-3.239-1.596-6.412-3.425-9.433-5.441l2.982-4.472c2.829,1.887,5.798,3.598,8.824,5.089L177.986,165.518z
				 M251.605,165.471l-2.383-4.819c3.029-1.496,5.995-3.212,8.813-5.097l2.987,4.467
				C258.012,162.038,254.844,163.87,251.605,165.471z M159.913,153.461c-2.732-2.391-5.325-4.974-7.708-7.679l4.036-3.554
				c2.228,2.533,4.654,4.95,7.21,7.186L159.913,153.461z M269.652,153.395l-3.543-4.042c2.543-2.231,4.969-4.651,7.205-7.197
				l4.036,3.548C274.962,148.424,272.371,151.012,269.652,153.395z M145.559,137.16c-2.016-2.997-3.855-6.163-5.469-9.404
				l4.813-2.394c1.509,3.034,3.231,5.995,5.118,8.8L145.559,137.16z M283.988,137.078l-4.462-2.992
				c1.885-2.811,3.603-5.777,5.107-8.816l4.819,2.388C287.841,130.905,286.003,134.076,283.988,137.078z M135.901,117.717
				c-1.173-3.43-2.129-6.968-2.837-10.509l5.27-1.055c0.664,3.309,1.556,6.617,2.653,9.826L135.901,117.717z M293.633,117.601
				l-5.086-1.732c1.089-3.205,1.979-6.514,2.64-9.839l5.27,1.05C295.751,110.633,294.801,114.174,293.633,117.601z"/>
		</g>
		<g id="XMLID_65_">
			<path id="XMLID_66_" class="st0" d="M131.612,96.279c-0.121-1.853-0.181-3.719-0.181-5.548h5.375
				c0,1.748,0.058,3.483,0.171,5.202L131.612,96.279z"/>
		</g>
		<g id="XMLID_63_">
			<path id="XMLID_64_" class="st0" d="M217.433,157.92h-2.688c-37.049,0-67.189-30.141-67.189-67.189s30.141-67.189,67.189-67.189
				h2.688v61.814h-5.375V28.974c-32.841,1.412-59.127,28.574-59.127,61.756s26.285,60.344,59.127,61.756V96.106h5.375V157.92z"/>
		</g>
		<g id="XMLID_61_">
			<path id="XMLID_62_" class="st0" d="M213.531,157.631c-0.362-0.187-36.411-18.994-36.411-66.901s36.049-66.714,36.411-66.901
				l2.433,4.795c-1.367,0.698-33.469,17.598-33.469,62.105c0,44.642,33.13,61.935,33.466,62.103L213.531,157.631z"/>
		</g>
		<g id="XMLID_13_">
			<path id="XMLID_14_" class="st0" d="M214.746,66.543c-27.44,0-46.768-18.789-47.578-19.59l3.777-3.824
				c0.184,0.181,18.622,18.039,43.802,18.039V66.543z"/>
		</g>
		<g id="XMLID_11_">
			<path id="XMLID_12_" class="st0" d="M170.947,138.33l-3.779-3.821c0.811-0.801,20.138-19.59,47.578-19.59v5.375
				C189.489,120.294,171.128,138.152,170.947,138.33z"/>
		</g>
		<g id="XMLID_9_">
			<rect id="XMLID_10_" x="150.244" y="88.043" class="st0" width="59.127" height="5.375"/>
		</g>
		<g id="XMLID_7_">
			<polygon id="XMLID_8_" class="st0" points="247.994,31.413 245.999,26.421 257.747,21.723 257.747,10.104 263.122,10.104 
				263.122,25.36 			"/>
		</g>
		<g id="XMLID_3_">
			<path id="XMLID_4_" class="st0" d="M214.746,98.794c-4.446,0-8.063-3.617-8.063-8.063c0-4.446,3.617-8.063,8.063-8.063
				s8.063,3.617,8.063,8.063C222.809,95.177,219.192,98.794,214.746,98.794z M214.746,88.043c-1.483,0-2.688,1.205-2.688,2.688
				s1.205,2.688,2.688,2.688s2.688-1.205,2.688-2.688S216.229,88.043,214.746,88.043z"/>
		</g>
	</g>
</g>
</svg>
