<?xml version="1.0" encoding="utf-8"?>
<!-- Generator: Adobe Illustrator 19.0.0, SVG Export Plug-In . SVG Version: 6.00 Build 0)  -->
<svg version="1.1" id="Layer_1" xmlns="http://www.w3.org/2000/svg" xmlns:xlink="http://www.w3.org/1999/xlink" x="0px" y="0px"
	 width="400px" height="400px" viewBox="0 0 400 400" style="enable-background:new 0 0 400 400;" xml:space="preserve">
<style type="text/css">
	.st0{fill:#7DDDC2;}
	.st1{fill:#FFFFFF;}
</style>
<g id="XMLID_106_">
	<g id="XMLID_125_">
		<g id="XMLID_177_">
			<g id="XMLID_178_">
				<path id="XMLID_179_" d="M360.312,310.367H43.933c-12.03,0-22.76-11.084-22.76-23.874v-193.5c0-3.12,2.705-5.876,5.825-5.876
					h350.277c3.12,0,5.652,2.756,5.652,5.876v193.5C382.926,299.283,372.359,310.367,360.312,310.367z M32.556,98.501v187.992
					c0,6.652,5.47,12.49,11.376,12.49h316.379c5.92,0,11.23-5.838,11.23-12.49V98.501H32.556z"/>
			</g>
		</g>
		<g id="XMLID_172_">
			<g id="XMLID_173_">
				<path id="XMLID_174_" d="M377.275,98.501H26.997c-3.12,0-5.825-2.387-5.825-5.507v-9.887c0-12.079,9.886-21.287,22.76-21.287
					h316.379c12.891,0,22.614,9.208,22.614,21.287v9.887C382.926,96.113,380.395,98.501,377.275,98.501z M32.556,87.117h338.986
					v-4.01c0-6.793-5.782-9.903-11.23-9.903H43.933c-5.434,0-11.376,3.11-11.376,9.903V87.117z"/>
			</g>
		</g>
		<g id="XMLID_169_">
			<g id="XMLID_170_">
				<path id="XMLID_171_" d="M103.389,310.504c-3.12,0-5.692-2.53-5.692-5.65V67.57c0-3.12,2.572-5.65,5.692-5.65
					c3.12,0,5.692,2.53,5.692,5.65v237.284C109.081,307.974,106.509,310.504,103.389,310.504z"/>
			</g>
		</g>
		<g id="XMLID_156_">
			<g id="XMLID_165_">
				<g id="XMLID_166_">
					<g id="XMLID_167_">
						<path id="XMLID_168_" d="M312.304,84.587h-5.65c-2.339,0-4.237-2.086-4.237-4.427c0-2.341,1.898-4.427,4.237-4.427h5.65
							c2.339,0,4.237,2.086,4.237,4.427C316.541,82.501,314.643,84.587,312.304,84.587z"/>
					</g>
				</g>
			</g>
			<g id="XMLID_161_">
				<g id="XMLID_162_">
					<g id="XMLID_163_">
						<path id="XMLID_164_" d="M334.902,84.587h-5.65c-2.339,0-4.237-2.086-4.237-4.427c0-2.341,1.898-4.427,4.237-4.427h5.65
							c2.339,0,4.237,2.086,4.237,4.427C339.14,82.501,337.242,84.587,334.902,84.587z"/>
					</g>
				</g>
			</g>
			<g id="XMLID_157_">
				<g id="XMLID_158_">
					<g id="XMLID_159_">
						<path id="XMLID_160_" d="M357.501,84.587h-5.65c-2.339,0-4.237-2.086-4.237-4.427c0-2.341,1.898-4.427,4.237-4.427h5.65
							c2.339,0,4.237,2.086,4.237,4.427C361.738,82.501,359.84,84.587,357.501,84.587z"/>
					</g>
				</g>
			</g>
		</g>
		<g id="XMLID_153_">
			<g id="XMLID_154_">
				<path id="XMLID_155_" d="M83.494,135.182H46.771c-3.12,0-5.65-2.572-5.65-5.692c0-3.12,2.53-5.692,5.65-5.692h36.723
					c3.12,0,5.65,2.572,5.65,5.692C89.143,132.61,86.614,135.182,83.494,135.182z"/>
			</g>
		</g>
		<g id="XMLID_150_">
			<g id="XMLID_151_">
				<path id="XMLID_152_" d="M83.494,175.025H46.771c-3.12,0-5.65-2.572-5.65-5.692s2.53-5.692,5.65-5.692h36.723
					c3.12,0,5.65,2.572,5.65,5.692S86.614,175.025,83.494,175.025z"/>
			</g>
		</g>
		<g id="XMLID_147_">
			<g id="XMLID_148_">
				<path id="XMLID_149_" d="M83.494,155.42H46.771c-3.12,0-5.65-2.572-5.65-5.692s2.53-5.692,5.65-5.692h36.723
					c3.12,0,5.65,2.572,5.65,5.692S86.614,155.42,83.494,155.42z"/>
			</g>
		</g>
		<g id="XMLID_144_">
			<g id="XMLID_145_">
				<path id="XMLID_146_" d="M236.034,135.182h-93.219c-3.12,0-5.65-2.572-5.65-5.692c0-3.12,2.53-5.692,5.65-5.692h93.219
					c3.12,0,5.65,2.572,5.65,5.692C241.683,132.61,239.154,135.182,236.034,135.182z"/>
			</g>
		</g>
		<g id="XMLID_141_">
			<g id="XMLID_142_">
				<path id="XMLID_143_" d="M289.705,135.182h-25.423c-3.12,0-5.65-2.572-5.65-5.692c0-3.12,2.53-5.692,5.65-5.692h25.423
					c3.12,0,5.65,2.572,5.65,5.692C295.355,132.61,292.825,135.182,289.705,135.182z"/>
			</g>
		</g>
		<g id="XMLID_138_">
			<g id="XMLID_139_">
				<path id="XMLID_140_" d="M236.034,155.42h-56.496c-3.12,0-5.65-2.572-5.65-5.692s2.53-5.692,5.65-5.692h56.496
					c3.12,0,5.65,2.572,5.65,5.692S239.154,155.42,236.034,155.42z"/>
			</g>
		</g>
		<g id="XMLID_135_">
			<g id="XMLID_136_">
				<path id="XMLID_137_" d="M289.705,175.025h-25.423c-3.12,0-5.65-2.572-5.65-5.692s2.53-5.692,5.65-5.692h25.423
					c3.12,0,5.65,2.572,5.65,5.692S292.825,175.025,289.705,175.025z"/>
			</g>
		</g>
		<g id="XMLID_132_">
			<g id="XMLID_133_">
				<path id="XMLID_134_" d="M236.034,206.015h-93.219c-3.12,0-5.65-2.572-5.65-5.692s2.53-5.692,5.65-5.692h93.219
					c3.12,0,5.65,2.572,5.65,5.692S239.154,206.015,236.034,206.015z"/>
			</g>
		</g>
		<g id="XMLID_129_">
			<g id="XMLID_130_">
				<path id="XMLID_131_" d="M236.034,225.62h-36.723c-3.12,0-5.65-2.572-5.65-5.692c0-3.12,2.53-5.692,5.65-5.692h36.723
					c3.12,0,5.65,2.572,5.65,5.692C241.683,223.048,239.154,225.62,236.034,225.62z"/>
			</g>
		</g>
		<g id="XMLID_126_">
			<g id="XMLID_127_">
				<path id="XMLID_128_" d="M289.705,240.166h-25.423c-3.12,0-5.65-2.572-5.65-5.692c0-3.12,2.53-5.692,5.65-5.692h25.423
					c3.12,0,5.65,2.572,5.65,5.692C295.355,237.594,292.825,240.166,289.705,240.166z"/>
			</g>
		</g>
	</g>
	<g id="XMLID_107_">
		<g id="XMLID_118_">
			<g id="XMLID_123_">
				<path id="XMLID_124_" class="st0" d="M307.746,345.172h-71.098c-19.101,0-34.728-15.628-34.728-34.728v-4.173
					c0-19.101,15.628-34.728,34.728-34.728h71.098c19.101,0,34.728,15.628,34.728,34.728v4.173
					C342.474,329.544,326.846,345.172,307.746,345.172z"/>
			</g>
			<g id="XMLID_119_">
				<path id="XMLID_120_" d="M306.64,351.464h-67.796c-23.365,0-42.372-19.008-42.372-42.372c0-23.364,19.007-42.372,42.372-42.372
					h67.796c23.365,0,42.372,19.008,42.372,42.372C349.013,332.455,330.006,351.464,306.64,351.464z M238.845,278.018
					c-17.134,0-31.073,13.939-31.073,31.073c0,17.134,13.939,31.073,31.073,31.073h67.796c17.134,0,31.073-13.939,31.073-31.073
					c0-17.134-13.939-31.073-31.073-31.073H238.845z"/>
			</g>
		</g>
		<g id="XMLID_108_">
			<g id="XMLID_115_">
				<g id="XMLID_116_">
					<path id="XMLID_117_" class="st1" d="M249.132,326.996c-1.076,0-2.165-0.306-3.128-0.949l-17.178-11.45
						c-1.572-1.047-2.516-2.811-2.516-4.701c0-1.888,0.943-3.652,2.516-4.701l17.178-11.451c2.596-1.737,6.102-1.03,7.834,1.567
						c1.73,2.596,1.029,6.103-1.567,7.834l-10.127,6.75l10.127,6.749c2.596,1.73,3.297,5.237,1.567,7.834
						C252.751,326.113,250.958,326.996,249.132,326.996z"/>
				</g>
			</g>
			<g id="XMLID_112_">
				<g id="XMLID_113_">
					<path id="XMLID_114_" class="st1" d="M296.356,326.996c-1.826,0-3.617-0.883-4.706-2.516c-1.73-2.596-1.029-6.103,1.567-7.834
						l10.124-6.749l-10.124-6.75c-2.596-1.731-3.297-5.239-1.567-7.834c1.73-2.597,5.233-3.303,7.834-1.567l17.175,11.451
						c1.572,1.048,2.516,2.812,2.516,4.701c0,1.89-0.943,3.652-2.516,4.701l-17.175,11.45
						C298.522,326.69,297.432,326.996,296.356,326.996z"/>
				</g>
			</g>
			<g id="XMLID_109_">
				<g id="XMLID_110_">
					<path id="XMLID_111_" class="st1" d="M263.438,334.781c-0.797,0-1.605-0.17-2.375-0.527c-2.83-1.313-4.061-4.673-2.748-7.503
						l18.607-40.077c1.313-2.83,4.676-4.057,7.503-2.745c2.83,1.313,4.061,4.673,2.748,7.503l-18.607,40.077
						C267.609,333.569,265.567,334.781,263.438,334.781z"/>
				</g>
			</g>
		</g>
	</g>
</g>
</svg>
