<?xml version="1.0" encoding="utf-8"?>
<!-- Generator: Adobe Illustrator 22.0.1, SVG Export Plug-In . SVG Version: 6.00 Build 0)  -->
<svg version="1.1" id="Capa_1" xmlns="http://www.w3.org/2000/svg" xmlns:xlink="http://www.w3.org/1999/xlink" x="0px" y="0px"
	 width="400px" height="400px" viewBox="0 0 400 400" enable-background="new 0 0 400 400" xml:space="preserve">
<path fill="#00DFC3" d="M190,150c0,0-63.549,33.376-36.667,111.333C166.667,300,212,314.667,212,314.667l0.667,18.667l-1.333,51.333
	L290,385.333l-0.667-66c0,0,68-26,66.667-90s-42.667-88-42.667-88l-2.333,94l-56.936,30.676L195,235C195,235,186,162.667,190,150z"
	/>
<g>
	<g>
		<path d="M368.933,3H30.067C15.671,3,4,14.671,4,29.067v338.867C4,382.329,15.671,394,30.067,394h338.867
			C383.329,394,395,382.329,395,367.933V29.067C395,14.671,383.329,3,368.933,3z M284.217,380.967H219.05v-13.033h65.167V380.967z
			 M284.217,354.9H219.05v-13.033h65.167V354.9z M284.217,315.937v12.896H219.05v-12.896c0.001-2.806-1.795-5.297-4.457-6.184
			c-37.139-11.444-62.012-46.345-60.709-85.186c0-30.882,11.73-56.754,32.583-72.7v7.533v78.2c0.002,2.367,1.286,4.548,3.356,5.696
			l58.65,32.583c1.966,1.091,4.355,1.091,6.321,0l58.65-32.583c2.07-1.148,3.355-3.328,3.356-5.696v-85.733
			c20.853,15.946,32.583,41.817,32.583,72.7c1.303,38.841-23.57,73.742-60.709,85.186
			C286.012,310.64,284.216,313.131,284.217,315.937z M199.5,233.762v-70.523l52.133-28.967l52.133,28.967v70.523l-52.133,28.967
			L199.5,233.762z M381.967,367.933c0,7.198-5.835,13.033-13.033,13.033H297.25v-60.436c40.001-14.772,66.188-53.336,65.167-95.964
			c0-40.266-17.849-73.221-48.986-90.419c-2.014-1.128-4.477-1.093-6.458,0.091c-1.986,1.171-3.205,3.305-3.206,5.611v8.472
			l-48.973-27.207c-1.966-1.091-4.355-1.091-6.321,0L199.5,148.322v-8.472c-0.002-3.599-2.922-6.515-6.521-6.513
			c-1.1,0.001-2.181,0.279-3.143,0.811c-31.137,17.197-48.986,50.152-48.986,90.419c-1.021,42.629,25.166,81.193,65.167,95.964
			v60.436H30.067c-7.198,0-13.033-5.835-13.033-13.033V68.167h364.933V367.933z M381.967,55.133H17.033V29.067
			c0-7.198,5.835-13.033,13.033-13.033h338.867c7.198,0,13.033,5.835,13.033,13.033V55.133z"/>
	</g>
</g>
<g>
	<g>
		<rect x="30.067" y="29.067" width="13.033" height="13.033"/>
	</g>
</g>
<g>
	<g>
		<rect x="56.133" y="29.067" width="13.033" height="13.033"/>
	</g>
</g>
<g>
	<g>
		<rect x="82.2" y="29.067" width="13.033" height="13.033"/>
	</g>
</g>
<g>
	<g>
		<path d="M279.269,170.848c-15.272-15.267-40.029-15.264-55.296,0.008s-15.264,40.029,0.008,55.296
			c7.335,7.332,17.281,11.45,27.652,11.448c10.375,0.029,20.33-4.097,27.644-11.456
			C294.544,210.872,294.541,186.115,279.269,170.848z M233.204,180.071c8.363-8.442,21.413-10.076,31.599-3.956l-35.555,35.555
			C223.129,201.484,224.762,188.434,233.204,180.071z M270.062,216.936v-0.007c-8.512,8.098-21.315,9.685-31.547,3.91l35.503-35.503
			C280.138,195.523,278.505,208.572,270.062,216.936z"/>
	</g>
</g>
<g>
	<g>
		<path d="M60.741,98.841l-9.215-9.215l-13.033,13.033c-2.544,2.545-2.544,6.67,0,9.215l13.033,13.033l9.215-9.215l-8.426-8.426
			L60.741,98.841z"/>
	</g>
</g>
<g>
	<g>
		<path d="M112.874,102.659L99.841,89.626l-9.215,9.215l8.426,8.426l-8.426,8.426l9.215,9.215l13.033-13.033
			C115.418,109.329,115.418,105.204,112.874,102.659z"/>
	</g>
</g>
<g>
	<g>
		
			<rect x="55.074" y="100.745" transform="matrix(0.3165 -0.9486 0.9486 0.3165 -50.0148 145.1036)" width="41.218" height="13.027"/>
	</g>
</g>
<g>
	<g>
		<rect x="127.817" y="100.75" width="13.033" height="13.033"/>
	</g>
</g>
<g>
	<g>
		<rect x="36.583" y="139.85" width="13.033" height="13.033"/>
	</g>
</g>
<g>
	<g>
		<rect x="62.65" y="139.85" width="78.2" height="13.033"/>
	</g>
</g>
<g>
	<g>
		<rect x="153.883" y="100.75" width="13.033" height="13.033"/>
	</g>
</g>
<g>
	<g>
		<rect x="179.95" y="100.75" width="13.033" height="13.033"/>
	</g>
</g>
<g>
	<g>
		<rect x="36.583" y="165.917" width="78.2" height="13.033"/>
	</g>
</g>
<g>
	<g>
		<rect x="36.583" y="270.183" width="13.033" height="13.033"/>
	</g>
</g>
<g>
	<g>
		<rect x="62.65" y="270.183" width="65.167" height="13.033"/>
	</g>
</g>
<g>
	<g>
		<rect x="36.583" y="296.25" width="65.167" height="13.033"/>
	</g>
</g>
<g>
	<g>
		<rect x="36.583" y="191.983" width="19.55" height="13.033"/>
	</g>
</g>
<g>
	<g>
		<rect x="36.583" y="218.05" width="19.55" height="13.033"/>
	</g>
</g>
<g>
	<g>
		<rect x="36.583" y="244.117" width="19.55" height="13.033"/>
	</g>
</g>
<g>
	<g>
		<rect x="69.167" y="191.983" width="19.55" height="13.033"/>
	</g>
</g>
<g>
	<g>
		<rect x="101.75" y="191.983" width="19.55" height="13.033"/>
	</g>
</g>
<g>
	<g>
		<rect x="69.167" y="218.05" width="19.55" height="13.033"/>
	</g>
</g>
<g>
	<g>
		<rect x="36.583" y="322.317" width="19.55" height="13.033"/>
	</g>
</g>
<g>
	<g>
		<rect x="36.583" y="348.383" width="19.55" height="13.033"/>
	</g>
</g>
<g>
	<g>
		<rect x="69.167" y="322.317" width="19.55" height="13.033"/>
	</g>
</g>
</svg>
