<?xml version="1.0" encoding="utf-8"?>
<!-- Generator: Adobe Illustrator 22.0.1, SVG Export Plug-In . SVG Version: 6.00 Build 0)  -->
<svg version="1.1" id="Capa_1" xmlns="http://www.w3.org/2000/svg" xmlns:xlink="http://www.w3.org/1999/xlink" x="0px" y="0px"
	 width="400px" height="400px" viewBox="0 0 400 400" enable-background="new 0 0 400 400" xml:space="preserve">
<rect x="38" y="26" fill="#00DFC3" width="97" height="179"/>
<g>
	<g>
		<path d="M200.433,333.667c-17.765,0-32.167,14.402-32.167,32.167c0,17.765,14.402,32.167,32.167,32.167
			s32.167-14.402,32.167-32.167C232.579,348.077,218.189,333.688,200.433,333.667z M200.433,385.133c-10.659,0-19.3-8.641-19.3-19.3
			c0-10.659,8.641-19.3,19.3-19.3c10.659,0,19.3,8.641,19.3,19.3C219.733,376.493,211.093,385.133,200.433,385.133z"/>
	</g>
</g>
<g>
	<g>
		<path d="M329.1,333.667c-17.765,0-32.167,14.402-32.167,32.167c0,17.765,14.402,32.167,32.167,32.167
			c17.765,0,32.167-14.402,32.167-32.167C361.246,348.077,346.856,333.688,329.1,333.667z M329.1,385.133
			c-10.659,0-19.3-8.641-19.3-19.3c0-10.659,8.641-19.3,19.3-19.3s19.3,8.641,19.3,19.3
			C348.4,376.493,339.759,385.133,329.1,385.133z"/>
	</g>
</g>
<g>
	<g>
		<path d="M389.644,17.174h-80.416c-59.136,0.066-112.74,34.8-136.961,88.749V10.587c0-3.638-2.949-6.587-6.587-6.587h-26.349
			c-3.638,0-6.587,2.949-6.587,6.587v6.587H33.936c-3.638,0-6.587,2.949-6.587,6.587v177.854H7.587
			c-3.638,0-6.587,2.949-6.587,6.587v26.349c0,3.638,2.949,6.587,6.587,6.587h125.156v98.808c0,3.638,2.949,6.587,6.587,6.587
			h26.349c3.638,0,6.587-2.949,6.587-6.587v-5.705c17.559-18.248,46.586-18.807,64.834-1.249c3.137,3.019,5.829,6.469,7.994,10.247
			c1.176,2.036,3.347,3.291,5.698,3.294h40.564c2.351-0.002,4.522-1.257,5.698-3.294c12.68-22.03,40.819-29.609,62.848-16.929
			c7.038,4.051,12.878,9.891,16.929,16.929c1.176,2.036,3.347,3.291,5.698,3.294h7.114c3.638,0,6.587-2.949,6.587-6.587V23.762
			C396.231,20.124,393.281,17.174,389.644,17.174z M80.046,30.349h13.174v28.865l-3.643-1.818c-1.855-0.929-4.04-0.929-5.896,0
			l-3.636,1.818V30.349z M132.744,227.964H14.174V214.79h118.569V227.964z M132.744,201.615H40.523v-79.046h26.349v39.523
			c-0.002,3.638,2.946,6.589,6.584,6.59c1.023,0.001,2.032-0.237,2.948-0.695l10.23-5.118l10.23,5.112
			c3.254,1.626,7.21,0.306,8.837-2.948c0.456-0.913,0.694-1.92,0.695-2.941v-39.523h26.349V201.615z M80.046,151.434v-28.865h13.174
			v28.865l-3.643-1.818c-1.855-0.929-4.04-0.929-5.896,0L80.046,151.434z M132.744,109.395H40.523V30.349h26.349v39.523
			c-0.002,3.638,2.946,6.589,6.584,6.59c1.023,0.001,2.032-0.237,2.948-0.695l10.23-5.118l10.23,5.112
			c3.254,1.626,7.21,0.306,8.837-2.948c0.456-0.913,0.694-1.92,0.695-2.941V30.349h26.349V109.395z M172.267,167.309
			C172.35,91.703,233.62,30.432,309.227,30.349h47.48v157.045c-14.559-6.396-30.945-7.286-46.11-2.503v-12.917
			c-0.016-12.306-6.278-23.762-16.626-30.42c17.786-12.654,21.947-37.33,9.294-55.116c-12.653-17.786-37.33-21.947-55.116-9.294
			s-21.947,37.33-9.294,55.116c3.378,4.749,7.765,8.692,12.846,11.546c-1.905,1.524-3.65,3.237-5.21,5.112h-8.353
			c-7.606,0.026-14.522,4.413-17.785,11.284l-32.837-10.948l-4.17,12.516l13.398,4.466l-24.478,69.376V167.309z M264.487,162.092
			c3.638,0,6.587,2.949,6.587,6.587s-2.949,6.587-6.587,6.587h-26.349c-3.638,0-6.587-2.949-6.587-6.587s2.949-6.587,6.587-6.587
			H264.487z M244.726,109.395c0-14.552,11.797-26.349,26.349-26.349c14.552,0,26.349,11.797,26.349,26.349
			s-11.797,26.349-26.349,26.349C256.522,135.744,244.726,123.947,244.726,109.395z M238.138,188.441v32.936
			c-21.818,0.026-39.498,17.706-39.523,39.523v6.587h-23.622l34.253-97.095l9.828,3.294
			C221.347,182.359,229.172,188.416,238.138,188.441z M211.79,260.9c0-14.552,11.797-26.349,26.349-26.349h27.666
			c-0.88,4.336-1.322,8.749-1.317,13.174v19.762H211.79V260.9z M251.313,221.377v-32.936h13.174
			c10.896-0.035,19.7-8.896,19.665-19.792c-0.029-9.024-6.176-16.877-14.929-19.072c12.26-2.962,24.6,4.576,27.562,16.836
			c0.44,1.821,0.654,3.687,0.637,5.56v18.793c-12.146,7.042-21.739,17.762-27.396,30.611L251.313,221.377L251.313,221.377z
			 M383.056,329.11c-11.257-13.936-28.196-22.055-46.11-22.1c-19.772,0.052-38.226,9.927-49.239,26.349h-33.265
			c-18.048-27.148-54.687-34.526-81.835-16.478c-4.413,2.934-8.412,6.449-11.887,10.451c-1.051,1.202-1.629,2.744-1.627,4.341v1.686
			h-13.174V17.174h13.174v256.9c0,3.638,2.949,6.587,6.587,6.587h217.377L383.056,329.11L383.056,329.11z M383.056,267.487H277.662
			v-19.762c0-29.104,23.594-52.697,52.697-52.697s52.697,23.594,52.697,52.697V267.487z M383.056,208.374
			c-3.746-5.005-8.181-9.457-13.174-13.22V30.349h13.174V208.374z"/>
	</g>
</g>
</svg>
