<?xml version="1.0" encoding="utf-8"?>
<!-- Generator: Adobe Illustrator 22.0.1, SVG Export Plug-In . SVG Version: 6.00 Build 0)  -->
<svg version="1.1" id="Capa_1" xmlns="http://www.w3.org/2000/svg" xmlns:xlink="http://www.w3.org/1999/xlink" x="0px" y="0px"
	 width="400px" height="400px" viewBox="0 0 400 400" enable-background="new 0 0 400 400" xml:space="preserve">
<g>
	<path fill="#00DFC3" d="M308.305,188.365l-17.888-7.534l-6.671-16.015l7.341-18.03c0.976-2.399,0.421-5.149-1.41-6.98
		l-20.979-20.986c-1.831-1.831-4.582-2.387-6.98-1.41l-18.03,7.341l-15.963-6.632l-7.534-17.895
		c-1.005-2.389-3.345-3.942-5.937-3.941H184.58c-2.592-0.001-4.932,1.552-5.937,3.941l-7.586,17.895l-16.021,6.639l-18.03-7.341
		c-2.399-0.976-5.149-0.421-6.98,1.41l-20.979,20.986c-1.831,1.831-2.387,4.582-1.41,6.98l7.341,18.03l-6.645,16.015l-17.888,7.534
		c-2.389,1.005-3.942,3.345-3.941,5.937v29.672c-0.002,2.59,1.548,4.929,3.934,5.937l17.895,7.534l6.703,16.015l-7.341,18.03
		c-0.976,2.399-0.421,5.149,1.41,6.98l20.954,20.986c1.831,1.831,4.582,2.387,6.98,1.41l18.03-7.334l16.021,6.633l7.534,17.901
		c1.013,2.39,3.361,3.938,5.956,3.928h29.621c2.59,0.002,4.929-1.548,5.937-3.934l7.534-17.901l16.021-6.639l18.03,7.341
		c2.399,0.976,5.149,0.421,6.98-1.41l20.979-20.986c1.838-1.827,2.401-4.578,1.43-6.98l-7.341-18.03l6.645-16.021l17.895-7.534
		c2.387-1.008,3.936-3.347,3.934-5.937v-29.666C312.247,191.71,310.694,189.37,308.305,188.365z"/>
</g>
<g>
	<g>
		<path d="M371.533,2H27.467C12.85,2,1,13.85,1,28.467v344.067C1,387.15,12.85,399,27.467,399h344.067
			C386.15,399,398,387.15,398,372.533V28.467C398,13.85,386.15,2,371.533,2z M384.767,372.533c0,7.309-5.924,13.233-13.233,13.233
			H27.467c-7.309,0-13.233-5.924-13.233-13.233V68.167h370.533V372.533z M384.767,54.933H14.233V28.467
			c0-7.309,5.924-13.233,13.233-13.233h344.067c7.309,0,13.233,5.924,13.233,13.233V54.933z"/>
	</g>
</g>
<g>
	<g>
		<rect x="27.467" y="28.467" width="13.233" height="13.233"/>
	</g>
</g>
<g>
	<g>
		<rect x="53.933" y="28.467" width="13.233" height="13.233"/>
	</g>
</g>
<g>
	<g>
		<rect x="80.4" y="28.467" width="13.233" height="13.233"/>
	</g>
</g>
<g>
	<g>
		<path d="M311.414,188.901l-18.381-7.742l-6.855-16.456l7.543-18.527c1.003-2.465,0.433-5.291-1.449-7.172l-21.557-21.564
			c-1.882-1.882-4.708-2.452-7.172-1.449l-18.527,7.543l-16.403-6.815l-7.741-18.388c-1.033-2.455-3.437-4.05-6.101-4.049h-30.49
			c-2.663-0.001-5.068,1.595-6.101,4.049l-7.794,18.388l-16.462,6.822l-18.527-7.543c-2.465-1.003-5.291-0.433-7.172,1.449
			l-21.557,21.564c-1.882,1.882-2.452,4.708-1.449,7.172l7.543,18.527l-6.828,16.456l-18.381,7.742
			c-2.455,1.033-4.05,3.437-4.049,6.101v30.49c-0.002,2.662,1.59,5.065,4.043,6.101l18.388,7.741l6.888,16.456l-7.543,18.527
			c-1.003,2.465-0.433,5.291,1.449,7.172l21.531,21.564c1.882,1.882,4.708,2.452,7.172,1.449l18.527-7.536l16.462,6.815
			l7.742,18.394c1.04,2.456,3.453,4.047,6.12,4.036h30.437c2.662,0.002,5.065-1.59,6.101-4.043l7.742-18.394l16.462-6.822
			l18.527,7.543c2.465,1.003,5.291,0.433,7.172-1.449l21.557-21.564c1.888-1.877,2.467-4.704,1.469-7.172l-7.543-18.527
			l6.828-16.462l18.388-7.741c2.452-1.036,4.044-3.439,4.043-6.101v-30.483C315.465,192.338,313.869,189.934,311.414,188.901z
			 M302.23,221.098l-16.846,7.1c-1.603,0.677-2.875,1.959-3.54,3.566h-0.007l-8.893,21.484c-0.665,1.608-0.665,3.414,0,5.022
			l6.895,16.998l-15.351,15.344l-16.965-6.908c-1.612-0.655-3.417-0.655-5.029,0l-21.484,8.906c-1.608,0.665-2.889,1.937-3.566,3.54
			l-7.093,16.833h-21.703l-7.093-16.846c-0.676-1.605-1.957-2.88-3.566-3.547l-21.498-8.899c-1.609-0.66-3.413-0.66-5.022,0
			l-16.965,6.901l-15.344-15.324l6.895-16.998c0.665-1.608,0.665-3.414,0-5.022l-8.899-21.484c-0.665-1.608-1.937-2.889-3.54-3.566
			l-16.846-7.1v-21.703l16.839-7.086c1.605-0.676,2.88-1.957,3.547-3.566l8.899-21.484c0.662-1.611,0.662-3.418,0-5.029
			l-6.908-16.972l15.351-15.344l16.965,6.908c1.609,0.672,3.42,0.672,5.029,0l21.484-8.906c1.608-0.665,2.889-1.937,3.566-3.54
			l7.093-16.846h21.703l7.093,16.846c0.677,1.603,1.959,2.875,3.566,3.54l21.511,8.893c1.61,0.668,3.419,0.668,5.029,0l16.965-6.908
			l15.351,15.344l-6.908,16.985c-0.662,1.611-0.662,3.418,0,5.029l8.899,21.484c0.667,1.609,1.941,2.891,3.547,3.566l16.839,7.086
			V221.098z"/>
	</g>
</g>
<g>
	<g>
		<path d="M199.5,144.086c-36.543,0-66.167,29.624-66.167,66.167s29.624,66.167,66.167,66.167s66.167-29.624,66.167-66.167
			C265.627,173.726,236.026,144.127,199.5,144.086z M199.5,263.186c-29.234,0-52.933-23.699-52.933-52.933
			s23.699-52.933,52.933-52.933s52.933,23.699,52.933,52.933C252.4,239.474,228.721,263.153,199.5,263.186z"/>
	</g>
</g>
<g>
	<g>
		<rect x="192.883" y="203.636" width="13.233" height="13.233"/>
	</g>
</g>
<g>
	<g>
		<rect x="166.417" y="203.636" width="13.233" height="13.233"/>
	</g>
</g>
<g>
	<g>
		<rect x="219.35" y="203.636" width="13.233" height="13.233"/>
	</g>
</g>
<g>
	<g>
		<rect x="34.083" y="326.217" width="13.233" height="13.233"/>
	</g>
</g>
<g>
	<g>
		<rect x="60.55" y="326.217" width="59.55" height="13.233"/>
	</g>
</g>
<g>
	<g>
		<rect x="34.083" y="352.683" width="59.55" height="13.233"/>
	</g>
</g>
<g>
	<g>
		<rect x="278.9" y="326.217" width="13.233" height="13.233"/>
	</g>
</g>
<g>
	<g>
		<rect x="305.367" y="326.217" width="59.55" height="13.233"/>
	</g>
</g>
<g>
	<g>
		<rect x="278.9" y="352.683" width="59.55" height="13.233"/>
	</g>
</g>
</svg>
