<?xml version="1.0" encoding="utf-8"?>
<!-- Generator: Adobe Illustrator 19.0.0, SVG Export Plug-In . SVG Version: 6.00 Build 0)  -->
<svg version="1.1" id="Layer_1" xmlns="http://www.w3.org/2000/svg" xmlns:xlink="http://www.w3.org/1999/xlink" x="0px" y="0px"
	 width="400px" height="400px" viewBox="0 0 400 400" style="enable-background:new 0 0 400 400;" xml:space="preserve">
<style type="text/css">
	.st0{fill-rule:evenodd;clip-rule:evenodd;fill:#7DDDC2;}
</style>
<g id="XMLID_212_">
	<polygon id="XMLID_213_" class="st0" points="154.083,98.146 154.129,128.2 180.004,113.132 180.058,83.15 	"/>
</g>
<g id="XMLID_210_">
	<polygon id="XMLID_211_" class="st0" points="205.956,98.2 206.002,128.254 231.877,113.186 231.931,83.205 	"/>
</g>
<g id="XMLID_208_">
	<polygon id="XMLID_209_" class="st0" points="258.002,98.2 258.048,128.254 283.923,113.186 283.977,83.205 	"/>
</g>
<g id="XMLID_206_">
	<polygon id="XMLID_207_" class="st0" points="258.002,160.243 258.048,190.297 283.923,175.229 283.977,145.248 	"/>
</g>
<g id="XMLID_204_">
	<polygon id="XMLID_205_" class="st0" points="205.956,158.073 206.002,188.127 231.877,173.059 231.931,143.077 	"/>
</g>
<g id="XMLID_202_">
	<polygon id="XMLID_203_" class="st0" points="154.054,158.073 154.099,188.127 179.975,173.059 180.029,143.077 	"/>
</g>
<g id="XMLID_200_">
	<polygon id="XMLID_201_" class="st0" points="205.956,279.855 206.002,309.909 231.877,294.841 231.931,264.859 	"/>
</g>
<g id="XMLID_198_">
	<polygon id="XMLID_199_" class="st0" points="154.054,217.815 154.099,247.869 179.975,232.801 180.029,202.819 	"/>
</g>
<g id="XMLID_196_">
	<polygon id="XMLID_197_" class="st0" points="258.002,228.317 258.048,258.371 283.923,243.303 283.977,213.322 	"/>
</g>
<g id="XMLID_145_">
	<path id="XMLID_146_" d="M200.964,379.864h-7.422v-7.575h7.422V379.864z M219.425,366.08h-7.422v-7.574h7.422V366.08z
		 M183.715,363.854h-7.422v-7.575h7.422V363.854z M200.964,361.185h-7.422v-7.583h7.422V361.185z M200.964,349.592h-7.422v-7.575
		h7.422V349.592z M219.425,348.036h-7.422v-7.575h7.422V348.036z M183.715,343.339h-7.422v-7.575h7.422V343.339z M200.964,338.008
		h-7.422v-7.575h7.422V338.008z M219.425,336.452h-7.422v-7.583h7.422V336.452z M183.715,331.755h-7.422v-7.583h7.422V331.755z
		 M235.76,331.158h-7.422v-7.575h7.422V331.158z M219.425,324.868h-7.422v-7.583h7.422V324.868z M183.715,320.171h-7.422v-7.583
		h7.422V320.171z M235.76,319.574h-7.422V312h7.422V319.574z M270.477,316.108h-7.422v-7.575h7.422V316.108z M252.909,314.769
		h-7.422v-7.574h7.422V314.769z M206.074,314.065l-1.85-1.067c-4.366-2.519-8.731-5.041-13.096-7.563
		c-4.326-2.5-8.652-5-12.978-7.495l-1.858-1.072l0.001-6.4c0.001-8.439,0.001-17.165,0.054-25.757l0.013-2.134l4.487-2.575
		c7.642-4.385,15.544-8.92,23.359-13.325l1.843-1.039l1.833,1.056c7.097,4.09,16.458,9.493,25.941,15.012l1.843,1.073l0.002,2.132
		c0.006,6.372,0.03,12.748,0.055,19.125c0.014,3.583,0.027,7.166,0.038,10.75l0.006,2.146l-1.856,1.076
		c-8.603,4.987-17.345,10.032-25.983,14.994L206.074,314.065z M209.693,281.886l-0.039,21.559
		c6.229-3.585,12.484-7.197,18.677-10.784c-0.009-2.866-0.02-5.732-0.031-8.598c-0.016-4.256-0.032-8.512-0.043-12.767
		L209.693,281.886z M183.715,292.581c3.709,2.141,7.418,4.284,11.127,6.428c2.463,1.423,4.926,2.847,7.389,4.269l0.046-25.707
		l22.24-12.687c-6.714-3.896-13.15-7.612-18.51-10.701c-7.189,4.063-14.439,8.224-21.467,12.257l-0.785,0.45
		c-0.041,7.879-0.041,15.85-0.041,23.579L183.715,292.581z M252.909,296.09h-7.422v-7.575h7.422V296.09z M270.477,295.593h-7.422
		v-7.575h7.422V295.593z M287.796,291.176h-7.422v-7.584h7.422V291.176z M252.909,284.507h-7.422v-7.583h7.422V284.507z
		 M270.477,284.009h-7.422v-7.575h7.422V284.009z M252.909,272.914h-7.422v-7.575h7.422V272.914z M287.796,272.425h-7.422v-7.584
		h7.422V272.425z M270.477,272.425h-7.422v-7.584h7.422V272.425z M258.121,262.599l-1.852-1.068
		c-5.655-3.261-11.308-6.53-16.961-9.799l-10.971-6.342l0.001-6.568c0.001-8.383,0.002-17.051,0.054-25.578l0.013-2.132l1.848-1.062
		c8.34-4.795,17.217-9.89,25.998-14.839l1.842-1.039l1.833,1.056c8.745,5.04,17.31,9.979,25.944,15.003l1.843,1.072l0.002,2.132
		c0.006,6.824,0.032,13.647,0.057,20.47l0.04,11.561l-1.859,1.076c-8.651,5.006-17.31,10.003-25.978,14.991L258.121,262.599z
		 M261.738,230.42l-0.039,21.555c6.23-3.589,12.455-7.183,18.676-10.781l-0.026-7.26c-0.017-4.704-0.035-9.407-0.046-14.11
		L261.738,230.42z M235.76,241.108l7.263,4.199c3.751,2.169,7.502,4.338,11.253,6.505l0.046-25.707l22.242-12.695
		c-6.146-3.564-12.287-7.107-18.512-10.695c-7.507,4.242-15.058,8.571-22.252,12.705c-0.04,7.815-0.041,15.728-0.042,23.402V241.108
		z M287.796,260.272h-7.422v-7.583h7.422V260.272z M154.173,252.103l-29.783-17.21l0.001-6.364c0.001-8.45,0.001-17.188,0.052-25.79
		l0.013-2.135l4.387-2.517c5.805-3.331,11.758-6.747,17.712-10.128c-2.555-1.476-5.111-2.953-7.666-4.429
		c-4.214-2.435-8.426-4.87-12.641-7.301l-1.857-1.072l0.001-6.369c0.001-8.452,0.001-17.193,0.052-25.787l0.013-2.133l1.849-1.063
		c6.869-3.948,13.624-7.825,20.367-11.651c-3.781-2.184-7.562-4.37-11.343-6.556l-10.939-6.324l0.001-6.364
		c0.001-8.449,0.001-17.187,0.052-25.781l0.013-2.133l2.285-1.313c8.363-4.806,17.012-9.776,25.569-14.59l1.84-1.035l1.83,1.053
		c8.638,4.97,16.493,9.511,23.939,13.84c7.962-4.576,16.168-9.288,24.29-13.858l1.84-1.035l1.83,1.053
		c8.758,5.038,16.636,9.592,24.012,13.881c7.99-4.593,16.218-9.316,24.362-13.899l1.84-1.035l1.83,1.053
		c9.478,5.452,17.965,10.361,25.946,15.005l1.843,1.072l0.002,2.132c0.006,6.823,0.032,13.647,0.057,20.47l0.04,11.561l-1.859,1.076
		c-6.802,3.936-13.608,7.866-20.42,11.79c7.242,4.177,13.7,7.909,20.338,11.771l1.843,1.072l0.002,2.132
		c0.006,6.824,0.032,13.648,0.057,20.471l0.04,11.561l-1.859,1.076c-8.651,5.006-17.31,10.003-25.978,14.991l-1.853,1.066
		l-1.852-1.068c-4.449-2.565-8.895-5.135-13.343-7.706c-3.604-2.083-7.208-4.166-10.813-6.246
		c-8.055,4.658-16.116,9.31-24.184,13.953l-1.853,1.066l-1.852-1.068c-4.483-2.585-8.965-5.175-13.446-7.765
		c-3.547-2.05-7.092-4.099-10.639-6.145c-6.142,3.552-12.287,7.101-18.437,10.644c7.733,4.463,14.13,8.169,20.217,11.712
		l1.842,1.073l0.002,2.132c0.006,6.226,0.03,12.453,0.052,18.678c0.014,3.733,0.028,7.466,0.038,11.198l0.006,2.145l-1.856,1.076
		c-8.048,4.666-16.546,9.573-25.979,15.001L154.173,252.103z M157.79,219.922l-0.039,21.555c6.608-3.807,12.771-7.368,18.676-10.789
		c-0.009-3.014-0.021-6.029-0.032-9.045c-0.015-4.105-0.031-8.211-0.041-12.318L157.79,219.922z M131.813,230.61l18.517,10.7
		l0.046-25.702l22.242-12.695c-5.447-3.162-11.349-6.575-18.349-10.611l-0.094,0.054l-0.161-0.092
		c-7.194,4.065-14.445,8.226-21.477,12.261l-0.683,0.392c-0.039,7.89-0.04,15.872-0.04,23.613L131.813,230.61z M157.79,160.176
		l-0.039,21.556c6.186-3.563,12.366-7.132,18.542-10.705l0.001-2.27c0.001-6.285,0.001-12.73,0.022-19.156L157.79,160.176z
		 M261.738,160.176l-0.039,21.556c6.23-3.589,12.455-7.183,18.676-10.781l-0.026-7.26c-0.017-4.704-0.035-9.407-0.046-14.11
		L261.738,160.176z M209.693,160.176l-0.039,21.556c6.23-3.59,12.455-7.183,18.677-10.782c-0.009-2.864-0.02-5.727-0.031-8.591
		c-0.016-4.26-0.032-8.52-0.043-12.779L209.693,160.176z M235.76,170.871c3.627,2.093,7.254,4.19,10.88,6.285
		c2.545,1.471,5.091,2.942,7.636,4.412l0.046-25.707l22.242-12.695c-5.871-3.404-11.818-6.835-18.512-10.694
		c-7.435,4.201-14.787,8.416-22.252,12.705c-0.04,7.816-0.041,15.732-0.042,23.407V170.871z M183.849,170.948
		c3.548,2.048,7.096,4.098,10.643,6.148c2.579,1.491,5.159,2.982,7.74,4.472l0.046-25.707l22.241-12.695
		c-5.867-3.403-11.814-6.834-18.511-10.694c-7.309,4.13-14.479,8.24-22.242,12.7c0.008,5.563,0.03,11.127,0.05,16.691
		C183.829,164.892,183.84,167.92,183.849,170.948z M131.813,170.871c3.597,2.076,7.193,4.154,10.789,6.232
		c2.575,1.489,5.151,2.977,7.727,4.465l0.046-25.707l22.241-12.695c-5.997-3.478-12.042-6.966-18.508-10.695
		c-7.377,4.168-14.753,8.395-22.256,12.706c-0.039,7.884-0.04,15.869-0.04,23.611L131.813,170.871z M213.487,128.216
		c6.541,3.772,12.442,7.182,18.405,10.648c6.282-3.61,12.485-7.168,18.726-10.711c-3.778-2.182-7.554-4.366-11.331-6.55
		l-7.168-4.144C225.913,121.05,219.702,124.635,213.487,128.216z M161.586,128.215c6.335,3.654,12.321,7.113,18.333,10.608
		c6.3-3.62,12.505-7.178,18.656-10.67c-3.831-2.212-7.661-4.427-11.491-6.642l-6.938-4.011
		C173.963,121.077,167.777,124.649,161.586,128.215z M157.79,100.303l-0.039,21.555c6.186-3.563,12.366-7.131,18.542-10.705
		l0.001-2.275c0.001-6.283,0.001-12.725,0.022-19.15L157.79,100.303z M261.738,100.303l-0.039,21.555
		c6.23-3.589,12.455-7.183,18.676-10.781l-0.026-7.26c-0.017-4.704-0.035-9.407-0.046-14.11L261.738,100.303z M209.693,100.303
		l-0.039,21.555c6.23-3.589,12.455-7.183,18.677-10.782c-0.009-2.864-0.02-5.727-0.031-8.592c-0.016-4.259-0.032-8.518-0.043-12.778
		L209.693,100.303z M183.849,111.069l6.949,4.018c3.811,2.203,7.622,4.408,11.433,6.609l0.046-25.707l22.242-12.695
		c-5.782-3.355-11.896-6.888-18.511-10.696c-7.441,4.199-14.944,8.507-22.243,12.701c0.008,5.564,0.03,11.128,0.05,16.691
		C183.829,105.016,183.84,108.043,183.849,111.069z M235.76,110.991l7.243,4.187c3.758,2.173,7.515,4.346,11.274,6.517l0.046-25.707
		l22.244-12.695c-5.806-3.369-11.921-6.902-18.512-10.696c-7.443,4.2-14.944,8.507-22.252,12.707
		c-0.04,7.815-0.041,15.728-0.042,23.402V110.991z M131.813,110.991l7.232,4.181c3.761,2.175,7.523,4.35,11.285,6.523l0.046-25.707
		l22.242-12.695c-5.834-3.386-11.947-6.919-18.508-10.696c-7.445,4.201-14.951,8.51-22.256,12.707
		c-0.039,7.883-0.04,15.866-0.04,23.606L131.813,110.991z M299.881,212.182v-7.422c7.672,0,14.901-1.199,22.1-3.664
		c27.532-9.422,46.03-35.306,46.03-64.407c0-37.539-30.563-68.08-68.13-68.08c-0.541,0-1.082,0.009-1.619,0.017l-2.298,0.037
		l-1.057-2.041C279.668,37.19,249.62,18.907,216.49,18.907c-25.644,0-49.977,11.127-66.761,30.53l-1.733,2.003l-2.458-0.988
		c-5.799-2.331-11.931-3.513-18.227-3.513c-12.838,0-24.963,4.936-34.141,13.9c-9.162,8.948-14.379,20.915-14.69,33.696
		l-0.074,3.033l-2.987,0.531c-25.672,4.565-44.305,26.819-44.305,52.916c0,29.635,24.131,53.745,53.791,53.745h32.807v7.422H84.908
		c-33.753,0-61.213-27.439-61.213-61.168c0-28.705,19.81-53.326,47.517-59.634c1.042-13.603,6.932-26.24,16.774-35.851
		c10.573-10.326,24.539-16.012,39.327-16.012c6.363,0,12.583,1.049,18.529,3.123c18.115-19.832,43.716-31.155,70.649-31.155
		c35.15,0,67.099,18.986,83.931,49.703c41.412,0.292,75.012,34.049,75.012,75.501c0,32.275-20.515,60.98-51.048,71.429
		C316.401,210.852,308.384,212.182,299.881,212.182z"/>
</g>
</svg>
